FINAL/B_2.b/wavetrace_output.vcd
$date
     May 15, 2025       00:57:06
$end

$version
 SystemC 3.0.2-Accellera --- Apr 10 2025 16:54:46
$end

$timescale
     1 ns
$end

$scope module SystemC $end
$var wire    1  aaaaa  CLK       $end
$var wire    1  aaaab  RST       $end
$var wire    1  aaaac  EN       $end
$var wire   32  aaaad  A [31:0]  $end
$var wire   32  aaaae  B [31:0]  $end
$var wire    1  aaaaf  DONE       $end
$var wire   32  aaaag  OUT_0 [31:0]  $end
$var wire   32  aaaah  OUT_1 [31:0]  $end
$upscope $end
$enddefinitions  $end

$comment
All initial values are dumped below at time 0 sec = 0 timescale units.
$end

$dumpvars
1aaaaa
1aaaab
0aaaac
b0 aaaad
b0 aaaae
0aaaaf
b0 aaaag
b0 aaaah
$end

#5
0aaaaa

#10
1aaaaa
0aaaab
1aaaac
b100011100111000011000110000111 aaaad
b1100001111010100100011100000100 aaaae

#15
0aaaaa

#20
1aaaaa
0aaaac

#25
0aaaaa

#30
1aaaaa
1aaaaf
b1001100100100110011011100011100 aaaag
b1101100111101100010101101010 aaaah

#35
0aaaaa

#40
1aaaaa
0aaaaf

#45
0aaaaa

#50
1aaaaa
1aaaac
b1100111010011011000000011001000 aaaad
b111001110011000110111001111000 aaaae

#55
0aaaaa

#60
1aaaaa
0aaaac

#65
0aaaaa

#70
1aaaaa
1aaaaf
b11100001000010100100110111000000 aaaag
b10111010100101100000000000010 aaaah

#75
0aaaaa

#80
1aaaaa
0aaaaf

#85
0aaaaa

#90
1aaaaa
1aaaac
b1101111011111111100111011000 aaaad
b1000111110111011010001110001100 aaaae

#95
0aaaaa

#100
1aaaaa
0aaaac

#105
0aaaaa

#110
1aaaaa
1aaaaf
b10110010010010101000100000 aaaag
b11111010011001111101011100 aaaah

#115
0aaaaa

#120
1aaaaa
0aaaaf

#125
0aaaaa

#130
1aaaaa
1aaaac
b1100111000000001100010011011100 aaaad
b1010011111111001001101111110111 aaaae

#135
0aaaaa

#140
1aaaaa
0aaaac

#145
0aaaaa

#150
1aaaaa
1aaaaf
b11110101011111110010010001000100 aaaag
b100001110010101110001101010101 aaaah

#155
0aaaaa

#160
1aaaaa
0aaaaf

#165
0aaaaa

#170
1aaaaa
1aaaac
b1010010000001011100011111011100 aaaad
b110111011111110101011001110 aaaae

#175
0aaaaa

#180
1aaaaa
0aaaac

#185
0aaaaa

#190
1aaaaa
1aaaaf
b111101110011110101100001000 aaaag
b10001110010000000101001111 aaaah

#195
0aaaaa

#200
1aaaaa
0aaaaf

#205
0aaaaa

#210
1aaaaa
1aaaac
b1001001010001110000001110001001 aaaad
b1100010111111100101000100111000 aaaae

#215
0aaaaa

#220
1aaaaa
0aaaac

#225
0aaaaa

#230
1aaaaa
1aaaaf
b1110011100101010001111011111000 aaaag
b11100010101011111101100001111 aaaah

#235
0aaaaa

#240
1aaaaa
0aaaaf

#245
0aaaaa

#250
1aaaaa
1aaaac
b1101110001111011101101001000100 aaaad
b1100101000001110010111011101111 aaaae

#255
0aaaaa

#260
1aaaaa
0aaaac

#265
0aaaaa

#270
1aaaaa
1aaaaf
b11010100110100101111110101111100 aaaag
b101011100000010111111100000011 aaaah

#275
0aaaaa

#280
1aaaaa
0aaaaf

#285
0aaaaa

#290
1aaaaa
1aaaac
b1010010001111111001010100111111 aaaad
b100100110000101000111011110111 aaaae

#295
0aaaaa

#300
1aaaaa
0aaaac

#305
0aaaaa

#310
1aaaaa
1aaaaf
b10010101110111111111000111001001 aaaag
b1011110011110111001100011010 aaaah

#315
0aaaaa

#320
1aaaaa
0aaaaf

#325
0aaaaa

#330
1aaaaa
1aaaac
b11011010101011000111011001101 aaaad
b10011010001001111000001110000 aaaae

#335
0aaaaa

#340
1aaaaa
0aaaac

#345
0aaaaa

#350
1aaaaa
1aaaaf
b1010000110000101010100110110000 aaaag
b10000011101011010111111110 aaaah

#355
0aaaaa

#360
1aaaaa
0aaaaf

#365
0aaaaa

#370
1aaaaa
1aaaac
b11110001101111110011110101 aaaad
b1000010110000010011000011001001 aaaae

#375
0aaaaa

#380
1aaaaa
0aaaac

#385
0aaaaa

#390
1aaaaa
1aaaaf
b100101010111111000110001011101 aaaag
b111111000010011011110011 aaaah

#395
0aaaaa

#400
1aaaaa
0aaaaf

#405
0aaaaa

#410
1aaaaa
1aaaac
b1100101000010101111111011010011 aaaad
b11101011011000001011000101110 aaaae

#415
0aaaaa

#420
1aaaaa
0aaaac

#425
0aaaaa

#430
1aaaaa
1aaaaf
b10000001111000111110101111101010 aaaag
b1011100111001110100001000010 aaaah

#435
0aaaaa

#440
1aaaaa
0aaaaf

#445
0aaaaa

#450
1aaaaa
1aaaac
b111100011100110011111101111111 aaaad
b1010011011111010100010101010100 aaaae

#455
0aaaaa

#460
1aaaaa
0aaaac

#465
0aaaaa

#470
1aaaaa
1aaaaf
b10011111100010001000010101100 aaaag
b10011101101101111001000111011 aaaah

#475
0aaaaa

#480
1aaaaa
0aaaaf

#485
0aaaaa

#490
1aaaaa
1aaaac
b1000000100010111011000100111100 aaaad
b111010000101011001011101011100 aaaae

#495
0aaaaa

#500
1aaaaa
0aaaac

#505
0aaaaa

#510
1aaaaa
1aaaaf
b10111001101010100001010110010000 aaaag
b1110101001010001011111000110 aaaah

#515
0aaaaa

#520
1aaaaa
0aaaaf

#525
0aaaaa

#530
1aaaaa
1aaaac
b1000111000100000011010100011 aaaad
b10001101101100110011100101100 aaaae

#535
0aaaaa

#540
1aaaaa
0aaaac

#545
0aaaaa

#550
1aaaaa
1aaaaf
b10011001101011100100000100 aaaag
b100111010101011010110101 aaaah

#555
0aaaaa

#560
1aaaaa
0aaaaf

#565
0aaaaa

#570
1aaaaa
1aaaac
b10001011100111000101110001100 aaaad
b111000011000100010100001111010 aaaae

#575
0aaaaa

#580
1aaaaa
0aaaac

#585
0aaaaa

#590
1aaaaa
1aaaaf
b1101010011101100110000010111000 aaaag
b11110101111111011110000100 aaaah

#595
0aaaaa

#600
1aaaaa
0aaaaf

#605
0aaaaa

#610
1aaaaa
1aaaac
b1010100010011001100000111111011 aaaad
b110101000011111011110100010100 aaaae

#615
0aaaaa

#620
1aaaaa
0aaaac

#625
0aaaaa

#630
1aaaaa
1aaaaf
b10010101111010100111011010011100 aaaag
b10001011110010001001011101011 aaaah

#635
0aaaaa

#640
1aaaaa
0aaaaf

#645
0aaaaa

#650
1aaaaa
1aaaac
b11010010011000110111101111111 aaaad
b111011100110100100001011000100 aaaae

#655
0aaaaa

#660
1aaaaa
0aaaac

#665
0aaaaa

#670
1aaaaa
1aaaaf
b101110101010100001101100111100 aaaag
b110000111110111011010001001 aaaah

#675
0aaaaa

#680
1aaaaa
0aaaaf

#685
0aaaaa

#690
1aaaaa
1aaaac
b1101110110111000010101110001100 aaaad
b101000001111000110100101010111 aaaae

#695
0aaaaa

#700
1aaaaa
0aaaac

#705
0aaaaa

#710
1aaaaa
1aaaaf
b1111011111110011100010010100 aaaag
b10001011011001001000000000101 aaaah

#715
0aaaaa

#720
1aaaaa
0aaaaf

#725
0aaaaa

#730
1aaaaa
1aaaac
b11011101111110011001010000 aaaad
b1010101110111001111000001101001 aaaae

#735
0aaaaa

#740
1aaaaa
0aaaac

#745
0aaaaa

#750
1aaaaa
1aaaaf
b1010000110110000111011011010000 aaaag
b1001010011100110111000011 aaaah

#755
0aaaaa

#760
1aaaaa
0aaaaf

#765
0aaaaa

#770
1aaaaa
1aaaac
b1111100001110010000010101001110 aaaad
b1010101011111011010111000101100 aaaae

#775
0aaaaa

#780
1aaaaa
0aaaac

#785
0aaaaa

#790
1aaaaa
1aaaaf
b10011000011111011110110101101000 aaaag
b101001011110111110101100011110 aaaah

#795
0aaaaa

#800
1aaaaa
0aaaaf

#805
0aaaaa

#810
1aaaaa
1aaaac
b1011100110011001101101100110111 aaaad
b1000101100000000000100011010111 aaaae

#815
0aaaaa

#820
1aaaaa
0aaaac

#825
0aaaaa

#830
1aaaaa
1aaaaf
b11000101011001011101001100110001 aaaag
b11001001100011010000010110111 aaaah

#835
0aaaaa

#840
1aaaaa
0aaaaf

#845
0aaaaa

#850
1aaaaa
1aaaac
b111000011110111111111101100100 aaaad
b1001011000010101011010101111011 aaaae

#855
0aaaaa

#860
1aaaaa
0aaaac

#865
0aaaaa

#870
1aaaaa
1aaaaf
b10101000011010110100100001100 aaaag
b10000100011101011000010110100 aaaah

#875
0aaaaa

#880
1aaaaa
0aaaaf

#885
0aaaaa

#890
1aaaaa
1aaaac
b101010100001110011011111000111 aaaad
b1010101110111001010010100011 aaaae

#895
0aaaaa

#900
1aaaaa
0aaaac

#905
0aaaaa

#910
1aaaaa
1aaaaf
b11000100101101001000111110110101 aaaag
b1110010000111000110100100 aaaah

#915
0aaaaa

#920
1aaaaa
0aaaaf

#925
0aaaaa

#930
1aaaaa
1aaaac
b1101111110011010100010001110010 aaaad
b1000101110111001100011010010100 aaaae

#935
0aaaaa

#940
1aaaaa
0aaaac

#945
0aaaaa

#950
1aaaaa
1aaaaf
b11110001100100111011110111101000 aaaag
b11110100000101011111010010010 aaaah

#955
0aaaaa

#960
1aaaaa
0aaaaf

#965
0aaaaa

#970
1aaaaa
1aaaac
b11110000000001000010100010011 aaaad
b1110011100101000100000101100111 aaaae

#975
0aaaaa

#980
1aaaaa
0aaaac

#985
0aaaaa

#990
1aaaaa
1aaaaf
b10101011111110110101110110100101 aaaag
b1101100010111001101110111110 aaaah

#995
0aaaaa

#1000
1aaaaa
0aaaaf

#1005
0aaaaa

#1010
1aaaaa
1aaaac
b1000100111011111011101011110 aaaad
b11000010111000001111100111 aaaae

#1015
0aaaaa

#1020
1aaaaa
0aaaac

#1025
0aaaaa

#1030
1aaaaa
1aaaaf
b1010111001010010100111111010010 aaaag
b110100011110100011111 aaaah

#1035
0aaaaa

#1040
1aaaaa
0aaaaf

#1045
0aaaaa

#1050
1aaaaa
1aaaac
b10001000000000101011110010101 aaaad
b1000101000100010011011011011101 aaaae

#1055
0aaaaa

#1060
1aaaaa
0aaaac

#1065
0aaaaa

#1070
1aaaaa
1aaaaf
b10111001101010100000100110100001 aaaag
b100100101100011110001000101 aaaah

#1075
0aaaaa

#1080
1aaaaa
0aaaaf

#1085
0aaaaa

#1090
1aaaaa
1aaaac
b1010110100010001100100100111011 aaaad
b1010001100011000000100011010001 aaaae

#1095
0aaaaa

#1100
1aaaaa
0aaaac

#1105
0aaaaa

#1110
1aaaaa
1aaaaf
b10100011001110100010000100101011 aaaag
b11011100100001001110101110100 aaaah

#1115
0aaaaa

#1120
1aaaaa
0aaaaf

#1125
0aaaaa

#1130
1aaaaa
1aaaac
b1111111001001101100111000111010 aaaad
b1011111011010101100111111011110 aaaae

#1135
0aaaaa

#1140
1aaaaa
0aaaac

#1145
0aaaaa

#1150
1aaaaa
1aaaaf
b10001110011010111011110001001100 aaaag
b101111011001000111001111010110 aaaah

#1155
0aaaaa

#1160
1aaaaa
0aaaaf

#1165
0aaaaa

#1170
1aaaaa
1aaaac
b1100011010000100110111111111101 aaaad
b10000100110100101100111000110 aaaae

#1175
0aaaaa

#1180
1aaaaa
0aaaac

#1185
0aaaaa

#1190
1aaaaa
1aaaaf
b1100100000111001001010101110 aaaag
b110011011111111111111000101 aaaah

#1195
0aaaaa

#1200
1aaaaa
0aaaaf

#1205
0aaaaa

#1210
1aaaaa
1aaaac
b10111110011001111100001011000 aaaad
b110111100011110011000111111001 aaaae

#1215
0aaaaa

#1220
1aaaaa
0aaaac

#1225
0aaaaa

#1230
1aaaaa
1aaaaf
b11000011100110010110011000 aaaag
b101001010100101100101111110 aaaah

#1235
0aaaaa

#1240
1aaaaa
0aaaaf

#1245
0aaaaa

#1250
1aaaaa
1aaaac
b1000101101010100001011011011010 aaaad
b110010000110010110011111010111 aaaae

#1255
0aaaaa

#1260
1aaaaa
0aaaac

#1265
0aaaaa

#1270
1aaaaa
1aaaaf
b11000000010101001110011100010110 aaaag
b1101101000100010001001010100 aaaah

#1275
0aaaaa

#1280
1aaaaa
0aaaaf

#1285
0aaaaa

#1290
1aaaaa
1aaaac
b1110011001010010111010010111101 aaaad
b110100100001100100001001100111 aaaae

#1295
0aaaaa

#1300
1aaaaa
0aaaac

#1305
0aaaaa

#1310
1aaaaa
1aaaaf
b10000100101101001011001000001011 aaaag
b10111101000001101000101001000 aaaah

#1315
0aaaaa

#1320
1aaaaa
0aaaaf

#1325
0aaaaa

#1330
1aaaaa
1aaaac
b1011010010101011101000100101110 aaaad
b1110110101000010101101100001101 aaaae

#1335
0aaaaa

#1340
1aaaaa
0aaaac

#1345
0aaaaa

#1350
1aaaaa
1aaaaf
b11011001101001001111100101010110 aaaag
b101001110111000111111010000100 aaaah

#1355
0aaaaa

#1360
1aaaaa
0aaaaf

#1365
0aaaaa

#1370
1aaaaa
1aaaac
b1010011000110011001011010000 aaaad
b1010110100011101101011001111100 aaaae

#1375
0aaaaa

#1380
1aaaaa
0aaaac

#1385
0aaaaa

#1390
1aaaaa
1aaaaf
b11111001100111110011000000 aaaag
b11100000110001111011001011 aaaah

#1395
0aaaaa

#1400
1aaaaa
0aaaaf

#1405
0aaaaa

#1410
1aaaaa
1aaaac
b1001100000111110000100100111001 aaaad
b1100111001100000000111000000111 aaaae

#1415
0aaaaa

#1420
1aaaaa
0aaaac

#1425
0aaaaa

#1430
1aaaaa
1aaaaf
b1110001000010100101111010001111 aaaag
b11110101011101100011010110011 aaaah

#1435
0aaaaa

#1440
1aaaaa
0aaaaf

#1445
0aaaaa

#1450
1aaaaa
1aaaac
b11100000011101101111101010100 aaaad
b100100110110000100010011101 aaaae

#1455
0aaaaa

#1460
1aaaaa
0aaaac

#1465
0aaaaa

#1470
1aaaaa
1aaaaf
b110011111101011001011010000100 aaaag
b100000010011100101110000 aaaah

#1475
0aaaaa

#1480
1aaaaa
0aaaaf

#1485
0aaaaa

#1490
1aaaaa
1aaaac
b110010001110101100001110000010 aaaad
b1000110100101100001011100011011 aaaae

#1495
0aaaaa

#1500
1aaaaa
0aaaac

#1505
0aaaaa

#1510
1aaaaa
1aaaaf
b10101101111011110100110010110110 aaaag
b1101110110011000010001101100 aaaah

#1515
0aaaaa

#1520
1aaaaa
0aaaaf

#1525
0aaaaa

#1530
1aaaaa
1aaaac
b1111010101101001110101000001 aaaad
b100010000010000000011111110100 aaaae

#1535
0aaaaa

#1540
1aaaaa
0aaaac

#1545
0aaaaa

#1550
1aaaaa
1aaaaf
b10001000111000101010100011110100 aaaag
b10000010011111110000010001 aaaah

#1555
0aaaaa

#1560
1aaaaa
0aaaaf

#1565
0aaaaa

#1570
1aaaaa
1aaaac
b1100011100101101110110101111 aaaad
b101101010101110010001001010100 aaaae

#1575
0aaaaa

#1580
1aaaaa
0aaaac

#1585
0aaaaa

#1590
1aaaaa
1aaaaf
b1110000100110101111101101101100 aaaag
b10001101000110110110101100 aaaah

#1595
0aaaaa

#1600
1aaaaa
0aaaaf

#1605
0aaaaa

#1610
1aaaaa
1aaaac
b10101100111000100100101011100 aaaad
b10101000100001101010100001101 aaaae

#1615
0aaaaa

#1620
1aaaaa
0aaaac

#1625
0aaaaa

#1630
1aaaaa
1aaaaf
b1000011101110010100010110101100 aaaag
b1110001110011110111000101 aaaah

#1635
0aaaaa

#1640
1aaaaa
0aaaaf

#1645
0aaaaa

#1650
1aaaaa
1aaaac
b110000011000101010011000111011 aaaad
b100110100111001010000011110001 aaaae

#1655
0aaaaa

#1660
1aaaaa
0aaaac

#1665
0aaaaa

#1670
1aaaaa
1aaaaf
b1000010101101110101110110001011 aaaag
b111010011000011111100110100 aaaah

#1675
0aaaaa

#1680
1aaaaa
0aaaaf

#1685
0aaaaa

#1690
1aaaaa
1aaaac
b1011010001000100000101111101011 aaaad
b110111010110110111101110110 aaaae

#1695
0aaaaa

#1700
1aaaaa
0aaaac

#1705
0aaaaa

#1710
1aaaaa
1aaaaf
b11000001100101010110001101010010 aaaag
b10011011111011000011000110 aaaah

#1715
0aaaaa

#1720
1aaaaa
0aaaaf

#1725
0aaaaa

#1730
1aaaaa
1aaaac
b1111000001010001010100111000011 aaaad
b1011001010010001101101000100101 aaaae

#1735
0aaaaa

#1740
1aaaaa
0aaaac

#1745
0aaaaa

#1750
1aaaaa
1aaaaf
b10001000010010001001011100101111 aaaag
b101001111010000101010011010111 aaaah

#1755
0aaaaa

#1760
1aaaaa
0aaaaf

#1765
0aaaaa

#1770
1aaaaa
1aaaac
b1100110010101100011111101010100 aaaad
b1011011011010110001100111000000 aaaae

#1775
0aaaaa

#1780
1aaaaa
0aaaac

#1785
0aaaaa

#1790
1aaaaa
1aaaaf
b10000000111110101011001100000000 aaaag
b100100100010110111100011011010 aaaah

#1795
0aaaaa

#1800
1aaaaa
0aaaaf

#1805
0aaaaa

#1810
1aaaaa
1aaaac
b1101001111000110011001111101011 aaaad
b1111110001000110011011110101101 aaaae

#1815
0aaaaa

#1820
1aaaaa
0aaaac

#1825
0aaaaa

#1830
1aaaaa
1aaaaf
b100001110100101001001011001111 aaaag
b110100001011000110010010100101 aaaah

#1835
0aaaaa

#1840
1aaaaa
0aaaaf

#1845
0aaaaa

#1850
1aaaaa
1aaaac
b10010111110100100101110111001 aaaad
b101111100011010100101011000110 aaaae

#1855
0aaaaa

#1860
1aaaaa
0aaaac

#1865
0aaaaa

#1870
1aaaaa
1aaaaf
b10110011010111110000101100010110 aaaag
b11100001100110110101001101 aaaah

#1875
0aaaaa

#1880
1aaaaa
0aaaaf

#1885
0aaaaa

#1890
1aaaaa
1aaaac
b110000001111001001111110000100 aaaad
b110001000111100000001110110 aaaae

#1895
0aaaaa

#1900
1aaaaa
0aaaac

#1905
0aaaaa

#1910
1aaaaa
1aaaaf
b10011010101000001000011011011000 aaaag
b1001010000010100001001010 aaaah

#1915
0aaaaa

#1920
1aaaaa
0aaaaf

#1925
0aaaaa

#1930
1aaaaa
1aaaac
b1100100000100111000110100101101 aaaad
b1010100100100111000010110011 aaaae

#1935
0aaaaa

#1940
1aaaaa
0aaaac

#1945
0aaaaa

#1950
1aaaaa
1aaaaf
b11001101000110010110011001110111 aaaag
b100001000100000001010111000 aaaah

#1955
0aaaaa

#1960
1aaaaa
0aaaaf

#1965
0aaaaa

#1970
1aaaaa
1aaaac
b1111100110001010001101110000011 aaaad
b1101110011101101011111111111101 aaaae

#1975
0aaaaa

#1980
1aaaaa
0aaaac

#1985
0aaaaa

#1990
1aaaaa
1aaaaf
b1010110101101001110110101110111 aaaag
b110101110101101001001000111111 aaaah

#1995
0aaaaa

#2000
1aaaaa
0aaaaf

#2005
0aaaaa

#2010
1aaaaa
1aaaac
b1100001001000010100011100101111 aaaad
b1001000111001000010010010111100 aaaae

#2015
0aaaaa

#2020
1aaaaa
0aaaac

#2025
0aaaaa

#2030
1aaaaa
1aaaaf
b10100000010011101110001010000100 aaaag
b11011101001111110101110011000 aaaah

#2035
0aaaaa

#2040
1aaaaa
0aaaaf

#2045
0aaaaa

#2050
1aaaaa
1aaaac
b1010101101001101100111000000100 aaaad
b1111101001100000010011010000011 aaaae

#2055
0aaaaa

#2060
1aaaaa
0aaaac

#2065
0aaaaa

#2070
1aaaaa
1aaaaf
b101011101100000000010000001100 aaaag
b101001111000101000111011000001 aaaah

#2075
0aaaaa

#2080
1aaaaa
0aaaaf

#2085
0aaaaa

#2090
1aaaaa
1aaaac
b1001101011111110010110101011010 aaaad
b111111000011001000110000110 aaaae

#2095
0aaaaa

#2100
1aaaaa
0aaaac

#2105
0aaaaa

#2110
1aaaaa
1aaaaf
b11101011010110111011011100011100 aaaag
b10011000101100001100010001 aaaah

#2115
0aaaaa

#2120
1aaaaa
0aaaaf

#2125
0aaaaa

#2130
1aaaaa
1aaaac
b1000011110001100011110110011110 aaaad
b1011100110101011100101010011011 aaaae

#2135
0aaaaa

#2140
1aaaaa
0aaaac

#2145
0aaaaa

#2150
1aaaaa
1aaaaf
b10000010000110111111101010101010 aaaag
b11000100100111101011110111001 aaaah

#2155
0aaaaa

#2160
1aaaaa
0aaaaf

#2165
0aaaaa

#2170
1aaaaa
1aaaac
b101001111010011001100101111010 aaaad
b1010000001110010001101101001110 aaaae

#2175
0aaaaa

#2180
1aaaaa
0aaaac

#2185
0aaaaa

#2190
1aaaaa
1aaaaf
b10110100100001101010000100101100 aaaag
b1101001000100101100101110001 aaaah

#2195
0aaaaa

#2200
1aaaaa
0aaaaf

#2205
0aaaaa

#2210
1aaaaa
1aaaac
b1010001011001110110011101111 aaaad
b111111100001011110001011010110 aaaae

#2215
0aaaaa

#2220
1aaaaa
0aaaac

#2225
0aaaaa

#2230
1aaaaa
1aaaaf
b10011111001000000110111001010 aaaag
b10100001100110000010101001 aaaah

#2235
0aaaaa

#2240
1aaaaa
0aaaaf

#2245
0aaaaa

#2250
1aaaaa
1aaaac
b1100101010010011111000001011011 aaaad
b111010100011111001001100101011 aaaae

#2255
0aaaaa

#2260
1aaaaa
0aaaac

#2265
0aaaaa

#2270
1aaaaa
1aaaaf
b1011001010001001010000001001001 aaaag
b10111001010111000111011111011 aaaah

#2275
0aaaaa

#2280
1aaaaa
0aaaaf

#2285
0aaaaa

#2290
1aaaaa
1aaaac
b1100110001000101000001111001000 aaaad
b111111011010111111110001000110 aaaae

#2295
0aaaaa

#2300
1aaaaa
0aaaac

#2305
0aaaaa

#2310
1aaaaa
1aaaaf
b110011110000001110100010110000 aaaag
b11001010011011001001110000000 aaaah

#2315
0aaaaa

#2320
1aaaaa
0aaaaf

#2325
0aaaaa

#2330
1aaaaa
1aaaac
b1000001011110110000001010100001 aaaad
b1011110010010110010110110001011 aaaae

#2335
0aaaaa

#2340
1aaaaa
0aaaac

#2345
0aaaaa

#2350
1aaaaa
1aaaaf
b10000011010111011101001101011 aaaag
b11000000111100110010110100111 aaaah

#2355
0aaaaa

#2360
1aaaaa
0aaaaf

#2365
0aaaaa

#2370
1aaaaa
1aaaac
b11000101101001101011001101011 aaaad
b100111110100010100000111110110 aaaae

#2375
0aaaaa

#2380
1aaaaa
0aaaac

#2385
0aaaaa

#2390
1aaaaa
1aaaaf
b10100100100011010111010010 aaaag
b11110101111011111010101010 aaaah

#2395
0aaaaa

#2400
1aaaaa
0aaaaf

#2405
0aaaaa

#2410
1aaaaa
1aaaac
b111001101101100100011101001011 aaaad
b10100110000000101001010111 aaaae

#2415
0aaaaa

#2420
1aaaaa
0aaaac

#2425
0aaaaa

#2430
1aaaaa
1aaaaf
b10100110010000110010100001111101 aaaag
b100101011011001100011101 aaaah

#2435
0aaaaa

#2440
1aaaaa
0aaaaf

#2445
0aaaaa

#2450
1aaaaa
1aaaac
b100101111101000111100110100011 aaaad
b1001100101100001001001100000101 aaaae

#2455
0aaaaa

#2460
1aaaaa
0aaaac

#2465
0aaaaa

#2470
1aaaaa
1aaaaf
b100011101011101111100100101111 aaaag
b1011010111101100000111111011 aaaah

#2475
0aaaaa

#2480
1aaaaa
0aaaaf

#2485
0aaaaa

#2490
1aaaaa
1aaaac
b110010001001010101010100011101 aaaad
b1010110001100010001100100100111 aaaae

#2495
0aaaaa

#2500
1aaaaa
0aaaac

#2505
0aaaaa

#2510
1aaaaa
1aaaaf
b1010001100011001100110001101011 aaaag
b10000111000100010100010101010 aaaah

#2515
0aaaaa

#2520
1aaaaa
0aaaaf

#2525
0aaaaa

#2530
1aaaaa
1aaaac
b1010010110101000101001101111011 aaaad
b10110001110001110001001001010 aaaae

#2535
0aaaaa

#2540
1aaaaa
0aaaac

#2545
0aaaaa

#2550
1aaaaa
1aaaaf
b110111111110101011011110001110 aaaag
b111001100001010011011010101 aaaah

#2555
0aaaaa

#2560
1aaaaa
0aaaaf

#2565
0aaaaa

#2570
1aaaaa
1aaaac
b1100000110000111000100111011010 aaaad
b1001111100110010110111011111111 aaaae

#2575
0aaaaa

#2580
1aaaaa
0aaaac

#2585
0aaaaa

#2590
1aaaaa
1aaaaf
b10001010010111111110000100110 aaaag
b11110000101100101011001011011 aaaah

#2595
0aaaaa

#2600
1aaaaa
0aaaaf

#2605
0aaaaa

#2610
1aaaaa
1aaaac
b100101011111010001001000111 aaaad
b1000001111001001101000100001010 aaaae

#2615
0aaaaa

#2620
1aaaaa
0aaaac

#2625
0aaaaa

#2630
1aaaaa
1aaaaf
b100000100101000100110111000110 aaaag
b1001101001100100001110011 aaaah

#2635
0aaaaa

#2640
1aaaaa
0aaaaf

#2645
0aaaaa

#2650
1aaaaa
1aaaac
b11000011111011001001110111011 aaaad
b1011010010101100111000001001011 aaaae

#2655
0aaaaa

#2660
1aaaaa
0aaaac

#2665
0aaaaa

#2670
1aaaaa
1aaaaf
b1111100001111100001011111001001 aaaag
b1000101001000110101011011101 aaaah

#2675
0aaaaa

#2680
1aaaaa
0aaaaf

#2685
0aaaaa

#2690
1aaaaa
1aaaac
b111111000101001111011110001101 aaaad
b1100101111111001100000100010101 aaaae

#2695
0aaaaa

#2700
1aaaaa
0aaaac

#2705
0aaaaa

#2710
1aaaaa
1aaaaf
b1001011001001011001101110010001 aaaag
b11001001000011000110111100001 aaaah

#2715
0aaaaa

#2720
1aaaaa
0aaaaf

#2725
0aaaaa

#2730
1aaaaa
1aaaac
b1100010001110000000000111010001 aaaad
b10110110110011010100101100 aaaae

#2735
0aaaaa

#2740
1aaaaa
0aaaac

#2745
0aaaaa

#2750
1aaaaa
1aaaaf
b10101001110010111001010011101100 aaaag
b1000110001000101001010011 aaaah

#2755
0aaaaa

#2760
1aaaaa
0aaaaf

#2765
0aaaaa

#2770
1aaaaa
1aaaac
b1000010110100101000101110110000 aaaad
b1100001000011001101101001011 aaaae

#2775
0aaaaa

#2780
1aaaaa
0aaaac

#2785
0aaaaa

#2790
1aaaaa
1aaaaf
b1001111111100100111110010010000 aaaag
b11001010101010010000111000 aaaah

#2795
0aaaaa

#2800
1aaaaa
0aaaaf

#2805
0aaaaa

#2810
1aaaaa
1aaaac
b1010011000101000101000001111010 aaaad
b1001100111111110111100010100000 aaaae

#2815
0aaaaa

#2820
1aaaaa
0aaaac

#2825
0aaaaa

#2830
1aaaaa
1aaaaf
b11010011111100010111110001000000 aaaag
b11000111111001111000001000101 aaaah

#2835
0aaaaa

#2840
1aaaaa
0aaaaf

#2845
0aaaaa

#2850
1aaaaa
1aaaac
b1001011101001110111111000100010 aaaad
b111000010111100100000011010101 aaaae

#2855
0aaaaa

#2860
1aaaaa
0aaaac

#2865
0aaaaa

#2870
1aaaaa
1aaaaf
b10010010011000000111001001001010 aaaag
b10000101010000111111001000000 aaaah

#2875
0aaaaa

#2880
1aaaaa
0aaaaf

#2885
0aaaaa

#2890
1aaaaa
1aaaac
b111100011110000101111001011 aaaad
b110001110010100000000111101010 aaaae

#2895
0aaaaa

#2900
1aaaaa
0aaaac

#2905
0aaaaa

#2910
1aaaaa
1aaaaf
b10100000111110101001001010001110 aaaag
b1011110000101100000101111 aaaah

#2915
0aaaaa

#2920
1aaaaa
0aaaaf

#2925
0aaaaa

#2930
1aaaaa
1aaaac
b1110111110010100011110100011100 aaaad
b1001001000010100000111001101100 aaaae

#2935
0aaaaa

#2940
1aaaaa
0aaaac

#2945
0aaaaa

#2950
1aaaaa
1aaaaf
b11110111110000010100111111010000 aaaag
b100010001011010110000000010010 aaaah

#2955
0aaaaa

#2960
1aaaaa
0aaaaf

#2965
0aaaaa

#2970
1aaaaa
1aaaac
b10000000101010010111101110101 aaaad
b10000011111110001001110000111 aaaae

#2975
0aaaaa

#2980
1aaaaa
0aaaac

#2985
0aaaaa

#2990
1aaaaa
1aaaaf
b11101000101111001011010110110011 aaaag
b1000010010100111010110011 aaaah

#2995
0aaaaa

#3000
1aaaaa
0aaaaf

#3005
0aaaaa

#3010
1aaaaa
1aaaac
b1110000110110110101000001100010 aaaad
b1001001110010110111011011000000 aaaae

#3015
0aaaaa

#3020
1aaaaa
0aaaac

#3025
0aaaaa

#3030
1aaaaa
1aaaaf
b1101011001111110111010110000000 aaaag
b100000100010000011110000101110 aaaah

#3035
0aaaaa

#3040
1aaaaa
0aaaaf

#3045
0aaaaa

#3050
1aaaaa
1aaaac
b10011000101110001110111011110 aaaad
b10110110011111100101000000101 aaaae

#3055
0aaaaa

#3060
1aaaaa
0aaaac

#3065
0aaaaa

#3070
1aaaaa
1aaaaf
b11010111100001101100000101010110 aaaag
b1101100110111101101010010 aaaah

#3075
0aaaaa

#3080
1aaaaa
0aaaaf

#3085
0aaaaa

#3090
1aaaaa
1aaaac
b10110011111000000100111000101 aaaad
b1000101001111000111001011111011 aaaae

#3095
0aaaaa

#3100
1aaaaa
0aaaac

#3105
0aaaaa

#3110
1aaaaa
1aaaaf
b10101011001000110100111000100111 aaaag
b110000101001011110111001101 aaaah

#3115
0aaaaa

#3120
1aaaaa
0aaaaf

#3125
0aaaaa

#3130
1aaaaa
1aaaac
b1101101000000001110001100101101 aaaad
b1101001010100000101110101000001 aaaae

#3135
0aaaaa

#3140
1aaaaa
0aaaac

#3145
0aaaaa

#3150
1aaaaa
1aaaaf
b1110010110100010000011101101101 aaaag
b101100110101111001010100101001 aaaah

#3155
0aaaaa

#3160
1aaaaa
0aaaaf

#3165
0aaaaa

#3170
1aaaaa
1aaaac
b1011011011101010101010101000101 aaaad
b1001101110001000110110100000111 aaaae

#3175
0aaaaa

#3180
1aaaaa
0aaaac

#3185
0aaaaa

#3190
1aaaaa
1aaaaf
b1111111010101111011010111100011 aaaag
b11011110010000111011101101110 aaaah

#3195
0aaaaa

#3200
1aaaaa
0aaaaf

#3205
0aaaaa

#3210
1aaaaa
1aaaac
b111000111010011100110001000000 aaaad
b1100000001001001111011110001100 aaaae

#3215
0aaaaa

#3220
1aaaaa
0aaaac

#3225
0aaaaa

