gcd_caculator/gcd_f/wavetrace_output.vcd
$date
     Apr 27, 2025       17:36:11
$end

$version
 SystemC 3.0.2-Accellera --- Apr 10 2025 16:54:46
$end

$timescale
     1 ns
$end

$scope module SystemC $end
$var wire    1  aaaaa  clk       $end
$var wire    1  aaaab  en       $end
$var wire    4  aaaac  x [3:0]  $end
$var wire    4  aaaad  y [3:0]  $end
$var wire    4  aaaae  out [3:0]  $end
$var wire    1  aaaaf  done       $end
$upscope $end
$enddefinitions  $end

$comment
All initial values are dumped below at time 0 sec = 0 timescale units.
$end

$dumpvars
0aaaaa
0aaaab
b0 aaaac
b0 aaaad
b0 aaaae
0aaaaf
$end

#10
b11 aaaac
b10 aaaad

#15
1aaaaa

#20
0aaaaa

#25
1aaaaa

#30
0aaaaa

#35
1aaaaa

#40
0aaaaa

#45
1aaaaa

#50
0aaaaa

#55
1aaaaa

#60
0aaaaa
1aaaab

#70
b1100 aaaac
b100 aaaad

#75
1aaaaa

#80
0aaaaa

#85
1aaaaa

#90
0aaaaa

#95
1aaaaa

#100
0aaaaa

#105
1aaaaa

#110
0aaaaa

#115
1aaaaa

#120
0aaaaa

#125
1aaaaa

#130
0aaaaa

#135
1aaaaa

#140
0aaaaa

#145
1aaaaa
b100 aaaae
1aaaaf

#150
0aaaaa

#155
1aaaaa
0aaaaf

#160
0aaaaa
b1001 aaaac
b11 aaaad

#165
1aaaaa

#170
0aaaaa

#175
1aaaaa

#180
0aaaaa

#185
1aaaaa

#190
0aaaaa

#195
1aaaaa

#200
0aaaaa

#205
1aaaaa

#210
0aaaaa

#215
1aaaaa

#220
0aaaaa

#225
1aaaaa

#230
0aaaaa

#235
1aaaaa
b11 aaaae
1aaaaf

#240
0aaaaa

#245
1aaaaa
0aaaaf

#250
0aaaaa
b11 aaaac
b1101 aaaad

#255
1aaaaa

#260
0aaaaa

#265
1aaaaa

#270
0aaaaa

#275
1aaaaa

#280
0aaaaa

#285
1aaaaa

#290
0aaaaa

#295
1aaaaa

#300
0aaaaa

#305
1aaaaa

#310
0aaaaa

#315
1aaaaa

#320
0aaaaa

#325
1aaaaa

#330
0aaaaa

#335
1aaaaa

#340
0aaaaa

#345
1aaaaa

#350
0aaaaa

#355
1aaaaa

#360
0aaaaa

#365
1aaaaa

#370
0aaaaa

#375
1aaaaa

#380
0aaaaa

#385
1aaaaa

#390
0aaaaa

#395
1aaaaa

#400
0aaaaa

#405
1aaaaa

#410
0aaaaa

#415
1aaaaa

#420
0aaaaa

#425
1aaaaa

#430
0aaaaa

#435
1aaaaa

#440
0aaaaa

#445
1aaaaa
b1 aaaae
1aaaaf

#450
0aaaaa

#455
1aaaaa
0aaaaf

#460
0aaaaa
b111 aaaac
b0 aaaad

