thefirsttest/dlock_waveform.vcd
$date
     Mar 27, 2025       10:01:15
$end

$version
 SystemC 3.0.1-Accellera --- Mar 26 2025 22:42:18
$end

$timescale
     1 ns
$end

$scope module SystemC $end
$var wire    1  aaaaa  CLK       $end
$var wire    1  aaaab  RST       $end
$var wire    1  aaaac  B0       $end
$var wire    1  aaaad  B1       $end
$var wire    1  aaaae  UNLOCK       $end
$upscope $end
$enddefinitions  $end

$comment
All initial values are dumped below at time 0 sec = 0 timescale units.
$end

$dumpvars
0aaaaa
1aaaab
0aaaac
0aaaad
0aaaae
$end

#5
1aaaaa

#10
0aaaaa
0aaaab

#15
1aaaad

#20
1aaaaa

#25
0aaaaa

#30
1aaaaa

#35
0aaaaa
1aaaac
0aaaad

#40
1aaaaa

#45
0aaaaa
0aaaac
1aaaad

#50
1aaaaa

#55
0aaaaa
1aaaac
0aaaad

#60
1aaaaa

#65
0aaaaa
0aaaac
1aaaad

#70
1aaaaa

#75
0aaaaa
1aaaac
0aaaad

#80
1aaaaa

#85
0aaaaa
0aaaac
1aaaad

#90
1aaaaa
1aaaae

#95
0aaaaa

#100
1aaaaa
0aaaae

#105
0aaaaa

#110
1aaaaa

#115
0aaaaa
1aaaac
0aaaad

#120
1aaaaa

#125
0aaaaa
0aaaac
1aaaad

#130
1aaaaa

#135
0aaaaa
1aaaac
0aaaad

#140
1aaaaa

#145
0aaaaa
0aaaac
1aaaad

#150
1aaaaa

#155
0aaaaa
1aaaac
0aaaad

#160
1aaaaa

#165
0aaaaa
0aaaac
1aaaad

#170
1aaaaa
1aaaae

#175
0aaaaa

#180
1aaaaa
0aaaae

