FINAL/UTILS_4BIT/MUX_8_1/wavetrace_output.vcd
$date
     May 14, 2025       01:56:38
$end

$version
 SystemC 3.0.2-Accellera --- Apr 10 2025 16:54:46
$end

$timescale
     1 ns
$end

$scope module SystemC $end
$var wire    4  aaaaa  in_0 [3:0]  $end
$var wire    4  aaaab  in_1 [3:0]  $end
$var wire    4  aaaac  in_2 [3:0]  $end
$var wire    4  aaaad  in_3 [3:0]  $end
$var wire    4  aaaae  in_4 [3:0]  $end
$var wire    4  aaaaf  in_5 [3:0]  $end
$var wire    4  aaaag  in_6 [3:0]  $end
$var wire    4  aaaah  in_7 [3:0]  $end
$var wire    3  aaaai  sel [2:0]  $end
$var wire    1  aaaaj  en       $end
$var wire    4  aaaak  out [3:0]  $end
$upscope $end
$enddefinitions  $end

$comment
All initial values are dumped below at time 0 sec = 0 timescale units.
$end

$dumpvars
b0 aaaaa
b0 aaaab
b0 aaaac
b0 aaaad
b0 aaaae
b0 aaaaf
b0 aaaag
b0 aaaah
b0 aaaai
0aaaaj
b0 aaaak
$end

#10
b1 aaaab
b10 aaaac
b11 aaaad
b100 aaaae
b101 aaaaf
b110 aaaag
b111 aaaah
1aaaaj

#15
0aaaaj

#20
b1 aaaaa
b10 aaaab
b11 aaaac
b100 aaaad
b101 aaaae
b110 aaaaf
b111 aaaag
b1000 aaaah
1aaaaj
b1 aaaak

#25
0aaaaj
b0 aaaak

#30
b10 aaaaa
b11 aaaab
b100 aaaac
b101 aaaad
b110 aaaae
b111 aaaaf
b1000 aaaag
b1001 aaaah
1aaaaj
b10 aaaak

#35
0aaaaj
b0 aaaak

#40
b11 aaaaa
b100 aaaab
b101 aaaac
b110 aaaad
b111 aaaae
b1000 aaaaf
b1001 aaaag
b1010 aaaah
1aaaaj
b11 aaaak

#45
0aaaaj
b0 aaaak

#50
b100 aaaaa
b101 aaaab
b110 aaaac
b111 aaaad
b1000 aaaae
b1001 aaaaf
b1010 aaaag
b1011 aaaah
1aaaaj
b100 aaaak

#55
0aaaaj
b0 aaaak

#60
b101 aaaaa
b110 aaaab
b111 aaaac
b1000 aaaad
b1001 aaaae
b1010 aaaaf
b1011 aaaag
b1100 aaaah
1aaaaj
b101 aaaak

#65
0aaaaj
b0 aaaak

#70
b110 aaaaa
b111 aaaab
b1000 aaaac
b1001 aaaad
b1010 aaaae
b1011 aaaaf
b1100 aaaag
b1101 aaaah
1aaaaj
b110 aaaak

#75
0aaaaj
b0 aaaak

#80
b111 aaaaa
b1000 aaaab
b1001 aaaac
b1010 aaaad
b1011 aaaae
b1100 aaaaf
b1101 aaaag
b1110 aaaah
1aaaaj
b111 aaaak

#85
0aaaaj
b0 aaaak

#90
b1000 aaaaa
b1001 aaaab
b1010 aaaac
b1011 aaaad
b1100 aaaae
b1101 aaaaf
b1110 aaaag
b1111 aaaah
1aaaaj
b1000 aaaak

#95
0aaaaj
b0 aaaak

#100
b1001 aaaaa
b1010 aaaab
b1011 aaaac
b1100 aaaad
b1101 aaaae
b1110 aaaaf
b1111 aaaag
b0 aaaah
1aaaaj
b1001 aaaak

#105
0aaaaj
b0 aaaak

#110
b1010 aaaaa
b1011 aaaab
b1100 aaaac
b1101 aaaad
b1110 aaaae
b1111 aaaaf
b0 aaaag
b1 aaaah
1aaaaj
b1010 aaaak

#115
0aaaaj
b0 aaaak

#120
b1011 aaaaa
b1100 aaaab
b1101 aaaac
b1110 aaaad
b1111 aaaae
b0 aaaaf
b1 aaaag
b10 aaaah
1aaaaj
b1011 aaaak

#125
0aaaaj
b0 aaaak

#130
b1100 aaaaa
b1101 aaaab
b1110 aaaac
b1111 aaaad
b0 aaaae
b1 aaaaf
b10 aaaag
b11 aaaah
1aaaaj
b1100 aaaak

#135
0aaaaj
b0 aaaak

#140
b1101 aaaaa
b1110 aaaab
b1111 aaaac
b0 aaaad
b1 aaaae
b10 aaaaf
b11 aaaag
b100 aaaah
1aaaaj
b1101 aaaak

#145
0aaaaj
b0 aaaak

#150
b1110 aaaaa
b1111 aaaab
b0 aaaac
b1 aaaad
b10 aaaae
b11 aaaaf
b100 aaaag
b101 aaaah
1aaaaj
b1110 aaaak

#155
0aaaaj
b0 aaaak

#160
b1111 aaaaa
b0 aaaab
b1 aaaac
b10 aaaad
b11 aaaae
b100 aaaaf
b101 aaaag
b110 aaaah
1aaaaj
b1111 aaaak

#165
0aaaaj
b0 aaaak

#170
b0 aaaaa
b1 aaaab
b10 aaaac
b11 aaaad
b100 aaaae
b101 aaaaf
b110 aaaag
b111 aaaah
b1 aaaai
1aaaaj
b1 aaaak

#175
0aaaaj
b0 aaaak

#180
b1 aaaaa
b10 aaaab
b11 aaaac
b100 aaaad
b101 aaaae
b110 aaaaf
b111 aaaag
b1000 aaaah
1aaaaj
b10 aaaak

#185
0aaaaj
b0 aaaak

#190
b10 aaaaa
b11 aaaab
b100 aaaac
b101 aaaad
b110 aaaae
b111 aaaaf
b1000 aaaag
b1001 aaaah
1aaaaj
b11 aaaak

#195
0aaaaj
b0 aaaak

#200
b11 aaaaa
b100 aaaab
b101 aaaac
b110 aaaad
b111 aaaae
b1000 aaaaf
b1001 aaaag
b1010 aaaah
1aaaaj
b100 aaaak

#205
0aaaaj
b0 aaaak

#210
b100 aaaaa
b101 aaaab
b110 aaaac
b111 aaaad
b1000 aaaae
b1001 aaaaf
b1010 aaaag
b1011 aaaah
1aaaaj
b101 aaaak

#215
0aaaaj
b0 aaaak

#220
b101 aaaaa
b110 aaaab
b111 aaaac
b1000 aaaad
b1001 aaaae
b1010 aaaaf
b1011 aaaag
b1100 aaaah
1aaaaj
b110 aaaak

#225
0aaaaj
b0 aaaak

#230
b110 aaaaa
b111 aaaab
b1000 aaaac
b1001 aaaad
b1010 aaaae
b1011 aaaaf
b1100 aaaag
b1101 aaaah
1aaaaj
b111 aaaak

#235
0aaaaj
b0 aaaak

#240
b111 aaaaa
b1000 aaaab
b1001 aaaac
b1010 aaaad
b1011 aaaae
b1100 aaaaf
b1101 aaaag
b1110 aaaah
1aaaaj
b1000 aaaak

#245
0aaaaj
b0 aaaak

#250
b1000 aaaaa
b1001 aaaab
b1010 aaaac
b1011 aaaad
b1100 aaaae
b1101 aaaaf
b1110 aaaag
b1111 aaaah
1aaaaj
b1001 aaaak

#255
0aaaaj
b0 aaaak

#260
b1001 aaaaa
b1010 aaaab
b1011 aaaac
b1100 aaaad
b1101 aaaae
b1110 aaaaf
b1111 aaaag
b0 aaaah
1aaaaj
b1010 aaaak

#265
0aaaaj
b0 aaaak

#270
b1010 aaaaa
b1011 aaaab
b1100 aaaac
b1101 aaaad
b1110 aaaae
b1111 aaaaf
b0 aaaag
b1 aaaah
1aaaaj
b1011 aaaak

#275
0aaaaj
b0 aaaak

#280
b1011 aaaaa
b1100 aaaab
b1101 aaaac
b1110 aaaad
b1111 aaaae
b0 aaaaf
b1 aaaag
b10 aaaah
1aaaaj
b1100 aaaak

#285
0aaaaj
b0 aaaak

#290
b1100 aaaaa
b1101 aaaab
b1110 aaaac
b1111 aaaad
b0 aaaae
b1 aaaaf
b10 aaaag
b11 aaaah
1aaaaj
b1101 aaaak

#295
0aaaaj
b0 aaaak

#300
b1101 aaaaa
b1110 aaaab
b1111 aaaac
b0 aaaad
b1 aaaae
b10 aaaaf
b11 aaaag
b100 aaaah
1aaaaj
b1110 aaaak

#305
0aaaaj
b0 aaaak

#310
b1110 aaaaa
b1111 aaaab
b0 aaaac
b1 aaaad
b10 aaaae
b11 aaaaf
b100 aaaag
b101 aaaah
1aaaaj
b1111 aaaak

#315
0aaaaj
b0 aaaak

#320
b1111 aaaaa
b0 aaaab
b1 aaaac
b10 aaaad
b11 aaaae
b100 aaaaf
b101 aaaag
b110 aaaah
1aaaaj

#325
0aaaaj

#330
b0 aaaaa
b1 aaaab
b10 aaaac
b11 aaaad
b100 aaaae
b101 aaaaf
b110 aaaag
b111 aaaah
b10 aaaai
1aaaaj
b10 aaaak

#335
0aaaaj
b0 aaaak

#340
b1 aaaaa
b10 aaaab
b11 aaaac
b100 aaaad
b101 aaaae
b110 aaaaf
b111 aaaag
b1000 aaaah
1aaaaj
b11 aaaak

#345
0aaaaj
b0 aaaak

#350
b10 aaaaa
b11 aaaab
b100 aaaac
b101 aaaad
b110 aaaae
b111 aaaaf
b1000 aaaag
b1001 aaaah
1aaaaj
b100 aaaak

#355
0aaaaj
b0 aaaak

#360
b11 aaaaa
b100 aaaab
b101 aaaac
b110 aaaad
b111 aaaae
b1000 aaaaf
b1001 aaaag
b1010 aaaah
1aaaaj
b101 aaaak

#365
0aaaaj
b0 aaaak

#370
b100 aaaaa
b101 aaaab
b110 aaaac
b111 aaaad
b1000 aaaae
b1001 aaaaf
b1010 aaaag
b1011 aaaah
1aaaaj
b110 aaaak

#375
0aaaaj
b0 aaaak

#380
b101 aaaaa
b110 aaaab
b111 aaaac
b1000 aaaad
b1001 aaaae
b1010 aaaaf
b1011 aaaag
b1100 aaaah
1aaaaj
b111 aaaak

#385
0aaaaj
b0 aaaak

#390
b110 aaaaa
b111 aaaab
b1000 aaaac
b1001 aaaad
b1010 aaaae
b1011 aaaaf
b1100 aaaag
b1101 aaaah
1aaaaj
b1000 aaaak

#395
0aaaaj
b0 aaaak

#400
b111 aaaaa
b1000 aaaab
b1001 aaaac
b1010 aaaad
b1011 aaaae
b1100 aaaaf
b1101 aaaag
b1110 aaaah
1aaaaj
b1001 aaaak

#405
0aaaaj
b0 aaaak

#410
b1000 aaaaa
b1001 aaaab
b1010 aaaac
b1011 aaaad
b1100 aaaae
b1101 aaaaf
b1110 aaaag
b1111 aaaah
1aaaaj
b1010 aaaak

#415
0aaaaj
b0 aaaak

#420
b1001 aaaaa
b1010 aaaab
b1011 aaaac
b1100 aaaad
b1101 aaaae
b1110 aaaaf
b1111 aaaag
b0 aaaah
1aaaaj
b1011 aaaak

#425
0aaaaj
b0 aaaak

#430
b1010 aaaaa
b1011 aaaab
b1100 aaaac
b1101 aaaad
b1110 aaaae
b1111 aaaaf
b0 aaaag
b1 aaaah
1aaaaj
b1100 aaaak

#435
0aaaaj
b0 aaaak

#440
b1011 aaaaa
b1100 aaaab
b1101 aaaac
b1110 aaaad
b1111 aaaae
b0 aaaaf
b1 aaaag
b10 aaaah
1aaaaj
b1101 aaaak

#445
0aaaaj
b0 aaaak

#450
b1100 aaaaa
b1101 aaaab
b1110 aaaac
b1111 aaaad
b0 aaaae
b1 aaaaf
b10 aaaag
b11 aaaah
1aaaaj
b1110 aaaak

#455
0aaaaj
b0 aaaak

#460
b1101 aaaaa
b1110 aaaab
b1111 aaaac
b0 aaaad
b1 aaaae
b10 aaaaf
b11 aaaag
b100 aaaah
1aaaaj
b1111 aaaak

#465
0aaaaj
b0 aaaak

#470
b1110 aaaaa
b1111 aaaab
b0 aaaac
b1 aaaad
b10 aaaae
b11 aaaaf
b100 aaaag
b101 aaaah
1aaaaj

#475
0aaaaj

#480
b1111 aaaaa
b0 aaaab
b1 aaaac
b10 aaaad
b11 aaaae
b100 aaaaf
b101 aaaag
b110 aaaah
1aaaaj
b1 aaaak

#485
0aaaaj
b0 aaaak

#490
b0 aaaaa
b1 aaaab
b10 aaaac
b11 aaaad
b100 aaaae
b101 aaaaf
b110 aaaag
b111 aaaah
b11 aaaai
1aaaaj
b11 aaaak

#495
0aaaaj
b0 aaaak

#500
b1 aaaaa
b10 aaaab
b11 aaaac
b100 aaaad
b101 aaaae
b110 aaaaf
b111 aaaag
b1000 aaaah
1aaaaj
b100 aaaak

#505
0aaaaj
b0 aaaak

#510
b10 aaaaa
b11 aaaab
b100 aaaac
b101 aaaad
b110 aaaae
b111 aaaaf
b1000 aaaag
b1001 aaaah
1aaaaj
b101 aaaak

#515
0aaaaj
b0 aaaak

#520
b11 aaaaa
b100 aaaab
b101 aaaac
b110 aaaad
b111 aaaae
b1000 aaaaf
b1001 aaaag
b1010 aaaah
1aaaaj
b110 aaaak

#525
0aaaaj
b0 aaaak

#530
b100 aaaaa
b101 aaaab
b110 aaaac
b111 aaaad
b1000 aaaae
b1001 aaaaf
b1010 aaaag
b1011 aaaah
1aaaaj
b111 aaaak

#535
0aaaaj
b0 aaaak

#540
b101 aaaaa
b110 aaaab
b111 aaaac
b1000 aaaad
b1001 aaaae
b1010 aaaaf
b1011 aaaag
b1100 aaaah
1aaaaj
b1000 aaaak

#545
0aaaaj
b0 aaaak

#550
b110 aaaaa
b111 aaaab
b1000 aaaac
b1001 aaaad
b1010 aaaae
b1011 aaaaf
b1100 aaaag
b1101 aaaah
1aaaaj
b1001 aaaak

#555
0aaaaj
b0 aaaak

#560
b111 aaaaa
b1000 aaaab
b1001 aaaac
b1010 aaaad
b1011 aaaae
b1100 aaaaf
b1101 aaaag
b1110 aaaah
1aaaaj
b1010 aaaak

#565
0aaaaj
b0 aaaak

#570
b1000 aaaaa
b1001 aaaab
b1010 aaaac
b1011 aaaad
b1100 aaaae
b1101 aaaaf
b1110 aaaag
b1111 aaaah
1aaaaj
b1011 aaaak

#575
0aaaaj
b0 aaaak

#580
b1001 aaaaa
b1010 aaaab
b1011 aaaac
b1100 aaaad
b1101 aaaae
b1110 aaaaf
b1111 aaaag
b0 aaaah
1aaaaj
b1100 aaaak

#585
0aaaaj
b0 aaaak

#590
b1010 aaaaa
b1011 aaaab
b1100 aaaac
b1101 aaaad
b1110 aaaae
b1111 aaaaf
b0 aaaag
b1 aaaah
1aaaaj
b1101 aaaak

#595
0aaaaj
b0 aaaak

#600
b1011 aaaaa
b1100 aaaab
b1101 aaaac
b1110 aaaad
b1111 aaaae
b0 aaaaf
b1 aaaag
b10 aaaah
1aaaaj
b1110 aaaak

#605
0aaaaj
b0 aaaak

#610
b1100 aaaaa
b1101 aaaab
b1110 aaaac
b1111 aaaad
b0 aaaae
b1 aaaaf
b10 aaaag
b11 aaaah
1aaaaj
b1111 aaaak

#615
0aaaaj
b0 aaaak

#620
b1101 aaaaa
b1110 aaaab
b1111 aaaac
b0 aaaad
b1 aaaae
b10 aaaaf
b11 aaaag
b100 aaaah
1aaaaj

#625
0aaaaj

#630
b1110 aaaaa
b1111 aaaab
b0 aaaac
b1 aaaad
b10 aaaae
b11 aaaaf
b100 aaaag
b101 aaaah
1aaaaj
b1 aaaak

#635
0aaaaj
b0 aaaak

#640
b1111 aaaaa
b0 aaaab
b1 aaaac
b10 aaaad
b11 aaaae
b100 aaaaf
b101 aaaag
b110 aaaah
1aaaaj
b10 aaaak

#645
0aaaaj
b0 aaaak

#650
b0 aaaaa
b1 aaaab
b10 aaaac
b11 aaaad
b100 aaaae
b101 aaaaf
b110 aaaag
b111 aaaah
b100 aaaai
1aaaaj
b100 aaaak

#655
0aaaaj
b0 aaaak

#660
b1 aaaaa
b10 aaaab
b11 aaaac
b100 aaaad
b101 aaaae
b110 aaaaf
b111 aaaag
b1000 aaaah
1aaaaj
b101 aaaak

#665
0aaaaj
b0 aaaak

#670
b10 aaaaa
b11 aaaab
b100 aaaac
b101 aaaad
b110 aaaae
b111 aaaaf
b1000 aaaag
b1001 aaaah
1aaaaj
b110 aaaak

#675
0aaaaj
b0 aaaak

#680
b11 aaaaa
b100 aaaab
b101 aaaac
b110 aaaad
b111 aaaae
b1000 aaaaf
b1001 aaaag
b1010 aaaah
1aaaaj
b111 aaaak

#685
0aaaaj
b0 aaaak

#690
b100 aaaaa
b101 aaaab
b110 aaaac
b111 aaaad
b1000 aaaae
b1001 aaaaf
b1010 aaaag
b1011 aaaah
1aaaaj
b1000 aaaak

#695
0aaaaj
b0 aaaak

#700
b101 aaaaa
b110 aaaab
b111 aaaac
b1000 aaaad
b1001 aaaae
b1010 aaaaf
b1011 aaaag
b1100 aaaah
1aaaaj
b1001 aaaak

#705
0aaaaj
b0 aaaak

#710
b110 aaaaa
b111 aaaab
b1000 aaaac
b1001 aaaad
b1010 aaaae
b1011 aaaaf
b1100 aaaag
b1101 aaaah
1aaaaj
b1010 aaaak

#715
0aaaaj
b0 aaaak

#720
b111 aaaaa
b1000 aaaab
b1001 aaaac
b1010 aaaad
b1011 aaaae
b1100 aaaaf
b1101 aaaag
b1110 aaaah
1aaaaj
b1011 aaaak

#725
0aaaaj
b0 aaaak

#730
b1000 aaaaa
b1001 aaaab
b1010 aaaac
b1011 aaaad
b1100 aaaae
b1101 aaaaf
b1110 aaaag
b1111 aaaah
1aaaaj
b1100 aaaak

#735
0aaaaj
b0 aaaak

#740
b1001 aaaaa
b1010 aaaab
b1011 aaaac
b1100 aaaad
b1101 aaaae
b1110 aaaaf
b1111 aaaag
b0 aaaah
1aaaaj
b1101 aaaak

#745
0aaaaj
b0 aaaak

#750
b1010 aaaaa
b1011 aaaab
b1100 aaaac
b1101 aaaad
b1110 aaaae
b1111 aaaaf
b0 aaaag
b1 aaaah
1aaaaj
b1110 aaaak

#755
0aaaaj
b0 aaaak

#760
b1011 aaaaa
b1100 aaaab
b1101 aaaac
b1110 aaaad
b1111 aaaae
b0 aaaaf
b1 aaaag
b10 aaaah
1aaaaj
b1111 aaaak

#765
0aaaaj
b0 aaaak

#770
b1100 aaaaa
b1101 aaaab
b1110 aaaac
b1111 aaaad
b0 aaaae
b1 aaaaf
b10 aaaag
b11 aaaah
1aaaaj

#775
0aaaaj

#780
b1101 aaaaa
b1110 aaaab
b1111 aaaac
b0 aaaad
b1 aaaae
b10 aaaaf
b11 aaaag
b100 aaaah
1aaaaj
b1 aaaak

#785
0aaaaj
b0 aaaak

#790
b1110 aaaaa
b1111 aaaab
b0 aaaac
b1 aaaad
b10 aaaae
b11 aaaaf
b100 aaaag
b101 aaaah
1aaaaj
b10 aaaak

#795
0aaaaj
b0 aaaak

#800
b1111 aaaaa
b0 aaaab
b1 aaaac
b10 aaaad
b11 aaaae
b100 aaaaf
b101 aaaag
b110 aaaah
1aaaaj
b11 aaaak

#805
0aaaaj
b0 aaaak

#810
b0 aaaaa
b1 aaaab
b10 aaaac
b11 aaaad
b100 aaaae
b101 aaaaf
b110 aaaag
b111 aaaah
b101 aaaai
1aaaaj
b101 aaaak

#815
0aaaaj
b0 aaaak

#820
b1 aaaaa
b10 aaaab
b11 aaaac
b100 aaaad
b101 aaaae
b110 aaaaf
b111 aaaag
b1000 aaaah
1aaaaj
b110 aaaak

#825
0aaaaj
b0 aaaak

#830
b10 aaaaa
b11 aaaab
b100 aaaac
b101 aaaad
b110 aaaae
b111 aaaaf
b1000 aaaag
b1001 aaaah
1aaaaj
b111 aaaak

#835
0aaaaj
b0 aaaak

#840
b11 aaaaa
b100 aaaab
b101 aaaac
b110 aaaad
b111 aaaae
b1000 aaaaf
b1001 aaaag
b1010 aaaah
1aaaaj
b1000 aaaak

#845
0aaaaj
b0 aaaak

#850
b100 aaaaa
b101 aaaab
b110 aaaac
b111 aaaad
b1000 aaaae
b1001 aaaaf
b1010 aaaag
b1011 aaaah
1aaaaj
b1001 aaaak

#855
0aaaaj
b0 aaaak

#860
b101 aaaaa
b110 aaaab
b111 aaaac
b1000 aaaad
b1001 aaaae
b1010 aaaaf
b1011 aaaag
b1100 aaaah
1aaaaj
b1010 aaaak

#865
0aaaaj
b0 aaaak

#870
b110 aaaaa
b111 aaaab
b1000 aaaac
b1001 aaaad
b1010 aaaae
b1011 aaaaf
b1100 aaaag
b1101 aaaah
1aaaaj
b1011 aaaak

#875
0aaaaj
b0 aaaak

#880
b111 aaaaa
b1000 aaaab
b1001 aaaac
b1010 aaaad
b1011 aaaae
b1100 aaaaf
b1101 aaaag
b1110 aaaah
1aaaaj
b1100 aaaak

#885
0aaaaj
b0 aaaak

#890
b1000 aaaaa
b1001 aaaab
b1010 aaaac
b1011 aaaad
b1100 aaaae
b1101 aaaaf
b1110 aaaag
b1111 aaaah
1aaaaj
b1101 aaaak

#895
0aaaaj
b0 aaaak

#900
b1001 aaaaa
b1010 aaaab
b1011 aaaac
b1100 aaaad
b1101 aaaae
b1110 aaaaf
b1111 aaaag
b0 aaaah
1aaaaj
b1110 aaaak

#905
0aaaaj
b0 aaaak

#910
b1010 aaaaa
b1011 aaaab
b1100 aaaac
b1101 aaaad
b1110 aaaae
b1111 aaaaf
b0 aaaag
b1 aaaah
1aaaaj
b1111 aaaak

#915
0aaaaj
b0 aaaak

#920
b1011 aaaaa
b1100 aaaab
b1101 aaaac
b1110 aaaad
b1111 aaaae
b0 aaaaf
b1 aaaag
b10 aaaah
1aaaaj

#925
0aaaaj

#930
b1100 aaaaa
b1101 aaaab
b1110 aaaac
b1111 aaaad
b0 aaaae
b1 aaaaf
b10 aaaag
b11 aaaah
1aaaaj
b1 aaaak

#935
0aaaaj
b0 aaaak

#940
b1101 aaaaa
b1110 aaaab
b1111 aaaac
b0 aaaad
b1 aaaae
b10 aaaaf
b11 aaaag
b100 aaaah
1aaaaj
b10 aaaak

#945
0aaaaj
b0 aaaak

#950
b1110 aaaaa
b1111 aaaab
b0 aaaac
b1 aaaad
b10 aaaae
b11 aaaaf
b100 aaaag
b101 aaaah
1aaaaj
b11 aaaak

#955
0aaaaj
b0 aaaak

#960
b1111 aaaaa
b0 aaaab
b1 aaaac
b10 aaaad
b11 aaaae
b100 aaaaf
b101 aaaag
b110 aaaah
1aaaaj
b100 aaaak

#965
0aaaaj
b0 aaaak

#970
b0 aaaaa
b1 aaaab
b10 aaaac
b11 aaaad
b100 aaaae
b101 aaaaf
b110 aaaag
b111 aaaah
b110 aaaai
1aaaaj
b110 aaaak

#975
0aaaaj
b0 aaaak

#980
b1 aaaaa
b10 aaaab
b11 aaaac
b100 aaaad
b101 aaaae
b110 aaaaf
b111 aaaag
b1000 aaaah
1aaaaj
b111 aaaak

#985
0aaaaj
b0 aaaak

#990
b10 aaaaa
b11 aaaab
b100 aaaac
b101 aaaad
b110 aaaae
b111 aaaaf
b1000 aaaag
b1001 aaaah
1aaaaj
b1000 aaaak

#995
0aaaaj
b0 aaaak

#1000
b11 aaaaa
b100 aaaab
b101 aaaac
b110 aaaad
b111 aaaae
b1000 aaaaf
b1001 aaaag
b1010 aaaah
1aaaaj
b1001 aaaak

#1005
0aaaaj
b0 aaaak

#1010
b100 aaaaa
b101 aaaab
b110 aaaac
b111 aaaad
b1000 aaaae
b1001 aaaaf
b1010 aaaag
b1011 aaaah
1aaaaj
b1010 aaaak

#1015
0aaaaj
b0 aaaak

#1020
b101 aaaaa
b110 aaaab
b111 aaaac
b1000 aaaad
b1001 aaaae
b1010 aaaaf
b1011 aaaag
b1100 aaaah
1aaaaj
b1011 aaaak

#1025
0aaaaj
b0 aaaak

#1030
b110 aaaaa
b111 aaaab
b1000 aaaac
b1001 aaaad
b1010 aaaae
b1011 aaaaf
b1100 aaaag
b1101 aaaah
1aaaaj
b1100 aaaak

#1035
0aaaaj
b0 aaaak

#1040
b111 aaaaa
b1000 aaaab
b1001 aaaac
b1010 aaaad
b1011 aaaae
b1100 aaaaf
b1101 aaaag
b1110 aaaah
1aaaaj
b1101 aaaak

#1045
0aaaaj
b0 aaaak

#1050
b1000 aaaaa
b1001 aaaab
b1010 aaaac
b1011 aaaad
b1100 aaaae
b1101 aaaaf
b1110 aaaag
b1111 aaaah
1aaaaj
b1110 aaaak

#1055
0aaaaj
b0 aaaak

#1060
b1001 aaaaa
b1010 aaaab
b1011 aaaac
b1100 aaaad
b1101 aaaae
b1110 aaaaf
b1111 aaaag
b0 aaaah
1aaaaj
b1111 aaaak

#1065
0aaaaj
b0 aaaak

#1070
b1010 aaaaa
b1011 aaaab
b1100 aaaac
b1101 aaaad
b1110 aaaae
b1111 aaaaf
b0 aaaag
b1 aaaah
1aaaaj

#1075
0aaaaj

#1080
b1011 aaaaa
b1100 aaaab
b1101 aaaac
b1110 aaaad
b1111 aaaae
b0 aaaaf
b1 aaaag
b10 aaaah
1aaaaj
b1 aaaak

#1085
0aaaaj
b0 aaaak

#1090
b1100 aaaaa
b1101 aaaab
b1110 aaaac
b1111 aaaad
b0 aaaae
b1 aaaaf
b10 aaaag
b11 aaaah
1aaaaj
b10 aaaak

#1095
0aaaaj
b0 aaaak

#1100
b1101 aaaaa
b1110 aaaab
b1111 aaaac
b0 aaaad
b1 aaaae
b10 aaaaf
b11 aaaag
b100 aaaah
1aaaaj
b11 aaaak

#1105
0aaaaj
b0 aaaak

#1110
b1110 aaaaa
b1111 aaaab
b0 aaaac
b1 aaaad
b10 aaaae
b11 aaaaf
b100 aaaag
b101 aaaah
1aaaaj
b100 aaaak

#1115
0aaaaj
b0 aaaak

#1120
b1111 aaaaa
b0 aaaab
b1 aaaac
b10 aaaad
b11 aaaae
b100 aaaaf
b101 aaaag
b110 aaaah
1aaaaj
b101 aaaak

#1125
0aaaaj
b0 aaaak

#1130
b0 aaaaa
b1 aaaab
b10 aaaac
b11 aaaad
b100 aaaae
b101 aaaaf
b110 aaaag
b111 aaaah
b111 aaaai
1aaaaj
b111 aaaak

#1135
0aaaaj
b0 aaaak

#1140
b1 aaaaa
b10 aaaab
b11 aaaac
b100 aaaad
b101 aaaae
b110 aaaaf
b111 aaaag
b1000 aaaah
1aaaaj
b1000 aaaak

#1145
0aaaaj
b0 aaaak

#1150
b10 aaaaa
b11 aaaab
b100 aaaac
b101 aaaad
b110 aaaae
b111 aaaaf
b1000 aaaag
b1001 aaaah
1aaaaj
b1001 aaaak

#1155
0aaaaj
b0 aaaak

#1160
b11 aaaaa
b100 aaaab
b101 aaaac
b110 aaaad
b111 aaaae
b1000 aaaaf
b1001 aaaag
b1010 aaaah
1aaaaj
b1010 aaaak

#1165
0aaaaj
b0 aaaak

#1170
b100 aaaaa
b101 aaaab
b110 aaaac
b111 aaaad
b1000 aaaae
b1001 aaaaf
b1010 aaaag
b1011 aaaah
1aaaaj
b1011 aaaak

#1175
0aaaaj
b0 aaaak

#1180
b101 aaaaa
b110 aaaab
b111 aaaac
b1000 aaaad
b1001 aaaae
b1010 aaaaf
b1011 aaaag
b1100 aaaah
1aaaaj
b1100 aaaak

#1185
0aaaaj
b0 aaaak

#1190
b110 aaaaa
b111 aaaab
b1000 aaaac
b1001 aaaad
b1010 aaaae
b1011 aaaaf
b1100 aaaag
b1101 aaaah
1aaaaj
b1101 aaaak

#1195
0aaaaj
b0 aaaak

#1200
b111 aaaaa
b1000 aaaab
b1001 aaaac
b1010 aaaad
b1011 aaaae
b1100 aaaaf
b1101 aaaag
b1110 aaaah
1aaaaj
b1110 aaaak

#1205
0aaaaj
b0 aaaak

#1210
b1000 aaaaa
b1001 aaaab
b1010 aaaac
b1011 aaaad
b1100 aaaae
b1101 aaaaf
b1110 aaaag
b1111 aaaah
1aaaaj
b1111 aaaak

#1215
0aaaaj
b0 aaaak

#1220
b1001 aaaaa
b1010 aaaab
b1011 aaaac
b1100 aaaad
b1101 aaaae
b1110 aaaaf
b1111 aaaag
b0 aaaah
1aaaaj

#1225
0aaaaj

#1230
b1010 aaaaa
b1011 aaaab
b1100 aaaac
b1101 aaaad
b1110 aaaae
b1111 aaaaf
b0 aaaag
b1 aaaah
1aaaaj
b1 aaaak

#1235
0aaaaj
b0 aaaak

#1240
b1011 aaaaa
b1100 aaaab
b1101 aaaac
b1110 aaaad
b1111 aaaae
b0 aaaaf
b1 aaaag
b10 aaaah
1aaaaj
b10 aaaak

#1245
0aaaaj
b0 aaaak

#1250
b1100 aaaaa
b1101 aaaab
b1110 aaaac
b1111 aaaad
b0 aaaae
b1 aaaaf
b10 aaaag
b11 aaaah
1aaaaj
b11 aaaak

#1255
0aaaaj
b0 aaaak

#1260
b1101 aaaaa
b1110 aaaab
b1111 aaaac
b0 aaaad
b1 aaaae
b10 aaaaf
b11 aaaag
b100 aaaah
1aaaaj
b100 aaaak

#1265
0aaaaj
b0 aaaak

#1270
b1110 aaaaa
b1111 aaaab
b0 aaaac
b1 aaaad
b10 aaaae
b11 aaaaf
b100 aaaag
b101 aaaah
1aaaaj
b101 aaaak

#1275
0aaaaj
b0 aaaak

#1280
b1111 aaaaa
b0 aaaab
b1 aaaac
b10 aaaad
b11 aaaae
b100 aaaaf
b101 aaaag
b110 aaaah
1aaaaj
b110 aaaak

#1285
0aaaaj
b0 aaaak

