lab5/gcd/wavetrace_output.vcd
$date
     Apr 27, 2025       10:34:16
$end

$version
 SystemC 3.0.2-Accellera --- Apr 10 2025 16:54:46
$end

$timescale
     1 ns
$end

$scope module SystemC $end
$var wire    1  aaaaa  clk       $end
$var wire    1  aaaab  en       $end
$var wire    4  aaaac  x [3:0]  $end
$var wire    4  aaaad  y [3:0]  $end
$var wire    4  aaaae  out [3:0]  $end
$var wire    1  aaaaf  done       $end
$var wire    1  aaaag  _X_LT_Y       $end
$var wire    1  aaaah  _X_GT_Y       $end
$var wire    1  aaaai  _X_EQ_Y       $end
$var wire    1  aaaaj  _REG_X_SEL       $end
$var wire    1  aaaak  _REG_X_CLK       $end
$var wire    1  aaaal  _REG_X_LOAD       $end
$var wire    1  aaaam  _REG_X_RESET       $end
$var wire    1  aaaan  _REG_Y_SEL       $end
$var wire    1  aaaao  _REG_Y_CLK       $end
$var wire    1  aaaap  _REG_Y_LOAD       $end
$var wire    1  aaaaq  _REG_Y_RESET       $end
$var wire    1  aaaar  _REG_O_SEL       $end
$var wire    1  aaaas  _REG_O_CLK       $end
$var wire    1  aaaat  _REG_O_LOAD       $end
$var wire    1  aaaau  _REG_O_RESET       $end
$var wire    1  aaaav  _X_SELF_SUBTRACTION       $end
$var wire    1  aaaaw  _Y_SELF_SUBTRACTION       $end
$var wire    4  aaaax  _internalX [3:0]  $end
$var wire    4  aaaay  _internalY [3:0]  $end
$upscope $end
$enddefinitions  $end

$comment
All initial values are dumped below at time 0 sec = 0 timescale units.
$end

$dumpvars
0aaaaa
0aaaab
b0 aaaac
b0 aaaad
b0 aaaae
0aaaaf
0aaaag
0aaaah
1aaaai
0aaaaj
0aaaak
0aaaal
0aaaam
0aaaan
0aaaao
0aaaap
0aaaaq
0aaaar
0aaaas
0aaaat
0aaaau
0aaaav
0aaaaw
b0 aaaax
b0 aaaay
$end

#10
1aaaab
b1011 aaaac
b10 aaaad

#20
b1100 aaaac
b100 aaaad

#25
1aaaaa
1aaaam
1aaaaq

#30
0aaaaa

#35
1aaaaa
1aaaah
0aaaai
1aaaak
1aaaal
0aaaam
1aaaao
1aaaap
0aaaaq
b1100 aaaax
b100 aaaay

#40
0aaaaa

#45
1aaaaa
1aaaaj
0aaaak
0aaaal
1aaaan
0aaaao
0aaaap
1aaaav

#50
0aaaaa

#55
1aaaaa
1aaaak
1aaaal
0aaaav
b1000 aaaax

#60
0aaaaa

#65
1aaaaa
0aaaak
0aaaal

#70
0aaaaa

#75
1aaaaa
1aaaav

#80
0aaaaa

#85
1aaaaa
0aaaah
1aaaai
1aaaak
1aaaal
0aaaav
b100 aaaax

#90
0aaaaa

#95
1aaaaa
0aaaak
0aaaal

#100
0aaaaa

#105
1aaaaa
b100 aaaae
1aaaaf
0aaaaj
0aaaan
1aaaas
1aaaat

#110
0aaaaa

#115
1aaaaa
0aaaaf
0aaaas
0aaaat

#120
0aaaaa

#125
1aaaaa
1aaaah
0aaaai
1aaaak
1aaaal
1aaaao
1aaaap
b1100 aaaax

#130
0aaaaa

#135
1aaaaa
1aaaaj
0aaaak
0aaaal
1aaaan
0aaaao
0aaaap
1aaaav

#140
0aaaaa

#145
1aaaaa
1aaaak
1aaaal
0aaaav
b1000 aaaax

#150
0aaaaa

#155
1aaaaa
0aaaak
0aaaal

#160
0aaaaa

#165
1aaaaa
1aaaav

#170
0aaaaa

#175
1aaaaa
0aaaah
1aaaai
1aaaak
1aaaal
0aaaav
b100 aaaax

#180
0aaaaa

#185
1aaaaa
0aaaak
0aaaal

#190
0aaaaa

#195
1aaaaa
1aaaaf
0aaaaj
0aaaan
1aaaas
1aaaat

#200
0aaaaa

#205
1aaaaa
0aaaaf
0aaaas
0aaaat

#210
0aaaaa
b1001 aaaac
b11 aaaad

#215
1aaaaa
1aaaah
0aaaai
1aaaak
1aaaal
1aaaao
1aaaap
b1001 aaaax
b11 aaaay

#220
0aaaaa

#225
1aaaaa
1aaaaj
0aaaak
0aaaal
1aaaan
0aaaao
0aaaap
1aaaav

#230
0aaaaa

#235
1aaaaa
1aaaak
1aaaal
0aaaav
b110 aaaax

#240
0aaaaa

#245
1aaaaa
0aaaak
0aaaal

#250
0aaaaa

#255
1aaaaa
1aaaav

#260
0aaaaa

#265
1aaaaa
0aaaah
1aaaai
1aaaak
1aaaal
0aaaav
b11 aaaax

#270
0aaaaa

#275
1aaaaa
0aaaak
0aaaal

#280
0aaaaa

#285
1aaaaa
b11 aaaae
1aaaaf
0aaaaj
0aaaan
1aaaas
1aaaat

#290
0aaaaa

#295
1aaaaa
0aaaaf
0aaaas
0aaaat

#300
0aaaaa
b11 aaaac
b1101 aaaad

#305
1aaaaa
1aaaag
0aaaai
1aaaak
1aaaal
1aaaao
1aaaap
b1101 aaaay

#310
0aaaaa

#315
1aaaaa
1aaaaj
0aaaak
0aaaal
1aaaan
0aaaao
0aaaap
1aaaaw

#320
0aaaaa

#325
1aaaaa
1aaaao
1aaaap
0aaaaw
b1010 aaaay

#330
0aaaaa

#335
1aaaaa
0aaaao
0aaaap

#340
0aaaaa

#345
1aaaaa
1aaaaw

#350
0aaaaa

#355
1aaaaa
1aaaao
1aaaap
0aaaaw
b111 aaaay

#360
0aaaaa

#365
1aaaaa
0aaaao
0aaaap

#370
0aaaaa

#375
1aaaaa
1aaaaw

#380
0aaaaa

#385
1aaaaa
1aaaao
1aaaap
0aaaaw
b100 aaaay

#390
0aaaaa

#395
1aaaaa
0aaaao
0aaaap

#400
0aaaaa

#405
1aaaaa
1aaaaw

#410
0aaaaa

#415
1aaaaa
0aaaag
1aaaah
1aaaao
1aaaap
0aaaaw
b1 aaaay

#420
0aaaaa

#425
1aaaaa
0aaaao
0aaaap

#430
0aaaaa

#435
1aaaaa
1aaaav

#440
0aaaaa

#445
1aaaaa
1aaaak
1aaaal
0aaaav
b10 aaaax

#450
0aaaaa

#455
1aaaaa
0aaaak
0aaaal

#460
0aaaaa

#465
1aaaaa
1aaaav

#470
0aaaaa

#475
1aaaaa
0aaaah
1aaaai
1aaaak
1aaaal
0aaaav
b1 aaaax

#480
0aaaaa

#485
1aaaaa
0aaaak
0aaaal

#490
0aaaaa

#495
1aaaaa
b1 aaaae
1aaaaf
0aaaaj
0aaaan
1aaaas
1aaaat

#500
0aaaaa

#505
1aaaaa
0aaaaf
0aaaas
0aaaat

#510
0aaaaa
b111 aaaac
b0 aaaad

#515
1aaaaa
1aaaah
0aaaai
1aaaak
1aaaal
1aaaao
1aaaap
b111 aaaax
b0 aaaay

#520
0aaaaa

#525
1aaaaa
1aaaaj
0aaaak
0aaaal
1aaaan
0aaaao
0aaaap
1aaaav

#530
0aaaaa

#535
1aaaaa
1aaaak
1aaaal
0aaaav

#540
0aaaaa

#545
1aaaaa
0aaaak
0aaaal

#550
0aaaaa

#555
1aaaaa
1aaaav

#560
0aaaaa

#565
1aaaaa
1aaaak
1aaaal
0aaaav

#570
0aaaaa

#575
1aaaaa
0aaaak
0aaaal

#580
0aaaaa

#585
1aaaaa
1aaaav

#590
0aaaaa

#595
1aaaaa
1aaaak
1aaaal
0aaaav

#600
0aaaaa

#605
1aaaaa
0aaaak
0aaaal

#610
0aaaaa

#615
1aaaaa
1aaaav

#620
0aaaaa

#625
1aaaaa
1aaaak
1aaaal
0aaaav

#630
0aaaaa

#635
1aaaaa
0aaaak
0aaaal

#640
0aaaaa

#645
1aaaaa
1aaaav

#650
0aaaaa

#655
1aaaaa
1aaaak
1aaaal
0aaaav

#660
0aaaaa

#665
1aaaaa
0aaaak
0aaaal

#670
0aaaaa

#675
1aaaaa
1aaaav

#680
0aaaaa

#685
1aaaaa
1aaaak
1aaaal
0aaaav

#690
0aaaaa

#695
1aaaaa
0aaaak
0aaaal

#700
0aaaaa

#705
1aaaaa
1aaaav

#710
0aaaaa

#715
1aaaaa
1aaaak
1aaaal
0aaaav

#720
0aaaaa

#725
1aaaaa
0aaaak
0aaaal

#730
0aaaaa

#735
1aaaaa
1aaaav

#740
0aaaaa

#745
1aaaaa
1aaaak
1aaaal
0aaaav

#750
0aaaaa

#755
1aaaaa
0aaaak
0aaaal

#760
0aaaaa

#765
1aaaaa
1aaaav

#770
0aaaaa

#775
1aaaaa
1aaaak
1aaaal
0aaaav

#780
0aaaaa

#785
1aaaaa
0aaaak
0aaaal

#790
0aaaaa

#795
1aaaaa
1aaaav

#800
0aaaaa

#805
1aaaaa
1aaaak
1aaaal
0aaaav

#810
0aaaaa

#815
1aaaaa
0aaaak
0aaaal

#820
0aaaaa

#825
1aaaaa
1aaaav

#830
0aaaaa

#835
1aaaaa
1aaaak
1aaaal
0aaaav

#840
0aaaaa

#845
1aaaaa
0aaaak
0aaaal

#850
0aaaaa

#855
1aaaaa
1aaaav

#860
0aaaaa

#865
1aaaaa
1aaaak
1aaaal
0aaaav

#870
0aaaaa

#875
1aaaaa
0aaaak
0aaaal

#880
0aaaaa

#885
1aaaaa
1aaaav

#890
0aaaaa

#895
1aaaaa
1aaaak
1aaaal
0aaaav

#900
0aaaaa

#905
1aaaaa
0aaaak
0aaaal

#910
0aaaaa

#915
1aaaaa
1aaaav

#920
0aaaaa

#925
1aaaaa
1aaaak
1aaaal
0aaaav

#930
0aaaaa

#935
1aaaaa
0aaaak
0aaaal

#940
0aaaaa

#945
1aaaaa
1aaaav

#950
0aaaaa

#955
1aaaaa
1aaaak
1aaaal
0aaaav

#960
0aaaaa

#965
1aaaaa
0aaaak
0aaaal

#970
0aaaaa

#975
1aaaaa
0aaaaj
1aaaam
0aaaan
1aaaaq

#980
0aaaaa

#985
1aaaaa
b0 aaaae
1aaaaf
1aaaas
1aaaat

#990
0aaaaa

#995
1aaaaa
0aaaaf
0aaaas
0aaaat

#1000
0aaaaa
b101 aaaac
b101 aaaad

#1005
1aaaaa
0aaaah
1aaaai
1aaaak
1aaaal
0aaaam
1aaaao
1aaaap
0aaaaq
b101 aaaax
b101 aaaay

#1010
0aaaaa

#1015
1aaaaa
b101 aaaae
1aaaaf
0aaaak
0aaaal
0aaaao
0aaaap
1aaaas
1aaaat

#1020
0aaaaa

#1025
1aaaaa
0aaaaf
0aaaas
0aaaat

