mux_4_1/mux_4_1_waveform.vcd
$date
     Apr 10, 2025       18:59:50
$end

$version
 SystemC 3.0.2-Accellera --- Apr 10 2025 16:54:46
$end

$timescale
     1 ns
$end

$scope module SystemC $end
$var wire    1  aaaaa  IN0       $end
$var wire    1  aaaab  IN1       $end
$var wire    1  aaaac  IN2       $end
$var wire    1  aaaad  IN3       $end
$var wire    2  aaaae  SEL [1:0]  $end
$var wire    1  aaaaf  EN       $end
$var wire    1  aaaag  OUT       $end
$upscope $end
$enddefinitions  $end

$comment
All initial values are dumped below at time 0 sec = 0 timescale units.
$end

$dumpvars
0aaaaa
0aaaab
0aaaac
0aaaad
b0 aaaae
0aaaaf
0aaaag
$end

#5
1aaaaa

#10
0aaaaa
1aaaab

#15
1aaaaa

#20
0aaaaa
0aaaab
1aaaac

#25
1aaaaa

#30
0aaaaa
1aaaab

#35
1aaaaa

#40
0aaaaa
0aaaab
0aaaac
1aaaad

#45
1aaaaa

#50
0aaaaa
1aaaab

#55
1aaaaa

#60
0aaaaa
0aaaab
1aaaac

#65
1aaaaa

#70
0aaaaa
1aaaab

#75
1aaaaa

#80
0aaaaa
0aaaab
0aaaac
0aaaad
b1 aaaae

#85
1aaaaa

#90
0aaaaa
1aaaab

#95
1aaaaa

#100
0aaaaa
0aaaab
1aaaac

#105
1aaaaa

#110
0aaaaa
1aaaab

#115
1aaaaa

#120
0aaaaa
0aaaab
0aaaac
1aaaad

#125
1aaaaa

#130
0aaaaa
1aaaab

#135
1aaaaa

#140
0aaaaa
0aaaab
1aaaac

#145
1aaaaa

#150
0aaaaa
1aaaab

#155
1aaaaa

#160
0aaaaa
0aaaab
0aaaac
0aaaad
b10 aaaae

#165
1aaaaa

#170
0aaaaa
1aaaab

#175
1aaaaa

#180
0aaaaa
0aaaab
1aaaac

#185
1aaaaa

#190
0aaaaa
1aaaab

#195
1aaaaa

#200
0aaaaa
0aaaab
0aaaac
1aaaad

#205
1aaaaa

#210
0aaaaa
1aaaab

#215
1aaaaa

#220
0aaaaa
0aaaab
1aaaac

#225
1aaaaa

#230
0aaaaa
1aaaab

#235
1aaaaa

#240
0aaaaa
0aaaab
0aaaac
0aaaad
b11 aaaae

#245
1aaaaa

#250
0aaaaa
1aaaab

#255
1aaaaa

#260
0aaaaa
0aaaab
1aaaac

#265
1aaaaa

#270
0aaaaa
1aaaab

#275
1aaaaa

#280
0aaaaa
0aaaab
0aaaac
1aaaad

#285
1aaaaa

#290
0aaaaa
1aaaab

#295
1aaaaa

#300
0aaaaa
0aaaab
1aaaac

#305
1aaaaa

#310
0aaaaa
1aaaab

#315
1aaaaa

#320
0aaaaa
0aaaab
0aaaac
0aaaad
b0 aaaae
1aaaaf

#325
1aaaaa
1aaaag

#330
0aaaaa
1aaaab
0aaaag

#335
1aaaaa
1aaaag

#340
0aaaaa
0aaaab
1aaaac
0aaaag

#345
1aaaaa
1aaaag

#350
0aaaaa
1aaaab
0aaaag

#355
1aaaaa
1aaaag

#360
0aaaaa
0aaaab
0aaaac
1aaaad
0aaaag

#365
1aaaaa
1aaaag

#370
0aaaaa
1aaaab
0aaaag

#375
1aaaaa
1aaaag

#380
0aaaaa
0aaaab
1aaaac
0aaaag

#385
1aaaaa
1aaaag

#390
0aaaaa
1aaaab
0aaaag

#395
1aaaaa
1aaaag

#400
0aaaaa
0aaaab
0aaaac
0aaaad
b1 aaaae
0aaaag

#405
1aaaaa

#410
0aaaaa
1aaaab
1aaaag

#415
1aaaaa

#420
0aaaaa
0aaaab
1aaaac
0aaaag

#425
1aaaaa

#430
0aaaaa
1aaaab
1aaaag

#435
1aaaaa

#440
0aaaaa
0aaaab
0aaaac
1aaaad
0aaaag

#445
1aaaaa

#450
0aaaaa
1aaaab
1aaaag

#455
1aaaaa

#460
0aaaaa
0aaaab
1aaaac
0aaaag

#465
1aaaaa

#470
0aaaaa
1aaaab
1aaaag

#475
1aaaaa

#480
0aaaaa
0aaaab
0aaaac
0aaaad
b10 aaaae
0aaaag

#485
1aaaaa

#490
0aaaaa
1aaaab

#495
1aaaaa

#500
0aaaaa
0aaaab
1aaaac
1aaaag

#505
1aaaaa

#510
0aaaaa
1aaaab

#515
1aaaaa

#520
0aaaaa
0aaaab
0aaaac
1aaaad
0aaaag

#525
1aaaaa

#530
0aaaaa
1aaaab

#535
1aaaaa

#540
0aaaaa
0aaaab
1aaaac
1aaaag

#545
1aaaaa

#550
0aaaaa
1aaaab

#555
1aaaaa

#560
0aaaaa
0aaaab
0aaaac
0aaaad
b11 aaaae
0aaaag

#565
1aaaaa

#570
0aaaaa
1aaaab

#575
1aaaaa

#580
0aaaaa
0aaaab
1aaaac

#585
1aaaaa

#590
0aaaaa
1aaaab

#595
1aaaaa

#600
0aaaaa
0aaaab
0aaaac
1aaaad
1aaaag

#605
1aaaaa

#610
0aaaaa
1aaaab

#615
1aaaaa

#620
0aaaaa
0aaaab
1aaaac

#625
1aaaaa

#630
0aaaaa
1aaaab

#635
1aaaaa

