FINAL/A_1/FS_4BIT/wavetrace_output.vcd
$date
     May 14, 2025       20:04:34
$end

$version
 SystemC 3.0.2-Accellera --- Apr 10 2025 16:54:46
$end

$timescale
     1 ns
$end

$scope module SystemC $end
$var wire    1  aaaaa  en       $end
$var wire    1  aaaab  rst       $end
$var wire    4  aaaac  a [3:0]  $end
$var wire    4  aaaad  b [3:0]  $end
$var wire    1  aaaae  borrow_in       $end
$var wire    4  aaaaf  out [3:0]  $end
$var wire    1  aaaag  borrow_out       $end
$upscope $end
$enddefinitions  $end

$comment
All initial values are dumped below at time 0 sec = 0 timescale units.
$end

$dumpvars
0aaaaa
0aaaab
b0 aaaac
b0 aaaad
0aaaae
b0 aaaaf
0aaaag
$end

#15
1aaaaa

#20
0aaaaa
b1 aaaad

#25
1aaaaa
b1111 aaaaf
1aaaag

#30
0aaaaa
b10 aaaad

#35
1aaaaa
b1110 aaaaf

#40
0aaaaa
b11 aaaad

#45
1aaaaa
b1101 aaaaf

#50
0aaaaa
b100 aaaad

#55
1aaaaa
b1100 aaaaf

#60
0aaaaa
b101 aaaad

#65
1aaaaa
b1011 aaaaf

#70
0aaaaa
b110 aaaad

#75
1aaaaa
b1010 aaaaf

#80
0aaaaa
b111 aaaad

#85
1aaaaa
b1001 aaaaf

#90
0aaaaa
b1000 aaaad

#95
1aaaaa
b1000 aaaaf

#100
0aaaaa
b1001 aaaad

#105
1aaaaa
b111 aaaaf

#110
0aaaaa
b1010 aaaad

#115
1aaaaa
b110 aaaaf

#120
0aaaaa
b1011 aaaad

#125
1aaaaa
b101 aaaaf

#130
0aaaaa
b1100 aaaad

#135
1aaaaa
b100 aaaaf

#140
0aaaaa
b1101 aaaad

#145
1aaaaa
b11 aaaaf

#150
0aaaaa
b1110 aaaad

#155
1aaaaa
b10 aaaaf

#160
0aaaaa
b1111 aaaad

#165
1aaaaa
b1 aaaaf

#170
0aaaaa
b1 aaaac
b0 aaaad

#175
1aaaaa
0aaaag

#180
0aaaaa
b1 aaaad

#185
1aaaaa
b0 aaaaf

#190
0aaaaa
b10 aaaad

#195
1aaaaa
b1111 aaaaf
1aaaag

#200
0aaaaa
b11 aaaad

#205
1aaaaa
b1110 aaaaf

#210
0aaaaa
b100 aaaad

#215
1aaaaa
b1101 aaaaf

#220
0aaaaa
b101 aaaad

#225
1aaaaa
b1100 aaaaf

#230
0aaaaa
b110 aaaad

#235
1aaaaa
b1011 aaaaf

#240
0aaaaa
b111 aaaad

#245
1aaaaa
b1010 aaaaf

#250
0aaaaa
b1000 aaaad

#255
1aaaaa
b1001 aaaaf

#260
0aaaaa
b1001 aaaad

#265
1aaaaa
b1000 aaaaf

#270
0aaaaa
b1010 aaaad

#275
1aaaaa
b111 aaaaf

#280
0aaaaa
b1011 aaaad

#285
1aaaaa
b110 aaaaf

#290
0aaaaa
b1100 aaaad

#295
1aaaaa
b101 aaaaf

#300
0aaaaa
b1101 aaaad

#305
1aaaaa
b100 aaaaf

#310
0aaaaa
b1110 aaaad

#315
1aaaaa
b11 aaaaf

#320
0aaaaa
b1111 aaaad

#325
1aaaaa
b10 aaaaf

#330
0aaaaa
b10 aaaac
b0 aaaad

#335
1aaaaa
0aaaag

#340
0aaaaa
b1 aaaad

#345
1aaaaa
b1 aaaaf

#350
0aaaaa
b10 aaaad

#355
1aaaaa
b0 aaaaf

#360
0aaaaa
b11 aaaad

#365
1aaaaa
b1111 aaaaf
1aaaag

#370
0aaaaa
b100 aaaad

#375
1aaaaa
b1110 aaaaf

#380
0aaaaa
b101 aaaad

#385
1aaaaa
b1101 aaaaf

#390
0aaaaa
b110 aaaad

#395
1aaaaa
b1100 aaaaf

#400
0aaaaa
b111 aaaad

#405
1aaaaa
b1011 aaaaf

#410
0aaaaa
b1000 aaaad

#415
1aaaaa
b1010 aaaaf

#420
0aaaaa
b1001 aaaad

#425
1aaaaa
b1001 aaaaf

#430
0aaaaa
b1010 aaaad

#435
1aaaaa
b1000 aaaaf

#440
0aaaaa
b1011 aaaad

#445
1aaaaa
b111 aaaaf

#450
0aaaaa
b1100 aaaad

#455
1aaaaa
b110 aaaaf

#460
0aaaaa
b1101 aaaad

#465
1aaaaa
b101 aaaaf

#470
0aaaaa
b1110 aaaad

#475
1aaaaa
b100 aaaaf

#480
0aaaaa
b1111 aaaad

#485
1aaaaa
b11 aaaaf

#490
0aaaaa
b11 aaaac
b0 aaaad

#495
1aaaaa
0aaaag

#500
0aaaaa
b1 aaaad

#505
1aaaaa
b10 aaaaf

#510
0aaaaa
b10 aaaad

#515
1aaaaa
b1 aaaaf

#520
0aaaaa
b11 aaaad

#525
1aaaaa
b0 aaaaf

#530
0aaaaa
b100 aaaad

#535
1aaaaa
b1111 aaaaf
1aaaag

#540
0aaaaa
b101 aaaad

#545
1aaaaa
b1110 aaaaf

#550
0aaaaa
b110 aaaad

#555
1aaaaa
b1101 aaaaf

#560
0aaaaa
b111 aaaad

#565
1aaaaa
b1100 aaaaf

#570
0aaaaa
b1000 aaaad

#575
1aaaaa
b1011 aaaaf

#580
0aaaaa
b1001 aaaad

#585
1aaaaa
b1010 aaaaf

#590
0aaaaa
b1010 aaaad

#595
1aaaaa
b1001 aaaaf

#600
0aaaaa
b1011 aaaad

#605
1aaaaa
b1000 aaaaf

#610
0aaaaa
b1100 aaaad

#615
1aaaaa
b111 aaaaf

#620
0aaaaa
b1101 aaaad

#625
1aaaaa
b110 aaaaf

#630
0aaaaa
b1110 aaaad

#635
1aaaaa
b101 aaaaf

#640
0aaaaa
b1111 aaaad

#645
1aaaaa
b100 aaaaf

#650
0aaaaa
b100 aaaac
b0 aaaad

#655
1aaaaa
0aaaag

#660
0aaaaa
b1 aaaad

#665
1aaaaa
b11 aaaaf

#670
0aaaaa
b10 aaaad

#675
1aaaaa
b10 aaaaf

#680
0aaaaa
b11 aaaad

#685
1aaaaa
b1 aaaaf

#690
0aaaaa
b100 aaaad

#695
1aaaaa
b0 aaaaf

#700
0aaaaa
b101 aaaad

#705
1aaaaa
b1111 aaaaf
1aaaag

#710
0aaaaa
b110 aaaad

#715
1aaaaa
b1110 aaaaf

#720
0aaaaa
b111 aaaad

#725
1aaaaa
b1101 aaaaf

#730
0aaaaa
b1000 aaaad

#735
1aaaaa
b1100 aaaaf

#740
0aaaaa
b1001 aaaad

#745
1aaaaa
b1011 aaaaf

#750
0aaaaa
b1010 aaaad

#755
1aaaaa
b1010 aaaaf

#760
0aaaaa
b1011 aaaad

#765
1aaaaa
b1001 aaaaf

#770
0aaaaa
b1100 aaaad

#775
1aaaaa
b1000 aaaaf

#780
0aaaaa
b1101 aaaad

#785
1aaaaa
b111 aaaaf

#790
0aaaaa
b1110 aaaad

#795
1aaaaa
b110 aaaaf

#800
0aaaaa
b1111 aaaad

#805
1aaaaa
b101 aaaaf

#810
0aaaaa
b101 aaaac
b0 aaaad

#815
1aaaaa
0aaaag

#820
0aaaaa
b1 aaaad

#825
1aaaaa
b100 aaaaf

#830
0aaaaa
b10 aaaad

#835
1aaaaa
b11 aaaaf

#840
0aaaaa
b11 aaaad

#845
1aaaaa
b10 aaaaf

#850
0aaaaa
b100 aaaad

#855
1aaaaa
b1 aaaaf

#860
0aaaaa
b101 aaaad

#865
1aaaaa
b0 aaaaf

#870
0aaaaa
b110 aaaad

#875
1aaaaa
b1111 aaaaf
1aaaag

#880
0aaaaa
b111 aaaad

#885
1aaaaa
b1110 aaaaf

#890
0aaaaa
b1000 aaaad

#895
1aaaaa
b1101 aaaaf

#900
0aaaaa
b1001 aaaad

#905
1aaaaa
b1100 aaaaf

#910
0aaaaa
b1010 aaaad

#915
1aaaaa
b1011 aaaaf

#920
0aaaaa
b1011 aaaad

#925
1aaaaa
b1010 aaaaf

#930
0aaaaa
b1100 aaaad

#935
1aaaaa
b1001 aaaaf

#940
0aaaaa
b1101 aaaad

#945
1aaaaa
b1000 aaaaf

#950
0aaaaa
b1110 aaaad

#955
1aaaaa
b111 aaaaf

#960
0aaaaa
b1111 aaaad

#965
1aaaaa
b110 aaaaf

#970
0aaaaa
b110 aaaac
b0 aaaad

#975
1aaaaa
0aaaag

#980
0aaaaa
b1 aaaad

#985
1aaaaa
b101 aaaaf

#990
0aaaaa
b10 aaaad

#995
1aaaaa
b100 aaaaf

#1000
0aaaaa
b11 aaaad

#1005
1aaaaa
b11 aaaaf

#1010
0aaaaa
b100 aaaad

#1015
1aaaaa
b10 aaaaf

#1020
0aaaaa
b101 aaaad

#1025
1aaaaa
b1 aaaaf

#1030
0aaaaa
b110 aaaad

#1035
1aaaaa
b0 aaaaf

#1040
0aaaaa
b111 aaaad

#1045
1aaaaa
b1111 aaaaf
1aaaag

#1050
0aaaaa
b1000 aaaad

#1055
1aaaaa
b1110 aaaaf

#1060
0aaaaa
b1001 aaaad

#1065
1aaaaa
b1101 aaaaf

#1070
0aaaaa
b1010 aaaad

#1075
1aaaaa
b1100 aaaaf

#1080
0aaaaa
b1011 aaaad

#1085
1aaaaa
b1011 aaaaf

#1090
0aaaaa
b1100 aaaad

#1095
1aaaaa
b1010 aaaaf

#1100
0aaaaa
b1101 aaaad

#1105
1aaaaa
b1001 aaaaf

#1110
0aaaaa
b1110 aaaad

#1115
1aaaaa
b1000 aaaaf

#1120
0aaaaa
b1111 aaaad

#1125
1aaaaa
b111 aaaaf

#1130
0aaaaa
b111 aaaac
b0 aaaad

#1135
1aaaaa
0aaaag

#1140
0aaaaa
b1 aaaad

#1145
1aaaaa
b110 aaaaf

#1150
0aaaaa
b10 aaaad

#1155
1aaaaa
b101 aaaaf

#1160
0aaaaa
b11 aaaad

#1165
1aaaaa
b100 aaaaf

#1170
0aaaaa
b100 aaaad

#1175
1aaaaa
b11 aaaaf

#1180
0aaaaa
b101 aaaad

#1185
1aaaaa
b10 aaaaf

#1190
0aaaaa
b110 aaaad

#1195
1aaaaa
b1 aaaaf

#1200
0aaaaa
b111 aaaad

#1205
1aaaaa
b0 aaaaf

#1210
0aaaaa
b1000 aaaad

#1215
1aaaaa
b1111 aaaaf
1aaaag

#1220
0aaaaa
b1001 aaaad

#1225
1aaaaa
b1110 aaaaf

#1230
0aaaaa
b1010 aaaad

#1235
1aaaaa
b1101 aaaaf

#1240
0aaaaa
b1011 aaaad

#1245
1aaaaa
b1100 aaaaf

#1250
0aaaaa
b1100 aaaad

#1255
1aaaaa
b1011 aaaaf

#1260
0aaaaa
b1101 aaaad

#1265
1aaaaa
b1010 aaaaf

#1270
0aaaaa
b1110 aaaad

#1275
1aaaaa
b1001 aaaaf

#1280
0aaaaa
b1111 aaaad

#1285
1aaaaa
b1000 aaaaf

#1290
0aaaaa
b1000 aaaac
b0 aaaad

#1295
1aaaaa
0aaaag

#1300
0aaaaa
b1 aaaad

#1305
1aaaaa
b111 aaaaf

#1310
0aaaaa
b10 aaaad

#1315
1aaaaa
b110 aaaaf

#1320
0aaaaa
b11 aaaad

#1325
1aaaaa
b101 aaaaf

#1330
0aaaaa
b100 aaaad

#1335
1aaaaa
b100 aaaaf

#1340
0aaaaa
b101 aaaad

#1345
1aaaaa
b11 aaaaf

#1350
0aaaaa
b110 aaaad

#1355
1aaaaa
b10 aaaaf

#1360
0aaaaa
b111 aaaad

#1365
1aaaaa
b1 aaaaf

#1370
0aaaaa
b1000 aaaad

#1375
1aaaaa
b0 aaaaf

#1380
0aaaaa
b1001 aaaad

#1385
1aaaaa
b1111 aaaaf
1aaaag

#1390
0aaaaa
b1010 aaaad

#1395
1aaaaa
b1110 aaaaf

#1400
0aaaaa
b1011 aaaad

#1405
1aaaaa
b1101 aaaaf

#1410
0aaaaa
b1100 aaaad

#1415
1aaaaa
b1100 aaaaf

#1420
0aaaaa
b1101 aaaad

#1425
1aaaaa
b1011 aaaaf

#1430
0aaaaa
b1110 aaaad

#1435
1aaaaa
b1010 aaaaf

#1440
0aaaaa
b1111 aaaad

#1445
1aaaaa
b1001 aaaaf

#1450
0aaaaa
b1001 aaaac
b0 aaaad

#1455
1aaaaa
0aaaag

#1460
0aaaaa
b1 aaaad

#1465
1aaaaa
b1000 aaaaf

#1470
0aaaaa
b10 aaaad

#1475
1aaaaa
b111 aaaaf

#1480
0aaaaa
b11 aaaad

#1485
1aaaaa
b110 aaaaf

#1490
0aaaaa
b100 aaaad

#1495
1aaaaa
b101 aaaaf

#1500
0aaaaa
b101 aaaad

#1505
1aaaaa
b100 aaaaf

#1510
0aaaaa
b110 aaaad

#1515
1aaaaa
b11 aaaaf

#1520
0aaaaa
b111 aaaad

#1525
1aaaaa
b10 aaaaf

#1530
0aaaaa
b1000 aaaad

#1535
1aaaaa
b1 aaaaf

#1540
0aaaaa
b1001 aaaad

#1545
1aaaaa
b0 aaaaf

#1550
0aaaaa
b1010 aaaad

#1555
1aaaaa
b1111 aaaaf
1aaaag

#1560
0aaaaa
b1011 aaaad

#1565
1aaaaa
b1110 aaaaf

#1570
0aaaaa
b1100 aaaad

#1575
1aaaaa
b1101 aaaaf

#1580
0aaaaa
b1101 aaaad

#1585
1aaaaa
b1100 aaaaf

#1590
0aaaaa
b1110 aaaad

#1595
1aaaaa
b1011 aaaaf

#1600
0aaaaa
b1111 aaaad

#1605
1aaaaa
b1010 aaaaf

#1610
0aaaaa
b1010 aaaac
b0 aaaad

#1615
1aaaaa
0aaaag

#1620
0aaaaa
b1 aaaad

#1625
1aaaaa
b1001 aaaaf

#1630
0aaaaa
b10 aaaad

#1635
1aaaaa
b1000 aaaaf

#1640
0aaaaa
b11 aaaad

#1645
1aaaaa
b111 aaaaf

#1650
0aaaaa
b100 aaaad

#1655
1aaaaa
b110 aaaaf

#1660
0aaaaa
b101 aaaad

#1665
1aaaaa
b101 aaaaf

#1670
0aaaaa
b110 aaaad

#1675
1aaaaa
b100 aaaaf

#1680
0aaaaa
b111 aaaad

#1685
1aaaaa
b11 aaaaf

#1690
0aaaaa
b1000 aaaad

#1695
1aaaaa
b10 aaaaf

#1700
0aaaaa
b1001 aaaad

#1705
1aaaaa
b1 aaaaf

#1710
0aaaaa
b1010 aaaad

#1715
1aaaaa
b0 aaaaf

#1720
0aaaaa
b1011 aaaad

#1725
1aaaaa
b1111 aaaaf
1aaaag

#1730
0aaaaa
b1100 aaaad

#1735
1aaaaa
b1110 aaaaf

#1740
0aaaaa
b1101 aaaad

#1745
1aaaaa
b1101 aaaaf

#1750
0aaaaa
b1110 aaaad

#1755
1aaaaa
b1100 aaaaf

#1760
0aaaaa
b1111 aaaad

#1765
1aaaaa
b1011 aaaaf

#1770
0aaaaa
b1011 aaaac
b0 aaaad

#1775
1aaaaa
0aaaag

#1780
0aaaaa
b1 aaaad

#1785
1aaaaa
b1010 aaaaf

#1790
0aaaaa
b10 aaaad

#1795
1aaaaa
b1001 aaaaf

#1800
0aaaaa
b11 aaaad

#1805
1aaaaa
b1000 aaaaf

#1810
0aaaaa
b100 aaaad

#1815
1aaaaa
b111 aaaaf

#1820
0aaaaa
b101 aaaad

#1825
1aaaaa
b110 aaaaf

#1830
0aaaaa
b110 aaaad

#1835
1aaaaa
b101 aaaaf

#1840
0aaaaa
b111 aaaad

#1845
1aaaaa
b100 aaaaf

#1850
0aaaaa
b1000 aaaad

#1855
1aaaaa
b11 aaaaf

#1860
0aaaaa
b1001 aaaad

#1865
1aaaaa
b10 aaaaf

#1870
0aaaaa
b1010 aaaad

#1875
1aaaaa
b1 aaaaf

#1880
0aaaaa
b1011 aaaad

#1885
1aaaaa
b0 aaaaf

#1890
0aaaaa
b1100 aaaad

#1895
1aaaaa
b1111 aaaaf
1aaaag

#1900
0aaaaa
b1101 aaaad

#1905
1aaaaa
b1110 aaaaf

#1910
0aaaaa
b1110 aaaad

#1915
1aaaaa
b1101 aaaaf

#1920
0aaaaa
b1111 aaaad

#1925
1aaaaa
b1100 aaaaf

#1930
0aaaaa
b1100 aaaac
b0 aaaad

#1935
1aaaaa
0aaaag

#1940
0aaaaa
b1 aaaad

#1945
1aaaaa
b1011 aaaaf

#1950
0aaaaa
b10 aaaad

#1955
1aaaaa
b1010 aaaaf

#1960
0aaaaa
b11 aaaad

#1965
1aaaaa
b1001 aaaaf

#1970
0aaaaa
b100 aaaad

#1975
1aaaaa
b1000 aaaaf

#1980
0aaaaa
b101 aaaad

#1985
1aaaaa
b111 aaaaf

#1990
0aaaaa
b110 aaaad

#1995
1aaaaa
b110 aaaaf

#2000
0aaaaa
b111 aaaad

#2005
1aaaaa
b101 aaaaf

#2010
0aaaaa
b1000 aaaad

#2015
1aaaaa
b100 aaaaf

#2020
0aaaaa
b1001 aaaad

#2025
1aaaaa
b11 aaaaf

#2030
0aaaaa
b1010 aaaad

#2035
1aaaaa
b10 aaaaf

#2040
0aaaaa
b1011 aaaad

#2045
1aaaaa
b1 aaaaf

#2050
0aaaaa
b1100 aaaad

#2055
1aaaaa
b0 aaaaf

#2060
0aaaaa
b1101 aaaad

#2065
1aaaaa
b1111 aaaaf
1aaaag

#2070
0aaaaa
b1110 aaaad

#2075
1aaaaa
b1110 aaaaf

#2080
0aaaaa
b1111 aaaad

#2085
1aaaaa
b1101 aaaaf

#2090
0aaaaa
b1101 aaaac
b0 aaaad

#2095
1aaaaa
0aaaag

#2100
0aaaaa
b1 aaaad

#2105
1aaaaa
b1100 aaaaf

#2110
0aaaaa
b10 aaaad

#2115
1aaaaa
b1011 aaaaf

#2120
0aaaaa
b11 aaaad

#2125
1aaaaa
b1010 aaaaf

#2130
0aaaaa
b100 aaaad

#2135
1aaaaa
b1001 aaaaf

#2140
0aaaaa
b101 aaaad

#2145
1aaaaa
b1000 aaaaf

#2150
0aaaaa
b110 aaaad

#2155
1aaaaa
b111 aaaaf

#2160
0aaaaa
b111 aaaad

#2165
1aaaaa
b110 aaaaf

#2170
0aaaaa
b1000 aaaad

#2175
1aaaaa
b101 aaaaf

#2180
0aaaaa
b1001 aaaad

#2185
1aaaaa
b100 aaaaf

#2190
0aaaaa
b1010 aaaad

#2195
1aaaaa
b11 aaaaf

#2200
0aaaaa
b1011 aaaad

#2205
1aaaaa
b10 aaaaf

#2210
0aaaaa
b1100 aaaad

#2215
1aaaaa
b1 aaaaf

#2220
0aaaaa
b1101 aaaad

#2225
1aaaaa
b0 aaaaf

#2230
0aaaaa
b1110 aaaad

#2235
1aaaaa
b1111 aaaaf
1aaaag

#2240
0aaaaa
b1111 aaaad

#2245
1aaaaa
b1110 aaaaf

#2250
0aaaaa
b1110 aaaac
b0 aaaad

#2255
1aaaaa
0aaaag

#2260
0aaaaa
b1 aaaad

#2265
1aaaaa
b1101 aaaaf

#2270
0aaaaa
b10 aaaad

#2275
1aaaaa
b1100 aaaaf

#2280
0aaaaa
b11 aaaad

#2285
1aaaaa
b1011 aaaaf

#2290
0aaaaa
b100 aaaad

#2295
1aaaaa
b1010 aaaaf

#2300
0aaaaa
b101 aaaad

#2305
1aaaaa
b1001 aaaaf

#2310
0aaaaa
b110 aaaad

#2315
1aaaaa
b1000 aaaaf

#2320
0aaaaa
b111 aaaad

#2325
1aaaaa
b111 aaaaf

#2330
0aaaaa
b1000 aaaad

#2335
1aaaaa
b110 aaaaf

#2340
0aaaaa
b1001 aaaad

#2345
1aaaaa
b101 aaaaf

#2350
0aaaaa
b1010 aaaad

#2355
1aaaaa
b100 aaaaf

#2360
0aaaaa
b1011 aaaad

#2365
1aaaaa
b11 aaaaf

#2370
0aaaaa
b1100 aaaad

#2375
1aaaaa
b10 aaaaf

#2380
0aaaaa
b1101 aaaad

#2385
1aaaaa
b1 aaaaf

#2390
0aaaaa
b1110 aaaad

#2395
1aaaaa
b0 aaaaf

#2400
0aaaaa
b1111 aaaad

#2405
1aaaaa
b1111 aaaaf
1aaaag

#2410
0aaaaa
b1111 aaaac
b0 aaaad

#2415
1aaaaa
0aaaag

#2420
0aaaaa
b1 aaaad

#2425
1aaaaa
b1110 aaaaf

#2430
0aaaaa
b10 aaaad

#2435
1aaaaa
b1101 aaaaf

#2440
0aaaaa
b11 aaaad

#2445
1aaaaa
b1100 aaaaf

#2450
0aaaaa
b100 aaaad

#2455
1aaaaa
b1011 aaaaf

#2460
0aaaaa
b101 aaaad

#2465
1aaaaa
b1010 aaaaf

#2470
0aaaaa
b110 aaaad

#2475
1aaaaa
b1001 aaaaf

#2480
0aaaaa
b111 aaaad

#2485
1aaaaa
b1000 aaaaf

#2490
0aaaaa
b1000 aaaad

#2495
1aaaaa
b111 aaaaf

#2500
0aaaaa
b1001 aaaad

#2505
1aaaaa
b110 aaaaf

#2510
0aaaaa
b1010 aaaad

#2515
1aaaaa
b101 aaaaf

#2520
0aaaaa
b1011 aaaad

#2525
1aaaaa
b100 aaaaf

#2530
0aaaaa
b1100 aaaad

#2535
1aaaaa
b11 aaaaf

#2540
0aaaaa
b1101 aaaad

#2545
1aaaaa
b10 aaaaf

#2550
0aaaaa
b1110 aaaad

#2555
1aaaaa
b1 aaaaf

#2560
0aaaaa
b1111 aaaad

#2565
1aaaaa
b0 aaaaf

#2570
0aaaaa
b0 aaaac
b0 aaaad
1aaaae

#2575
1aaaaa
b1111 aaaaf
1aaaag

#2580
0aaaaa
b1 aaaad

#2585
1aaaaa
b1110 aaaaf

#2590
0aaaaa
b10 aaaad

#2595
1aaaaa
b1101 aaaaf

#2600
0aaaaa
b11 aaaad

#2605
1aaaaa
b1100 aaaaf

#2610
0aaaaa
b100 aaaad

#2615
1aaaaa
b1011 aaaaf

#2620
0aaaaa
b101 aaaad

#2625
1aaaaa
b1010 aaaaf

#2630
0aaaaa
b110 aaaad

#2635
1aaaaa
b1001 aaaaf

#2640
0aaaaa
b111 aaaad

#2645
1aaaaa
b1000 aaaaf

#2650
0aaaaa
b1000 aaaad

#2655
1aaaaa
b111 aaaaf

#2660
0aaaaa
b1001 aaaad

#2665
1aaaaa
b110 aaaaf

#2670
0aaaaa
b1010 aaaad

#2675
1aaaaa
b101 aaaaf

#2680
0aaaaa
b1011 aaaad

#2685
1aaaaa
b100 aaaaf

#2690
0aaaaa
b1100 aaaad

#2695
1aaaaa
b11 aaaaf

#2700
0aaaaa
b1101 aaaad

#2705
1aaaaa
b10 aaaaf

#2710
0aaaaa
b1110 aaaad

#2715
1aaaaa
b1 aaaaf

#2720
0aaaaa
b1111 aaaad

#2725
1aaaaa
b0 aaaaf

#2730
0aaaaa
b1 aaaac
b0 aaaad

#2735
1aaaaa
0aaaag

#2740
0aaaaa
b1 aaaad

#2745
1aaaaa
b1111 aaaaf
1aaaag

#2750
0aaaaa
b10 aaaad

#2755
1aaaaa
b1110 aaaaf

#2760
0aaaaa
b11 aaaad

#2765
1aaaaa
b1101 aaaaf

#2770
0aaaaa
b100 aaaad

#2775
1aaaaa
b1100 aaaaf

#2780
0aaaaa
b101 aaaad

#2785
1aaaaa
b1011 aaaaf

#2790
0aaaaa
b110 aaaad

#2795
1aaaaa
b1010 aaaaf

#2800
0aaaaa
b111 aaaad

#2805
1aaaaa
b1001 aaaaf

#2810
0aaaaa
b1000 aaaad

#2815
1aaaaa
b1000 aaaaf

#2820
0aaaaa
b1001 aaaad

#2825
1aaaaa
b111 aaaaf

#2830
0aaaaa
b1010 aaaad

#2835
1aaaaa
b110 aaaaf

#2840
0aaaaa
b1011 aaaad

#2845
1aaaaa
b101 aaaaf

#2850
0aaaaa
b1100 aaaad

#2855
1aaaaa
b100 aaaaf

#2860
0aaaaa
b1101 aaaad

#2865
1aaaaa
b11 aaaaf

#2870
0aaaaa
b1110 aaaad

#2875
1aaaaa
b10 aaaaf

#2880
0aaaaa
b1111 aaaad

#2885
1aaaaa
b1 aaaaf

#2890
0aaaaa
b10 aaaac
b0 aaaad

#2895
1aaaaa
0aaaag

#2900
0aaaaa
b1 aaaad

#2905
1aaaaa
b0 aaaaf

#2910
0aaaaa
b10 aaaad

#2915
1aaaaa
b1111 aaaaf
1aaaag

#2920
0aaaaa
b11 aaaad

#2925
1aaaaa
b1110 aaaaf

#2930
0aaaaa
b100 aaaad

#2935
1aaaaa
b1101 aaaaf

#2940
0aaaaa
b101 aaaad

#2945
1aaaaa
b1100 aaaaf

#2950
0aaaaa
b110 aaaad

#2955
1aaaaa
b1011 aaaaf

#2960
0aaaaa
b111 aaaad

#2965
1aaaaa
b1010 aaaaf

#2970
0aaaaa
b1000 aaaad

#2975
1aaaaa
b1001 aaaaf

#2980
0aaaaa
b1001 aaaad

#2985
1aaaaa
b1000 aaaaf

#2990
0aaaaa
b1010 aaaad

#2995
1aaaaa
b111 aaaaf

#3000
0aaaaa
b1011 aaaad

#3005
1aaaaa
b110 aaaaf

#3010
0aaaaa
b1100 aaaad

#3015
1aaaaa
b101 aaaaf

#3020
0aaaaa
b1101 aaaad

#3025
1aaaaa
b100 aaaaf

#3030
0aaaaa
b1110 aaaad

#3035
1aaaaa
b11 aaaaf

#3040
0aaaaa
b1111 aaaad

#3045
1aaaaa
b10 aaaaf

#3050
0aaaaa
b11 aaaac
b0 aaaad

#3055
1aaaaa
0aaaag

#3060
0aaaaa
b1 aaaad

#3065
1aaaaa
b1 aaaaf

#3070
0aaaaa
b10 aaaad

#3075
1aaaaa
b0 aaaaf

#3080
0aaaaa
b11 aaaad

#3085
1aaaaa
b1111 aaaaf
1aaaag

#3090
0aaaaa
b100 aaaad

#3095
1aaaaa
b1110 aaaaf

#3100
0aaaaa
b101 aaaad

#3105
1aaaaa
b1101 aaaaf

#3110
0aaaaa
b110 aaaad

#3115
1aaaaa
b1100 aaaaf

#3120
0aaaaa
b111 aaaad

#3125
1aaaaa
b1011 aaaaf

#3130
0aaaaa
b1000 aaaad

#3135
1aaaaa
b1010 aaaaf

#3140
0aaaaa
b1001 aaaad

#3145
1aaaaa
b1001 aaaaf

#3150
0aaaaa
b1010 aaaad

#3155
1aaaaa
b1000 aaaaf

#3160
0aaaaa
b1011 aaaad

#3165
1aaaaa
b111 aaaaf

#3170
0aaaaa
b1100 aaaad

#3175
1aaaaa
b110 aaaaf

#3180
0aaaaa
b1101 aaaad

#3185
1aaaaa
b101 aaaaf

#3190
0aaaaa
b1110 aaaad

#3195
1aaaaa
b100 aaaaf

#3200
0aaaaa
b1111 aaaad

#3205
1aaaaa
b11 aaaaf

#3210
0aaaaa
b100 aaaac
b0 aaaad

#3215
1aaaaa
0aaaag

#3220
0aaaaa
b1 aaaad

#3225
1aaaaa
b10 aaaaf

#3230
0aaaaa
b10 aaaad

#3235
1aaaaa
b1 aaaaf

#3240
0aaaaa
b11 aaaad

#3245
1aaaaa
b0 aaaaf

#3250
0aaaaa
b100 aaaad

#3255
1aaaaa
b1111 aaaaf
1aaaag

#3260
0aaaaa
b101 aaaad

#3265
1aaaaa
b1110 aaaaf

#3270
0aaaaa
b110 aaaad

#3275
1aaaaa
b1101 aaaaf

#3280
0aaaaa
b111 aaaad

#3285
1aaaaa
b1100 aaaaf

#3290
0aaaaa
b1000 aaaad

#3295
1aaaaa
b1011 aaaaf

#3300
0aaaaa
b1001 aaaad

#3305
1aaaaa
b1010 aaaaf

#3310
0aaaaa
b1010 aaaad

#3315
1aaaaa
b1001 aaaaf

#3320
0aaaaa
b1011 aaaad

#3325
1aaaaa
b1000 aaaaf

#3330
0aaaaa
b1100 aaaad

#3335
1aaaaa
b111 aaaaf

#3340
0aaaaa
b1101 aaaad

#3345
1aaaaa
b110 aaaaf

#3350
0aaaaa
b1110 aaaad

#3355
1aaaaa
b101 aaaaf

#3360
0aaaaa
b1111 aaaad

#3365
1aaaaa
b100 aaaaf

#3370
0aaaaa
b101 aaaac
b0 aaaad

#3375
1aaaaa
0aaaag

#3380
0aaaaa
b1 aaaad

#3385
1aaaaa
b11 aaaaf

#3390
0aaaaa
b10 aaaad

#3395
1aaaaa
b10 aaaaf

#3400
0aaaaa
b11 aaaad

#3405
1aaaaa
b1 aaaaf

#3410
0aaaaa
b100 aaaad

#3415
1aaaaa
b0 aaaaf

#3420
0aaaaa
b101 aaaad

#3425
1aaaaa
b1111 aaaaf
1aaaag

#3430
0aaaaa
b110 aaaad

#3435
1aaaaa
b1110 aaaaf

#3440
0aaaaa
b111 aaaad

#3445
1aaaaa
b1101 aaaaf

#3450
0aaaaa
b1000 aaaad

#3455
1aaaaa
b1100 aaaaf

#3460
0aaaaa
b1001 aaaad

#3465
1aaaaa
b1011 aaaaf

#3470
0aaaaa
b1010 aaaad

#3475
1aaaaa
b1010 aaaaf

#3480
0aaaaa
b1011 aaaad

#3485
1aaaaa
b1001 aaaaf

#3490
0aaaaa
b1100 aaaad

#3495
1aaaaa
b1000 aaaaf

#3500
0aaaaa
b1101 aaaad

#3505
1aaaaa
b111 aaaaf

#3510
0aaaaa
b1110 aaaad

#3515
1aaaaa
b110 aaaaf

#3520
0aaaaa
b1111 aaaad

#3525
1aaaaa
b101 aaaaf

#3530
0aaaaa
b110 aaaac
b0 aaaad

#3535
1aaaaa
0aaaag

#3540
0aaaaa
b1 aaaad

#3545
1aaaaa
b100 aaaaf

#3550
0aaaaa
b10 aaaad

#3555
1aaaaa
b11 aaaaf

#3560
0aaaaa
b11 aaaad

#3565
1aaaaa
b10 aaaaf

#3570
0aaaaa
b100 aaaad

#3575
1aaaaa
b1 aaaaf

#3580
0aaaaa
b101 aaaad

#3585
1aaaaa
b0 aaaaf

#3590
0aaaaa
b110 aaaad

#3595
1aaaaa
b1111 aaaaf
1aaaag

#3600
0aaaaa
b111 aaaad

#3605
1aaaaa
b1110 aaaaf

#3610
0aaaaa
b1000 aaaad

#3615
1aaaaa
b1101 aaaaf

#3620
0aaaaa
b1001 aaaad

#3625
1aaaaa
b1100 aaaaf

#3630
0aaaaa
b1010 aaaad

#3635
1aaaaa
b1011 aaaaf

#3640
0aaaaa
b1011 aaaad

#3645
1aaaaa
b1010 aaaaf

#3650
0aaaaa
b1100 aaaad

#3655
1aaaaa
b1001 aaaaf

