FINAL/A_2/UTILS_4BIT/MATH_4BIT/FA_4BIT/wavetrace_output.vcd
$date
     May 14, 2025       01:23:01
$end

$version
 SystemC 3.0.2-Accellera --- Apr 10 2025 16:54:46
$end

$timescale
     1 ns
$end

$scope module SystemC $end
$var wire    1  aaaaa  en       $end
$var wire    1  aaaab  rst       $end
$var wire    4  aaaac  a [3:0]  $end
$var wire    4  aaaad  b [3:0]  $end
$var wire    1  aaaae  carry_in       $end
$var wire    4  aaaaf  out [3:0]  $end
$var wire    1  aaaag  carry_out       $end
$upscope $end
$enddefinitions  $end

$comment
All initial values are dumped below at time 0 sec = 0 timescale units.
$end

$dumpvars
0aaaaa
0aaaab
b0 aaaac
b0 aaaad
0aaaae
b0 aaaaf
0aaaag
$end

#15
1aaaaa

#20
0aaaaa
b1 aaaad

#25
1aaaaa
b1 aaaaf

#30
0aaaaa
b10 aaaad

#35
1aaaaa
b10 aaaaf

#40
0aaaaa
b11 aaaad

#45
1aaaaa
b11 aaaaf

#50
0aaaaa
b100 aaaad

#55
1aaaaa
b100 aaaaf

#60
0aaaaa
b101 aaaad

#65
1aaaaa
b101 aaaaf

#70
0aaaaa
b110 aaaad

#75
1aaaaa
b110 aaaaf

#80
0aaaaa
b111 aaaad

#85
1aaaaa
b111 aaaaf

#90
0aaaaa
b1000 aaaad

#95
1aaaaa
b1000 aaaaf

#100
0aaaaa
b1001 aaaad

#105
1aaaaa
b1001 aaaaf

#110
0aaaaa
b1010 aaaad

#115
1aaaaa
b1010 aaaaf

#120
0aaaaa
b1011 aaaad

#125
1aaaaa
b1011 aaaaf

#130
0aaaaa
b1100 aaaad

#135
1aaaaa
b1100 aaaaf

#140
0aaaaa
b1101 aaaad

#145
1aaaaa
b1101 aaaaf

#150
0aaaaa
b1110 aaaad

#155
1aaaaa
b1110 aaaaf

#160
0aaaaa
b1111 aaaad

#165
1aaaaa
b1111 aaaaf

#170
0aaaaa
b1 aaaac
b0 aaaad

#175
1aaaaa
b1 aaaaf

#180
0aaaaa
b1 aaaad

#185
1aaaaa
b10 aaaaf

#190
0aaaaa
b10 aaaad

#195
1aaaaa
b11 aaaaf

#200
0aaaaa
b11 aaaad

#205
1aaaaa
b100 aaaaf

#210
0aaaaa
b100 aaaad

#215
1aaaaa
b101 aaaaf

#220
0aaaaa
b101 aaaad

#225
1aaaaa
b110 aaaaf

#230
0aaaaa
b110 aaaad

#235
1aaaaa
b111 aaaaf

#240
0aaaaa
b111 aaaad

#245
1aaaaa
b1000 aaaaf

#250
0aaaaa
b1000 aaaad

#255
1aaaaa
b1001 aaaaf

#260
0aaaaa
b1001 aaaad

#265
1aaaaa
b1010 aaaaf

#270
0aaaaa
b1010 aaaad

#275
1aaaaa
b1011 aaaaf

#280
0aaaaa
b1011 aaaad

#285
1aaaaa
b1100 aaaaf

#290
0aaaaa
b1100 aaaad

#295
1aaaaa
b1101 aaaaf

#300
0aaaaa
b1101 aaaad

#305
1aaaaa
b1110 aaaaf

#310
0aaaaa
b1110 aaaad

#315
1aaaaa
b1111 aaaaf

#320
0aaaaa
b1111 aaaad

#325
1aaaaa
b0 aaaaf
1aaaag

#330
0aaaaa
b10 aaaac
b0 aaaad

#335
1aaaaa
b10 aaaaf
0aaaag

#340
0aaaaa
b1 aaaad

#345
1aaaaa
b11 aaaaf

#350
0aaaaa
b10 aaaad

#355
1aaaaa
b100 aaaaf

#360
0aaaaa
b11 aaaad

#365
1aaaaa
b101 aaaaf

#370
0aaaaa
b100 aaaad

#375
1aaaaa
b110 aaaaf

#380
0aaaaa
b101 aaaad

#385
1aaaaa
b111 aaaaf

#390
0aaaaa
b110 aaaad

#395
1aaaaa
b1000 aaaaf

#400
0aaaaa
b111 aaaad

#405
1aaaaa
b1001 aaaaf

#410
0aaaaa
b1000 aaaad

#415
1aaaaa
b1010 aaaaf

#420
0aaaaa
b1001 aaaad

#425
1aaaaa
b1011 aaaaf

#430
0aaaaa
b1010 aaaad

#435
1aaaaa
b1100 aaaaf

#440
0aaaaa
b1011 aaaad

#445
1aaaaa
b1101 aaaaf

#450
0aaaaa
b1100 aaaad

#455
1aaaaa
b1110 aaaaf

#460
0aaaaa
b1101 aaaad

#465
1aaaaa
b1111 aaaaf

#470
0aaaaa
b1110 aaaad

#475
1aaaaa
b0 aaaaf
1aaaag

#480
0aaaaa
b1111 aaaad

#485
1aaaaa
b1 aaaaf

#490
0aaaaa
b11 aaaac
b0 aaaad

#495
1aaaaa
b11 aaaaf
0aaaag

#500
0aaaaa
b1 aaaad

#505
1aaaaa
b100 aaaaf

#510
0aaaaa
b10 aaaad

#515
1aaaaa
b101 aaaaf

#520
0aaaaa
b11 aaaad

#525
1aaaaa
b110 aaaaf

#530
0aaaaa
b100 aaaad

#535
1aaaaa
b111 aaaaf

#540
0aaaaa
b101 aaaad

#545
1aaaaa
b1000 aaaaf

#550
0aaaaa
b110 aaaad

#555
1aaaaa
b1001 aaaaf

#560
0aaaaa
b111 aaaad

#565
1aaaaa
b1010 aaaaf

#570
0aaaaa
b1000 aaaad

#575
1aaaaa
b1011 aaaaf

#580
0aaaaa
b1001 aaaad

#585
1aaaaa
b1100 aaaaf

#590
0aaaaa
b1010 aaaad

#595
1aaaaa
b1101 aaaaf

#600
0aaaaa
b1011 aaaad

#605
1aaaaa
b1110 aaaaf

#610
0aaaaa
b1100 aaaad

#615
1aaaaa
b1111 aaaaf

#620
0aaaaa
b1101 aaaad

#625
1aaaaa
b0 aaaaf
1aaaag

#630
0aaaaa
b1110 aaaad

#635
1aaaaa
b1 aaaaf

#640
0aaaaa
b1111 aaaad

#645
1aaaaa
b10 aaaaf

#650
0aaaaa
b100 aaaac
b0 aaaad

#655
1aaaaa
b100 aaaaf
0aaaag

#660
0aaaaa
b1 aaaad

#665
1aaaaa
b101 aaaaf

#670
0aaaaa
b10 aaaad

#675
1aaaaa
b110 aaaaf

#680
0aaaaa
b11 aaaad

#685
1aaaaa
b111 aaaaf

#690
0aaaaa
b100 aaaad

#695
1aaaaa
b1000 aaaaf

#700
0aaaaa
b101 aaaad

#705
1aaaaa
b1001 aaaaf

#710
0aaaaa
b110 aaaad

#715
1aaaaa
b1010 aaaaf

#720
0aaaaa
b111 aaaad

#725
1aaaaa
b1011 aaaaf

#730
0aaaaa
b1000 aaaad

#735
1aaaaa
b1100 aaaaf

#740
0aaaaa
b1001 aaaad

#745
1aaaaa
b1101 aaaaf

#750
0aaaaa
b1010 aaaad

#755
1aaaaa
b1110 aaaaf

#760
0aaaaa
b1011 aaaad

#765
1aaaaa
b1111 aaaaf

#770
0aaaaa
b1100 aaaad

#775
1aaaaa
b0 aaaaf
1aaaag

#780
0aaaaa
b1101 aaaad

#785
1aaaaa
b1 aaaaf

#790
0aaaaa
b1110 aaaad

#795
1aaaaa
b10 aaaaf

#800
0aaaaa
b1111 aaaad

#805
1aaaaa
b11 aaaaf

#810
0aaaaa
b101 aaaac
b0 aaaad

#815
1aaaaa
b101 aaaaf
0aaaag

#820
0aaaaa
b1 aaaad

#825
1aaaaa
b110 aaaaf

#830
0aaaaa
b10 aaaad

#835
1aaaaa
b111 aaaaf

#840
0aaaaa
b11 aaaad

#845
1aaaaa
b1000 aaaaf

#850
0aaaaa
b100 aaaad

#855
1aaaaa
b1001 aaaaf

#860
0aaaaa
b101 aaaad

#865
1aaaaa
b1010 aaaaf

#870
0aaaaa
b110 aaaad

#875
1aaaaa
b1011 aaaaf

#880
0aaaaa
b111 aaaad

#885
1aaaaa
b1100 aaaaf

#890
0aaaaa
b1000 aaaad

#895
1aaaaa
b1101 aaaaf

#900
0aaaaa
b1001 aaaad

#905
1aaaaa
b1110 aaaaf

#910
0aaaaa
b1010 aaaad

#915
1aaaaa
b1111 aaaaf

#920
0aaaaa
b1011 aaaad

#925
1aaaaa
b0 aaaaf
1aaaag

#930
0aaaaa
b1100 aaaad

#935
1aaaaa
b1 aaaaf

#940
0aaaaa
b1101 aaaad

#945
1aaaaa
b10 aaaaf

#950
0aaaaa
b1110 aaaad

#955
1aaaaa
b11 aaaaf

#960
0aaaaa
b1111 aaaad

#965
1aaaaa
b100 aaaaf

#970
0aaaaa
b110 aaaac
b0 aaaad

#975
1aaaaa
b110 aaaaf
0aaaag

#980
0aaaaa
b1 aaaad

#985
1aaaaa
b111 aaaaf

#990
0aaaaa
b10 aaaad

#995
1aaaaa
b1000 aaaaf

#1000
0aaaaa
b11 aaaad

#1005
1aaaaa
b1001 aaaaf

#1010
0aaaaa
b100 aaaad

#1015
1aaaaa
b1010 aaaaf

#1020
0aaaaa
b101 aaaad

#1025
1aaaaa
b1011 aaaaf

#1030
0aaaaa
b110 aaaad

#1035
1aaaaa
b1100 aaaaf

#1040
0aaaaa
b111 aaaad

#1045
1aaaaa
b1101 aaaaf

#1050
0aaaaa
b1000 aaaad

#1055
1aaaaa
b1110 aaaaf

#1060
0aaaaa
b1001 aaaad

#1065
1aaaaa
b1111 aaaaf

#1070
0aaaaa
b1010 aaaad

#1075
1aaaaa
b0 aaaaf
1aaaag

#1080
0aaaaa
b1011 aaaad

#1085
1aaaaa
b1 aaaaf

#1090
0aaaaa
b1100 aaaad

#1095
1aaaaa
b10 aaaaf

#1100
0aaaaa
b1101 aaaad

#1105
1aaaaa
b11 aaaaf

#1110
0aaaaa
b1110 aaaad

#1115
1aaaaa
b100 aaaaf

#1120
0aaaaa
b1111 aaaad

#1125
1aaaaa
b101 aaaaf

#1130
0aaaaa
b111 aaaac
b0 aaaad

#1135
1aaaaa
b111 aaaaf
0aaaag

#1140
0aaaaa
b1 aaaad

#1145
1aaaaa
b1000 aaaaf

#1150
0aaaaa
b10 aaaad

#1155
1aaaaa
b1001 aaaaf

#1160
0aaaaa
b11 aaaad

#1165
1aaaaa
b1010 aaaaf

#1170
0aaaaa
b100 aaaad

#1175
1aaaaa
b1011 aaaaf

#1180
0aaaaa
b101 aaaad

#1185
1aaaaa
b1100 aaaaf

#1190
0aaaaa
b110 aaaad

#1195
1aaaaa
b1101 aaaaf

#1200
0aaaaa
b111 aaaad

#1205
1aaaaa
b1110 aaaaf

#1210
0aaaaa
b1000 aaaad

#1215
1aaaaa
b1111 aaaaf

#1220
0aaaaa
b1001 aaaad

#1225
1aaaaa
b0 aaaaf
1aaaag

#1230
0aaaaa
b1010 aaaad

#1235
1aaaaa
b1 aaaaf

#1240
0aaaaa
b1011 aaaad

#1245
1aaaaa
b10 aaaaf

#1250
0aaaaa
b1100 aaaad

#1255
1aaaaa
b11 aaaaf

#1260
0aaaaa
b1101 aaaad

#1265
1aaaaa
b100 aaaaf

#1270
0aaaaa
b1110 aaaad

#1275
1aaaaa
b101 aaaaf

#1280
0aaaaa
b1111 aaaad

#1285
1aaaaa
b110 aaaaf

#1290
0aaaaa
b1000 aaaac
b0 aaaad

#1295
1aaaaa
b1000 aaaaf
0aaaag

#1300
0aaaaa
b1 aaaad

#1305
1aaaaa
b1001 aaaaf

#1310
0aaaaa
b10 aaaad

#1315
1aaaaa
b1010 aaaaf

#1320
0aaaaa
b11 aaaad

#1325
1aaaaa
b1011 aaaaf

#1330
0aaaaa
b100 aaaad

#1335
1aaaaa
b1100 aaaaf

#1340
0aaaaa
b101 aaaad

#1345
1aaaaa
b1101 aaaaf

#1350
0aaaaa
b110 aaaad

#1355
1aaaaa
b1110 aaaaf

#1360
0aaaaa
b111 aaaad

#1365
1aaaaa
b1111 aaaaf

#1370
0aaaaa
b1000 aaaad

#1375
1aaaaa
b0 aaaaf
1aaaag

#1380
0aaaaa
b1001 aaaad

#1385
1aaaaa
b1 aaaaf

#1390
0aaaaa
b1010 aaaad

#1395
1aaaaa
b10 aaaaf

#1400
0aaaaa
b1011 aaaad

#1405
1aaaaa
b11 aaaaf

#1410
0aaaaa
b1100 aaaad

#1415
1aaaaa
b100 aaaaf

#1420
0aaaaa
b1101 aaaad

#1425
1aaaaa
b101 aaaaf

#1430
0aaaaa
b1110 aaaad

#1435
1aaaaa
b110 aaaaf

#1440
0aaaaa
b1111 aaaad

#1445
1aaaaa
b111 aaaaf

#1450
0aaaaa
b1001 aaaac
b0 aaaad

#1455
1aaaaa
b1001 aaaaf
0aaaag

#1460
0aaaaa
b1 aaaad

#1465
1aaaaa
b1010 aaaaf

#1470
0aaaaa
b10 aaaad

#1475
1aaaaa
b1011 aaaaf

#1480
0aaaaa
b11 aaaad

#1485
1aaaaa
b1100 aaaaf

#1490
0aaaaa
b100 aaaad

#1495
1aaaaa
b1101 aaaaf

#1500
0aaaaa
b101 aaaad

#1505
1aaaaa
b1110 aaaaf

#1510
0aaaaa
b110 aaaad

#1515
1aaaaa
b1111 aaaaf

#1520
0aaaaa
b111 aaaad

#1525
1aaaaa
b0 aaaaf
1aaaag

#1530
0aaaaa
b1000 aaaad

#1535
1aaaaa
b1 aaaaf

#1540
0aaaaa
b1001 aaaad

#1545
1aaaaa
b10 aaaaf

#1550
0aaaaa
b1010 aaaad

#1555
1aaaaa
b11 aaaaf

#1560
0aaaaa
b1011 aaaad

#1565
1aaaaa
b100 aaaaf

#1570
0aaaaa
b1100 aaaad

#1575
1aaaaa
b101 aaaaf

#1580
0aaaaa
b1101 aaaad

#1585
1aaaaa
b110 aaaaf

#1590
0aaaaa
b1110 aaaad

#1595
1aaaaa
b111 aaaaf

#1600
0aaaaa
b1111 aaaad

#1605
1aaaaa
b1000 aaaaf

#1610
0aaaaa
b1010 aaaac
b0 aaaad

#1615
1aaaaa
b1010 aaaaf
0aaaag

#1620
0aaaaa
b1 aaaad

#1625
1aaaaa
b1011 aaaaf

#1630
0aaaaa
b10 aaaad

#1635
1aaaaa
b1100 aaaaf

#1640
0aaaaa
b11 aaaad

#1645
1aaaaa
b1101 aaaaf

#1650
0aaaaa
b100 aaaad

#1655
1aaaaa
b1110 aaaaf

#1660
0aaaaa
b101 aaaad

#1665
1aaaaa
b1111 aaaaf

#1670
0aaaaa
b110 aaaad

#1675
1aaaaa
b0 aaaaf
1aaaag

#1680
0aaaaa
b111 aaaad

#1685
1aaaaa
b1 aaaaf

#1690
0aaaaa
1aaaab
b1000 aaaad

#1700
1aaaaa
b0 aaaaf
0aaaag

#1705
0aaaaa

#1710
1aaaaa

#1715
0aaaaa

#1720
1aaaaa

#1725
0aaaaa
0aaaab

#1730
1aaaaa
b10 aaaaf
1aaaag

#1735
0aaaaa
b1001 aaaad

#1740
1aaaaa
b11 aaaaf

#1745
0aaaaa
b1010 aaaad

#1750
1aaaaa
b100 aaaaf

#1755
0aaaaa
b1011 aaaad

#1760
1aaaaa
b101 aaaaf

#1765
0aaaaa
b1100 aaaad

#1770
1aaaaa
b110 aaaaf

#1775
0aaaaa
b1101 aaaad

#1780
1aaaaa
b111 aaaaf

#1785
0aaaaa
b1110 aaaad

#1790
1aaaaa
b1000 aaaaf

#1795
0aaaaa
b1111 aaaad

#1800
1aaaaa
b1001 aaaaf

#1805
0aaaaa
b1011 aaaac
b0 aaaad

#1810
1aaaaa
b1011 aaaaf
0aaaag

#1815
0aaaaa
b1 aaaad

#1820
1aaaaa
b1100 aaaaf

#1825
0aaaaa
b10 aaaad

#1830
1aaaaa
b1101 aaaaf

#1835
0aaaaa
b11 aaaad

#1840
1aaaaa
b1110 aaaaf

#1845
0aaaaa
b100 aaaad

#1850
1aaaaa
b1111 aaaaf

#1855
0aaaaa
b101 aaaad

#1860
1aaaaa
b0 aaaaf
1aaaag

#1865
0aaaaa
b110 aaaad

#1870
1aaaaa
b1 aaaaf

#1875
0aaaaa
b111 aaaad

#1880
1aaaaa
b10 aaaaf

#1885
0aaaaa
b1000 aaaad

#1890
1aaaaa
b11 aaaaf

#1895
0aaaaa
b1001 aaaad

#1900
1aaaaa
b100 aaaaf

#1905
0aaaaa
b1010 aaaad

#1910
1aaaaa
b101 aaaaf

#1915
0aaaaa
b1011 aaaad

#1920
1aaaaa
b110 aaaaf

#1925
0aaaaa
b1100 aaaad

#1930
1aaaaa
b111 aaaaf

#1935
0aaaaa
b1101 aaaad

#1940
1aaaaa
b1000 aaaaf

#1945
0aaaaa
b1110 aaaad

#1950
1aaaaa
b1001 aaaaf

#1955
0aaaaa
b1111 aaaad

#1960
1aaaaa
b1010 aaaaf

#1965
0aaaaa
b1100 aaaac
b0 aaaad

#1970
1aaaaa
b1100 aaaaf
0aaaag

#1975
0aaaaa
b1 aaaad

#1980
1aaaaa
b1101 aaaaf

#1985
0aaaaa
b10 aaaad

#1990
1aaaaa
b1110 aaaaf

#1995
0aaaaa
b11 aaaad

#2000
1aaaaa
b1111 aaaaf

#2005
0aaaaa
b100 aaaad

#2010
1aaaaa
b0 aaaaf
1aaaag

#2015
0aaaaa
b101 aaaad

#2020
1aaaaa
b1 aaaaf

#2025
0aaaaa
b110 aaaad

#2030
1aaaaa
b10 aaaaf

#2035
0aaaaa
b111 aaaad

#2040
1aaaaa
b11 aaaaf

#2045
0aaaaa
b1000 aaaad

#2050
1aaaaa
b100 aaaaf

#2055
0aaaaa
b1001 aaaad

#2060
1aaaaa
b101 aaaaf

#2065
0aaaaa
b1010 aaaad

#2070
1aaaaa
b110 aaaaf

#2075
0aaaaa
b1011 aaaad

#2080
1aaaaa
b111 aaaaf

#2085
0aaaaa
b1100 aaaad

#2090
1aaaaa
b1000 aaaaf

#2095
0aaaaa
b1101 aaaad

#2100
1aaaaa
b1001 aaaaf

#2105
0aaaaa
b1110 aaaad

#2110
1aaaaa
b1010 aaaaf

#2115
0aaaaa
b1111 aaaad

#2120
1aaaaa
b1011 aaaaf

#2125
0aaaaa
b1101 aaaac
b0 aaaad

#2130
1aaaaa
b1101 aaaaf
0aaaag

#2135
0aaaaa
b1 aaaad

#2140
1aaaaa
b1110 aaaaf

#2145
0aaaaa
b10 aaaad

#2150
1aaaaa
b1111 aaaaf

#2155
0aaaaa
b11 aaaad

#2160
1aaaaa
b0 aaaaf
1aaaag

#2165
0aaaaa
b100 aaaad

#2170
1aaaaa
b1 aaaaf

#2175
0aaaaa
b101 aaaad

#2180
1aaaaa
b10 aaaaf

#2185
0aaaaa
b110 aaaad

#2190
1aaaaa
b11 aaaaf

#2195
0aaaaa
b111 aaaad

#2200
1aaaaa
b100 aaaaf

#2205
0aaaaa
b1000 aaaad

#2210
1aaaaa
b101 aaaaf

#2215
0aaaaa
b1001 aaaad

#2220
1aaaaa
b110 aaaaf

#2225
0aaaaa
b1010 aaaad

#2230
1aaaaa
b111 aaaaf

#2235
0aaaaa
b1011 aaaad

#2240
1aaaaa
b1000 aaaaf

#2245
0aaaaa
b1100 aaaad

#2250
1aaaaa
b1001 aaaaf

#2255
0aaaaa
b1101 aaaad

#2260
1aaaaa
b1010 aaaaf

#2265
0aaaaa
b1110 aaaad

#2270
1aaaaa
b1011 aaaaf

#2275
0aaaaa
b1111 aaaad

#2280
1aaaaa
b1100 aaaaf

#2285
0aaaaa
b1110 aaaac
b0 aaaad

#2290
1aaaaa
b1110 aaaaf
0aaaag

#2295
0aaaaa
b1 aaaad

#2300
1aaaaa
b1111 aaaaf

#2305
0aaaaa
b10 aaaad

#2310
1aaaaa
b0 aaaaf
1aaaag

#2315
0aaaaa
b11 aaaad

#2320
1aaaaa
b1 aaaaf

#2325
0aaaaa
b100 aaaad

#2330
1aaaaa
b10 aaaaf

#2335
0aaaaa
b101 aaaad

#2340
1aaaaa
b11 aaaaf

#2345
0aaaaa
b110 aaaad

#2350
1aaaaa
b100 aaaaf

#2355
0aaaaa
b111 aaaad

#2360
1aaaaa
b101 aaaaf

#2365
0aaaaa
b1000 aaaad

#2370
1aaaaa
b110 aaaaf

#2375
0aaaaa
b1001 aaaad

#2380
1aaaaa
b111 aaaaf

#2385
0aaaaa
b1010 aaaad

#2390
1aaaaa
b1000 aaaaf

#2395
0aaaaa
b1011 aaaad

#2400
1aaaaa
b1001 aaaaf

#2405
0aaaaa
b1100 aaaad

#2410
1aaaaa
b1010 aaaaf

#2415
0aaaaa
b1101 aaaad

#2420
1aaaaa
b1011 aaaaf

#2425
0aaaaa
b1110 aaaad

#2430
1aaaaa
b1100 aaaaf

#2435
0aaaaa
b1111 aaaad

#2440
1aaaaa
b1101 aaaaf

#2445
0aaaaa
b1111 aaaac
b0 aaaad

#2450
1aaaaa
b1111 aaaaf
0aaaag

#2455
0aaaaa
b1 aaaad

#2460
1aaaaa
b0 aaaaf
1aaaag

#2465
0aaaaa
b10 aaaad

#2470
1aaaaa
b1 aaaaf

#2475
0aaaaa
b11 aaaad

#2480
1aaaaa
b10 aaaaf

#2485
0aaaaa
b100 aaaad

#2490
1aaaaa
b11 aaaaf

#2495
0aaaaa
b101 aaaad

#2500
1aaaaa
b100 aaaaf

#2505
0aaaaa
b110 aaaad

#2510
1aaaaa
b101 aaaaf

#2515
0aaaaa
b111 aaaad

#2520
1aaaaa
b110 aaaaf

#2525
0aaaaa
b1000 aaaad

#2530
1aaaaa
b111 aaaaf

#2535
0aaaaa
b1001 aaaad

#2540
1aaaaa
b1000 aaaaf

#2545
0aaaaa
b1010 aaaad

#2550
1aaaaa
b1001 aaaaf

#2555
0aaaaa
b1011 aaaad

#2560
1aaaaa
b1010 aaaaf

#2565
0aaaaa
b1100 aaaad

#2570
1aaaaa
b1011 aaaaf

#2575
0aaaaa
b1101 aaaad

#2580
1aaaaa
b1100 aaaaf

#2585
0aaaaa
b1110 aaaad

#2590
1aaaaa
b1101 aaaaf

#2595
0aaaaa
b1111 aaaad

#2600
1aaaaa
b1110 aaaaf

#2605
0aaaaa
b0 aaaac
b0 aaaad
1aaaae

#2610
1aaaaa
b1 aaaaf
0aaaag

#2615
0aaaaa
b1 aaaad

#2620
1aaaaa
b10 aaaaf

#2625
0aaaaa
b10 aaaad

#2630
1aaaaa
b11 aaaaf

#2635
0aaaaa
b11 aaaad

#2640
1aaaaa
b100 aaaaf

#2645
0aaaaa
b100 aaaad

#2650
1aaaaa
b101 aaaaf

#2655
0aaaaa
b101 aaaad

#2660
1aaaaa
b110 aaaaf

#2665
0aaaaa
b110 aaaad

#2670
1aaaaa
b111 aaaaf

#2675
0aaaaa
b111 aaaad

#2680
1aaaaa
b1000 aaaaf

#2685
0aaaaa
b1000 aaaad

#2690
1aaaaa
b1001 aaaaf

#2695
0aaaaa
b1001 aaaad

#2700
1aaaaa
b1010 aaaaf

#2705
0aaaaa
b1010 aaaad

#2710
1aaaaa
b1011 aaaaf

#2715
0aaaaa
b1011 aaaad

#2720
1aaaaa
b1100 aaaaf

#2725
0aaaaa
b1100 aaaad

#2730
1aaaaa
b1101 aaaaf

#2735
0aaaaa
b1101 aaaad

#2740
1aaaaa
b1110 aaaaf

#2745
0aaaaa
b1110 aaaad

#2750
1aaaaa
b1111 aaaaf

#2755
0aaaaa
b1111 aaaad

#2760
1aaaaa
b0 aaaaf
1aaaag

#2765
0aaaaa
b1 aaaac
b0 aaaad

#2770
1aaaaa
b10 aaaaf
0aaaag

#2775
0aaaaa
b1 aaaad

#2780
1aaaaa
b11 aaaaf

#2785
0aaaaa
b10 aaaad

#2790
1aaaaa
b100 aaaaf

#2795
0aaaaa
b11 aaaad

#2800
1aaaaa
b101 aaaaf

#2805
0aaaaa
b100 aaaad

#2810
1aaaaa
b110 aaaaf

#2815
0aaaaa
b101 aaaad

#2820
1aaaaa
b111 aaaaf

#2825
0aaaaa
b110 aaaad

#2830
1aaaaa
b1000 aaaaf

#2835
0aaaaa
b111 aaaad

#2840
1aaaaa
b1001 aaaaf

#2845
0aaaaa
b1000 aaaad

#2850
1aaaaa
b1010 aaaaf

#2855
0aaaaa
b1001 aaaad

#2860
1aaaaa
b1011 aaaaf

#2865
0aaaaa
b1010 aaaad

#2870
1aaaaa
b1100 aaaaf

#2875
0aaaaa
b1011 aaaad

#2880
1aaaaa
b1101 aaaaf

#2885
0aaaaa
b1100 aaaad

#2890
1aaaaa
b1110 aaaaf

#2895
0aaaaa
b1101 aaaad

#2900
1aaaaa
b1111 aaaaf

#2905
0aaaaa
b1110 aaaad

#2910
1aaaaa
b0 aaaaf
1aaaag

#2915
0aaaaa
b1111 aaaad

#2920
1aaaaa
b1 aaaaf

#2925
0aaaaa
b10 aaaac
b0 aaaad

#2930
1aaaaa
b11 aaaaf
0aaaag

#2935
0aaaaa
b1 aaaad

#2940
1aaaaa
b100 aaaaf

#2945
0aaaaa
b10 aaaad

#2950
1aaaaa
b101 aaaaf

#2955
0aaaaa
b11 aaaad

#2960
1aaaaa
b110 aaaaf

#2965
0aaaaa
b100 aaaad

#2970
1aaaaa
b111 aaaaf

#2975
0aaaaa
b101 aaaad

#2980
1aaaaa
b1000 aaaaf

#2985
0aaaaa
b110 aaaad

#2990
1aaaaa
b1001 aaaaf

#2995
0aaaaa
b111 aaaad

#3000
1aaaaa
b1010 aaaaf

#3005
0aaaaa
b1000 aaaad

#3010
1aaaaa
b1011 aaaaf

#3015
0aaaaa
b1001 aaaad

#3020
1aaaaa
b1100 aaaaf

#3025
0aaaaa
b1010 aaaad

#3030
1aaaaa
b1101 aaaaf

#3035
0aaaaa
b1011 aaaad

#3040
1aaaaa
b1110 aaaaf

#3045
0aaaaa
b1100 aaaad

#3050
1aaaaa
b1111 aaaaf

#3055
0aaaaa
b1101 aaaad

#3060
1aaaaa
b0 aaaaf
1aaaag

#3065
0aaaaa
b1110 aaaad

#3070
1aaaaa
b1 aaaaf

#3075
0aaaaa
b1111 aaaad

#3080
1aaaaa
b10 aaaaf

#3085
0aaaaa
b11 aaaac
b0 aaaad

#3090
1aaaaa
b100 aaaaf
0aaaag

#3095
0aaaaa
b1 aaaad

#3100
1aaaaa
b101 aaaaf

#3105
0aaaaa
b10 aaaad

#3110
1aaaaa
b110 aaaaf

#3115
0aaaaa
b11 aaaad

#3120
1aaaaa
b111 aaaaf

#3125
0aaaaa
b100 aaaad

#3130
1aaaaa
b1000 aaaaf

#3135
0aaaaa
b101 aaaad

#3140
1aaaaa
b1001 aaaaf

#3145
0aaaaa
b110 aaaad

#3150
1aaaaa
b1010 aaaaf

#3155
0aaaaa
b111 aaaad

#3160
1aaaaa
b1011 aaaaf

#3165
0aaaaa
b1000 aaaad

#3170
1aaaaa
b1100 aaaaf

#3175
0aaaaa
b1001 aaaad

#3180
1aaaaa
b1101 aaaaf

#3185
0aaaaa
b1010 aaaad

#3190
1aaaaa
b1110 aaaaf

#3195
0aaaaa
b1011 aaaad

#3200
1aaaaa
b1111 aaaaf

#3205
0aaaaa
b1100 aaaad

#3210
1aaaaa
b0 aaaaf
1aaaag

#3215
0aaaaa
b1101 aaaad

#3220
1aaaaa
b1 aaaaf

#3225
0aaaaa
b1110 aaaad

#3230
1aaaaa
b10 aaaaf

#3235
0aaaaa
b1111 aaaad

#3240
1aaaaa
b11 aaaaf

#3245
0aaaaa
b100 aaaac
b0 aaaad

#3250
1aaaaa
b101 aaaaf
0aaaag

#3255
0aaaaa
b1 aaaad

#3260
1aaaaa
b110 aaaaf

#3265
0aaaaa
b10 aaaad

#3270
1aaaaa
b111 aaaaf

#3275
0aaaaa
b11 aaaad

#3280
1aaaaa
b1000 aaaaf

#3285
0aaaaa
b100 aaaad

#3290
1aaaaa
b1001 aaaaf

#3295
0aaaaa
b101 aaaad

#3300
1aaaaa
b1010 aaaaf

#3305
0aaaaa
b110 aaaad

#3310
1aaaaa
b1011 aaaaf

#3315
0aaaaa
b111 aaaad

#3320
1aaaaa
b1100 aaaaf

#3325
0aaaaa
b1000 aaaad

#3330
1aaaaa
b1101 aaaaf

#3335
0aaaaa
b1001 aaaad

#3340
1aaaaa
b1110 aaaaf

#3345
0aaaaa
b1010 aaaad

#3350
1aaaaa
b1111 aaaaf

#3355
0aaaaa
b1011 aaaad

#3360
1aaaaa
b0 aaaaf
1aaaag

#3365
0aaaaa
b1100 aaaad

#3370
1aaaaa
b1 aaaaf

#3375
0aaaaa
b1101 aaaad

#3380
1aaaaa
b10 aaaaf

#3385
0aaaaa
b1110 aaaad

#3390
1aaaaa
b11 aaaaf

#3395
0aaaaa
b1111 aaaad

#3400
1aaaaa
b100 aaaaf

#3405
0aaaaa
b101 aaaac
b0 aaaad

#3410
1aaaaa
b110 aaaaf
0aaaag

#3415
0aaaaa
b1 aaaad

#3420
1aaaaa
b111 aaaaf

#3425
0aaaaa
b10 aaaad

#3430
1aaaaa
b1000 aaaaf

#3435
0aaaaa
b11 aaaad

#3440
1aaaaa
b1001 aaaaf

#3445
0aaaaa
b100 aaaad

#3450
1aaaaa
b1010 aaaaf

#3455
0aaaaa
b101 aaaad

#3460
1aaaaa
b1011 aaaaf

#3465
0aaaaa
b110 aaaad

#3470
1aaaaa
b1100 aaaaf

#3475
0aaaaa
b111 aaaad

#3480
1aaaaa
b1101 aaaaf

#3485
0aaaaa
b1000 aaaad

#3490
1aaaaa
b1110 aaaaf

#3495
0aaaaa
b1001 aaaad

#3500
1aaaaa
b1111 aaaaf

#3505
0aaaaa
b1010 aaaad

#3510
1aaaaa
b0 aaaaf
1aaaag

#3515
0aaaaa
b1011 aaaad

#3520
1aaaaa
b1 aaaaf

#3525
0aaaaa
b1100 aaaad

#3530
1aaaaa
b10 aaaaf

#3535
0aaaaa
b1101 aaaad

#3540
1aaaaa
b11 aaaaf

#3545
0aaaaa
b1110 aaaad

#3550
1aaaaa
b100 aaaaf

#3555
0aaaaa
b1111 aaaad

#3560
1aaaaa
b101 aaaaf

#3565
0aaaaa
b110 aaaac
b0 aaaad

#3570
1aaaaa
b111 aaaaf
0aaaag

#3575
0aaaaa
b1 aaaad

#3580
1aaaaa
b1000 aaaaf

#3585
0aaaaa
b10 aaaad

#3590
1aaaaa
b1001 aaaaf

#3595
0aaaaa
b11 aaaad

#3600
1aaaaa
b1010 aaaaf

#3605
0aaaaa
b100 aaaad

#3610
1aaaaa
b1011 aaaaf

