FINAL/UTILS_4BIT/BITWISE_4BIT/NAND_4BIT/wavetrace_output.vcd
$date
     May 13, 2025       20:47:10
$end

$version
 SystemC 3.0.2-Accellera --- Apr 10 2025 16:54:46
$end

$timescale
     1 ns
$end

$scope module SystemC $end
$var wire    1  aaaaa  clk       $end
$var wire    1  aaaab  rst       $end
$var wire    4  aaaac  a [3:0]  $end
$var wire    4  aaaad  b [3:0]  $end
$var wire    4  aaaae  out [3:0]  $end
$upscope $end
$enddefinitions  $end

$comment
All initial values are dumped below at time 0 sec = 0 timescale units.
$end

$dumpvars
0aaaaa
0aaaab
b0 aaaac
b0 aaaad
b1111 aaaae
$end

#15
1aaaaa

#20
0aaaaa
b1 aaaad

#25
1aaaaa

#30
0aaaaa
b10 aaaad

#35
1aaaaa

#40
0aaaaa
b11 aaaad

#45
1aaaaa

#50
0aaaaa
b100 aaaad

#55
1aaaaa

#60
0aaaaa
b101 aaaad

#65
1aaaaa

#70
0aaaaa
b110 aaaad

#75
1aaaaa

#80
0aaaaa
b111 aaaad

#85
1aaaaa

#90
0aaaaa
b1000 aaaad

#95
1aaaaa

#100
0aaaaa
b1001 aaaad

#105
1aaaaa

#110
0aaaaa
b1010 aaaad

#115
1aaaaa

#120
0aaaaa
b1011 aaaad

#125
1aaaaa

#130
0aaaaa
b1100 aaaad

#135
1aaaaa

#140
0aaaaa
b1101 aaaad

#145
1aaaaa

#150
0aaaaa
b1110 aaaad

#155
1aaaaa

#160
0aaaaa
b1111 aaaad

#165
1aaaaa

#170
0aaaaa
b1 aaaac
b0 aaaad

#175
1aaaaa

#180
0aaaaa
b1 aaaad

#185
1aaaaa
b1110 aaaae

#190
0aaaaa
b10 aaaad

#195
1aaaaa
b1111 aaaae

#200
0aaaaa
b11 aaaad

#205
1aaaaa
b1110 aaaae

#210
0aaaaa
b100 aaaad

#215
1aaaaa
b1111 aaaae

#220
0aaaaa
b101 aaaad

#225
1aaaaa
b1110 aaaae

#230
0aaaaa
b110 aaaad

#235
1aaaaa
b1111 aaaae

#240
0aaaaa
b111 aaaad

#245
1aaaaa
b1110 aaaae

#250
0aaaaa
b1000 aaaad

#255
1aaaaa
b1111 aaaae

#260
0aaaaa
b1001 aaaad

#265
1aaaaa
b1110 aaaae

#270
0aaaaa
b1010 aaaad

#275
1aaaaa
b1111 aaaae

#280
0aaaaa
b1011 aaaad

#285
1aaaaa
b1110 aaaae

#290
0aaaaa
b1100 aaaad

#295
1aaaaa
b1111 aaaae

#300
0aaaaa
b1101 aaaad

#305
1aaaaa
b1110 aaaae

#310
0aaaaa
b1110 aaaad

#315
1aaaaa
b1111 aaaae

#320
0aaaaa
b1111 aaaad

#325
1aaaaa
b1110 aaaae

#330
0aaaaa
b10 aaaac
b0 aaaad

#335
1aaaaa
b1111 aaaae

#340
0aaaaa
b1 aaaad

#345
1aaaaa

#350
0aaaaa
b10 aaaad

#355
1aaaaa
b1101 aaaae

#360
0aaaaa
b11 aaaad

#365
1aaaaa

#370
0aaaaa
b100 aaaad

#375
1aaaaa
b1111 aaaae

#380
0aaaaa
b101 aaaad

#385
1aaaaa

#390
0aaaaa
b110 aaaad

#395
1aaaaa
b1101 aaaae

#400
0aaaaa
b111 aaaad

#405
1aaaaa

#410
0aaaaa
b1000 aaaad

#415
1aaaaa
b1111 aaaae

#420
0aaaaa
b1001 aaaad

#425
1aaaaa

#430
0aaaaa
b1010 aaaad

#435
1aaaaa
b1101 aaaae

#440
0aaaaa
b1011 aaaad

#445
1aaaaa

#450
0aaaaa
b1100 aaaad

#455
1aaaaa
b1111 aaaae

#460
0aaaaa
b1101 aaaad

#465
1aaaaa

#470
0aaaaa
b1110 aaaad

#475
1aaaaa
b1101 aaaae

#480
0aaaaa
b1111 aaaad

#485
1aaaaa

#490
0aaaaa
b11 aaaac
b0 aaaad

#495
1aaaaa
b1111 aaaae

#500
0aaaaa
b1 aaaad

#505
1aaaaa
b1110 aaaae

#510
0aaaaa
b10 aaaad

#515
1aaaaa
b1101 aaaae

#520
0aaaaa
b11 aaaad

#525
1aaaaa
b1100 aaaae

#530
0aaaaa
b100 aaaad

#535
1aaaaa
b1111 aaaae

#540
0aaaaa
b101 aaaad

#545
1aaaaa
b1110 aaaae

#550
0aaaaa
b110 aaaad

#555
1aaaaa
b1101 aaaae

#560
0aaaaa
b111 aaaad

#565
1aaaaa
b1100 aaaae

#570
0aaaaa
b1000 aaaad

#575
1aaaaa
b1111 aaaae

#580
0aaaaa
b1001 aaaad

#585
1aaaaa
b1110 aaaae

#590
0aaaaa
b1010 aaaad

#595
1aaaaa
b1101 aaaae

#600
0aaaaa
b1011 aaaad

#605
1aaaaa
b1100 aaaae

#610
0aaaaa
b1100 aaaad

#615
1aaaaa
b1111 aaaae

#620
0aaaaa
b1101 aaaad

#625
1aaaaa
b1110 aaaae

#630
0aaaaa
b1110 aaaad

#635
1aaaaa
b1101 aaaae

#640
0aaaaa
b1111 aaaad

#645
1aaaaa
b1100 aaaae

#650
0aaaaa
b100 aaaac
b0 aaaad

#655
1aaaaa
b1111 aaaae

#660
0aaaaa
b1 aaaad

#665
1aaaaa

#670
0aaaaa
b10 aaaad

#675
1aaaaa

#680
0aaaaa
b11 aaaad

#685
1aaaaa

#690
0aaaaa
b100 aaaad

#695
1aaaaa
b1011 aaaae

#700
0aaaaa
b101 aaaad

#705
1aaaaa

#710
0aaaaa
b110 aaaad

#715
1aaaaa

#720
0aaaaa
b111 aaaad

#725
1aaaaa

#730
0aaaaa
b1000 aaaad

#735
1aaaaa
b1111 aaaae

#740
0aaaaa
b1001 aaaad

#745
1aaaaa

#750
0aaaaa
b1010 aaaad

#755
1aaaaa

#760
0aaaaa
b1011 aaaad

#765
1aaaaa

#770
0aaaaa
b1100 aaaad

#775
1aaaaa
b1011 aaaae

#780
0aaaaa
b1101 aaaad

#785
1aaaaa

#790
0aaaaa
b1110 aaaad

#795
1aaaaa

#800
0aaaaa
b1111 aaaad

#805
1aaaaa

#810
0aaaaa
b101 aaaac
b0 aaaad

#815
1aaaaa
b1111 aaaae

#820
0aaaaa
b1 aaaad

#825
1aaaaa
b1110 aaaae

#830
0aaaaa
b10 aaaad

#835
1aaaaa
b1111 aaaae

#840
0aaaaa
b11 aaaad

#845
1aaaaa
b1110 aaaae

#850
0aaaaa
b100 aaaad

#855
1aaaaa
b1011 aaaae

#860
0aaaaa
b101 aaaad

#865
1aaaaa
b1010 aaaae

#870
0aaaaa
b110 aaaad

#875
1aaaaa
b1011 aaaae

#880
0aaaaa
b111 aaaad

#885
1aaaaa
b1010 aaaae

#890
0aaaaa
b1000 aaaad

#895
1aaaaa
b1111 aaaae

#900
0aaaaa
b1001 aaaad

#905
1aaaaa
b1110 aaaae

#910
0aaaaa
b1010 aaaad

#915
1aaaaa
b1111 aaaae

#920
0aaaaa
b1011 aaaad

#925
1aaaaa
b1110 aaaae

#930
0aaaaa
b1100 aaaad

#935
1aaaaa
b1011 aaaae

#940
0aaaaa
b1101 aaaad

#945
1aaaaa
b1010 aaaae

#950
0aaaaa
b1110 aaaad

#955
1aaaaa
b1011 aaaae

#960
0aaaaa
b1111 aaaad

#965
1aaaaa
b1010 aaaae

#970
0aaaaa
b110 aaaac
b0 aaaad

#975
1aaaaa
b1111 aaaae

#980
0aaaaa
b1 aaaad

#985
1aaaaa

#990
0aaaaa
b10 aaaad

#995
1aaaaa
b1101 aaaae

#1000
0aaaaa
b11 aaaad

#1005
1aaaaa

#1010
0aaaaa
b100 aaaad

#1015
1aaaaa
b1011 aaaae

#1020
0aaaaa
b101 aaaad

#1025
1aaaaa

#1030
0aaaaa
b110 aaaad

#1035
1aaaaa
b1001 aaaae

#1040
0aaaaa
b111 aaaad

#1045
1aaaaa

#1050
0aaaaa
b1000 aaaad

#1055
1aaaaa
b1111 aaaae

#1060
0aaaaa
b1001 aaaad

#1065
1aaaaa

#1070
0aaaaa
b1010 aaaad

#1075
1aaaaa
b1101 aaaae

#1080
0aaaaa
b1011 aaaad

#1085
1aaaaa

#1090
0aaaaa
b1100 aaaad

#1095
1aaaaa
b1011 aaaae

#1100
0aaaaa
b1101 aaaad

#1105
1aaaaa

#1110
0aaaaa
b1110 aaaad

#1115
1aaaaa
b1001 aaaae

#1120
0aaaaa
b1111 aaaad

#1125
1aaaaa

#1130
0aaaaa
b111 aaaac
b0 aaaad

#1135
1aaaaa
b1111 aaaae

#1140
0aaaaa
b1 aaaad

#1145
1aaaaa
b1110 aaaae

#1150
0aaaaa
b10 aaaad

#1155
1aaaaa
b1101 aaaae

#1160
0aaaaa
b11 aaaad

#1165
1aaaaa
b1100 aaaae

#1170
0aaaaa
b100 aaaad

#1175
1aaaaa
b1011 aaaae

#1180
0aaaaa
b101 aaaad

#1185
1aaaaa
b1010 aaaae

#1190
0aaaaa
b110 aaaad

#1195
1aaaaa
b1001 aaaae

#1200
0aaaaa
b111 aaaad

#1205
1aaaaa
b1000 aaaae

#1210
0aaaaa
b1000 aaaad

#1215
1aaaaa
b1111 aaaae

#1220
0aaaaa
b1001 aaaad

#1225
1aaaaa
b1110 aaaae

#1230
0aaaaa
b1010 aaaad

#1235
1aaaaa
b1101 aaaae

#1240
0aaaaa
b1011 aaaad

#1245
1aaaaa
b1100 aaaae

#1250
0aaaaa
b1100 aaaad

#1255
1aaaaa
b1011 aaaae

#1260
0aaaaa
b1101 aaaad

#1265
1aaaaa
b1010 aaaae

#1270
0aaaaa
b1110 aaaad

#1275
1aaaaa
b1001 aaaae

#1280
0aaaaa
b1111 aaaad

#1285
1aaaaa
b1000 aaaae

#1290
0aaaaa
b1000 aaaac
b0 aaaad

#1295
1aaaaa
b1111 aaaae

#1300
0aaaaa
b1 aaaad

#1305
1aaaaa

#1310
0aaaaa
b10 aaaad

#1315
1aaaaa

#1320
0aaaaa
b11 aaaad

#1325
1aaaaa

#1330
0aaaaa
b100 aaaad

#1335
1aaaaa

#1340
0aaaaa
b101 aaaad

#1345
1aaaaa

#1350
0aaaaa
b110 aaaad

#1355
1aaaaa

#1360
0aaaaa
b111 aaaad

#1365
1aaaaa

#1370
0aaaaa
b1000 aaaad

#1375
1aaaaa
b111 aaaae

#1380
0aaaaa
b1001 aaaad

#1385
1aaaaa

#1390
0aaaaa
b1010 aaaad

#1395
1aaaaa

#1400
0aaaaa
b1011 aaaad

#1405
1aaaaa

#1410
0aaaaa
b1100 aaaad

#1415
1aaaaa

#1420
0aaaaa
b1101 aaaad

#1425
1aaaaa

#1430
0aaaaa
b1110 aaaad

#1435
1aaaaa

#1440
0aaaaa
b1111 aaaad

#1445
1aaaaa

#1450
0aaaaa
b1001 aaaac
b0 aaaad

#1455
1aaaaa
b1111 aaaae

#1460
0aaaaa
b1 aaaad

#1465
1aaaaa
b1110 aaaae

#1470
0aaaaa
b10 aaaad

#1475
1aaaaa
b1111 aaaae

#1480
0aaaaa
b11 aaaad

#1485
1aaaaa
b1110 aaaae

#1490
0aaaaa
b100 aaaad

#1495
1aaaaa
b1111 aaaae

#1500
0aaaaa
b101 aaaad

#1505
1aaaaa
b1110 aaaae

#1510
0aaaaa
b110 aaaad

#1515
1aaaaa
b1111 aaaae

#1520
0aaaaa
b111 aaaad

#1525
1aaaaa
b1110 aaaae

#1530
0aaaaa
b1000 aaaad

#1535
1aaaaa
b111 aaaae

#1540
0aaaaa
b1001 aaaad

#1545
1aaaaa
b110 aaaae

#1550
0aaaaa
b1010 aaaad

#1555
1aaaaa
b111 aaaae

#1560
0aaaaa
b1011 aaaad

#1565
1aaaaa
b110 aaaae

#1570
0aaaaa
b1100 aaaad

#1575
1aaaaa
b111 aaaae

#1580
0aaaaa
b1101 aaaad

#1585
1aaaaa
b110 aaaae

#1590
0aaaaa
b1110 aaaad

#1595
1aaaaa
b111 aaaae

#1600
0aaaaa
b1111 aaaad

#1605
1aaaaa
b110 aaaae

#1610
0aaaaa
b1010 aaaac
b0 aaaad

#1615
1aaaaa
b1111 aaaae

#1620
0aaaaa
b1 aaaad

#1625
1aaaaa

#1630
0aaaaa
b10 aaaad

#1635
1aaaaa
b1101 aaaae

#1640
0aaaaa
b11 aaaad

#1645
1aaaaa

#1650
0aaaaa
b100 aaaad

#1655
1aaaaa
b1111 aaaae

#1660
0aaaaa
b101 aaaad

#1665
1aaaaa

#1670
0aaaaa
b110 aaaad

#1675
1aaaaa
b1101 aaaae

#1680
0aaaaa
b111 aaaad

#1685
1aaaaa

#1690
0aaaaa
1aaaab
b1000 aaaad

#1695
b0 aaaae

#1700
1aaaaa

#1705
0aaaaa

#1710
1aaaaa

#1715
0aaaaa

#1720
1aaaaa

#1725
0aaaaa
0aaaab

#1730
1aaaaa
b111 aaaae

#1735
0aaaaa
b1001 aaaad

#1740
1aaaaa

#1745
0aaaaa
b1010 aaaad

#1750
1aaaaa
b101 aaaae

#1755
0aaaaa
b1011 aaaad

#1760
1aaaaa

#1765
0aaaaa
b1100 aaaad

#1770
1aaaaa
b111 aaaae

#1775
0aaaaa
b1101 aaaad

#1780
1aaaaa

#1785
0aaaaa
b1110 aaaad

#1790
1aaaaa
b101 aaaae

#1795
0aaaaa
b1111 aaaad

#1800
1aaaaa

#1805
0aaaaa
b1011 aaaac
b0 aaaad

#1810
1aaaaa
b1111 aaaae

#1815
0aaaaa
b1 aaaad

#1820
1aaaaa
b1110 aaaae

#1825
0aaaaa
b10 aaaad

#1830
1aaaaa
b1101 aaaae

#1835
0aaaaa
b11 aaaad

#1840
1aaaaa
b1100 aaaae

#1845
0aaaaa
b100 aaaad

#1850
1aaaaa
b1111 aaaae

#1855
0aaaaa
b101 aaaad

#1860
1aaaaa
b1110 aaaae

#1865
0aaaaa
b110 aaaad

#1870
1aaaaa
b1101 aaaae

#1875
0aaaaa
b111 aaaad

#1880
1aaaaa
b1100 aaaae

#1885
0aaaaa
b1000 aaaad

#1890
1aaaaa
b111 aaaae

#1895
0aaaaa
b1001 aaaad

#1900
1aaaaa
b110 aaaae

#1905
0aaaaa
b1010 aaaad

#1910
1aaaaa
b101 aaaae

#1915
0aaaaa
b1011 aaaad

#1920
1aaaaa
b100 aaaae

#1925
0aaaaa
b1100 aaaad

#1930
1aaaaa
b111 aaaae

#1935
0aaaaa
b1101 aaaad

#1940
1aaaaa
b110 aaaae

#1945
0aaaaa
b1110 aaaad

#1950
1aaaaa
b101 aaaae

#1955
0aaaaa
b1111 aaaad

#1960
1aaaaa
b100 aaaae

#1965
0aaaaa
b1100 aaaac
b0 aaaad

#1970
1aaaaa
b1111 aaaae

#1975
0aaaaa
b1 aaaad

#1980
1aaaaa

#1985
0aaaaa
b10 aaaad

#1990
1aaaaa

#1995
0aaaaa
b11 aaaad

#2000
1aaaaa

#2005
0aaaaa
b100 aaaad

#2010
1aaaaa
b1011 aaaae

#2015
0aaaaa
b101 aaaad

#2020
1aaaaa

#2025
0aaaaa
b110 aaaad

#2030
1aaaaa

#2035
0aaaaa
b111 aaaad

#2040
1aaaaa

#2045
0aaaaa
b1000 aaaad

#2050
1aaaaa
b111 aaaae

#2055
0aaaaa
b1001 aaaad

#2060
1aaaaa

#2065
0aaaaa
b1010 aaaad

#2070
1aaaaa

#2075
0aaaaa
b1011 aaaad

#2080
1aaaaa

#2085
0aaaaa
b1100 aaaad

#2090
1aaaaa
b11 aaaae

#2095
0aaaaa
b1101 aaaad

#2100
1aaaaa

#2105
0aaaaa
b1110 aaaad

#2110
1aaaaa

#2115
0aaaaa
b1111 aaaad

#2120
1aaaaa

#2125
0aaaaa
b1101 aaaac
b0 aaaad

#2130
1aaaaa
b1111 aaaae

#2135
0aaaaa
b1 aaaad

#2140
1aaaaa
b1110 aaaae

#2145
0aaaaa
b10 aaaad

#2150
1aaaaa
b1111 aaaae

#2155
0aaaaa
b11 aaaad

#2160
1aaaaa
b1110 aaaae

#2165
0aaaaa
b100 aaaad

#2170
1aaaaa
b1011 aaaae

#2175
0aaaaa
b101 aaaad

#2180
1aaaaa
b1010 aaaae

#2185
0aaaaa
b110 aaaad

#2190
1aaaaa
b1011 aaaae

#2195
0aaaaa
b111 aaaad

#2200
1aaaaa
b1010 aaaae

#2205
0aaaaa
b1000 aaaad

#2210
1aaaaa
b111 aaaae

#2215
0aaaaa
b1001 aaaad

#2220
1aaaaa
b110 aaaae

#2225
0aaaaa
b1010 aaaad

#2230
1aaaaa
b111 aaaae

#2235
0aaaaa
b1011 aaaad

#2240
1aaaaa
b110 aaaae

#2245
0aaaaa
b1100 aaaad

#2250
1aaaaa
b11 aaaae

#2255
0aaaaa
b1101 aaaad

#2260
1aaaaa
b10 aaaae

#2265
0aaaaa
b1110 aaaad

#2270
1aaaaa
b11 aaaae

#2275
0aaaaa
b1111 aaaad

#2280
1aaaaa
b10 aaaae

#2285
0aaaaa
b1110 aaaac
b0 aaaad

#2290
1aaaaa
b1111 aaaae

#2295
0aaaaa
b1 aaaad

#2300
1aaaaa

#2305
0aaaaa
b10 aaaad

#2310
1aaaaa
b1101 aaaae

#2315
0aaaaa
b11 aaaad

#2320
1aaaaa

#2325
0aaaaa
b100 aaaad

#2330
1aaaaa
b1011 aaaae

#2335
0aaaaa
b101 aaaad

#2340
1aaaaa

#2345
0aaaaa
b110 aaaad

#2350
1aaaaa
b1001 aaaae

#2355
0aaaaa
b111 aaaad

#2360
1aaaaa

#2365
0aaaaa
b1000 aaaad

#2370
1aaaaa
b111 aaaae

#2375
0aaaaa
b1001 aaaad

#2380
1aaaaa

#2385
0aaaaa
b1010 aaaad

#2390
1aaaaa
b101 aaaae

#2395
0aaaaa
b1011 aaaad

#2400
1aaaaa

#2405
0aaaaa
b1100 aaaad

#2410
1aaaaa
b11 aaaae

#2415
0aaaaa
b1101 aaaad

#2420
1aaaaa

#2425
0aaaaa
b1110 aaaad

#2430
1aaaaa
b1 aaaae

#2435
0aaaaa
b1111 aaaad

#2440
1aaaaa

#2445
0aaaaa
b1111 aaaac
b0 aaaad

#2450
1aaaaa
b1111 aaaae

#2455
0aaaaa
b1 aaaad

#2460
1aaaaa
b1110 aaaae

#2465
0aaaaa
b10 aaaad

#2470
1aaaaa
b1101 aaaae

#2475
0aaaaa
b11 aaaad

#2480
1aaaaa
b1100 aaaae

#2485
0aaaaa
b100 aaaad

#2490
1aaaaa
b1011 aaaae

#2495
0aaaaa
b101 aaaad

#2500
1aaaaa
b1010 aaaae

#2505
0aaaaa
b110 aaaad

#2510
1aaaaa
b1001 aaaae

#2515
0aaaaa
b111 aaaad

#2520
1aaaaa
b1000 aaaae

#2525
0aaaaa
b1000 aaaad

#2530
1aaaaa
b111 aaaae

#2535
0aaaaa
b1001 aaaad

#2540
1aaaaa
b110 aaaae

#2545
0aaaaa
b1010 aaaad

#2550
1aaaaa
b101 aaaae

#2555
0aaaaa
b1011 aaaad

#2560
1aaaaa
b100 aaaae

#2565
0aaaaa
b1100 aaaad

#2570
1aaaaa
b11 aaaae

#2575
0aaaaa
b1101 aaaad

#2580
1aaaaa
b10 aaaae

#2585
0aaaaa
b1110 aaaad

#2590
1aaaaa
b1 aaaae

#2595
0aaaaa
b1111 aaaad

#2600
1aaaaa
b0 aaaae

