FINAL/UTILS_4BIT/BITWISE_4BIT/AND_4BIT/wavetrace_output.vcd
$date
     May 14, 2025       01:32:15
$end

$version
 SystemC 3.0.2-Accellera --- Apr 10 2025 16:54:46
$end

$timescale
     1 ns
$end

$scope module SystemC $end
$var wire    1  aaaaa  en       $end
$var wire    1  aaaab  rst       $end
$var wire    4  aaaac  a [3:0]  $end
$var wire    4  aaaad  b [3:0]  $end
$var wire    4  aaaae  out [3:0]  $end
$upscope $end
$enddefinitions  $end

$comment
All initial values are dumped below at time 0 sec = 0 timescale units.
$end

$dumpvars
0aaaaa
0aaaab
b0 aaaac
b0 aaaad
b0 aaaae
$end

#15
1aaaaa

#20
0aaaaa

#25
b1 aaaad

#30
1aaaaa

#35
0aaaaa

#40
b10 aaaad

#45
1aaaaa

#50
0aaaaa

#55
b11 aaaad

#60
1aaaaa

#65
0aaaaa

#70
b100 aaaad

#75
1aaaaa

#80
0aaaaa

#85
b101 aaaad

#90
1aaaaa

#95
0aaaaa

#100
b110 aaaad

#105
1aaaaa

#110
0aaaaa

#115
b111 aaaad

#120
1aaaaa

#125
0aaaaa

#130
b1000 aaaad

#135
1aaaaa

#140
0aaaaa

#145
b1001 aaaad

#150
1aaaaa

#155
0aaaaa

#160
b1010 aaaad

#165
1aaaaa

#170
0aaaaa

#175
b1011 aaaad

#180
1aaaaa

#185
0aaaaa

#190
b1100 aaaad

#195
1aaaaa

#200
0aaaaa

#205
b1101 aaaad

#210
1aaaaa

#215
0aaaaa

#220
b1110 aaaad

#225
1aaaaa

#230
0aaaaa

#235
b1111 aaaad

#240
1aaaaa

#245
0aaaaa

#250
b1 aaaac
b0 aaaad

#255
1aaaaa

#260
0aaaaa

#265
b1 aaaad

#270
1aaaaa
b1 aaaae

#275
0aaaaa

#280
b10 aaaad

#285
1aaaaa
b0 aaaae

#290
0aaaaa

#295
b11 aaaad

#300
1aaaaa
b1 aaaae

#305
0aaaaa

#310
b100 aaaad

#315
1aaaaa
b0 aaaae

#320
0aaaaa

#325
b101 aaaad

#330
1aaaaa
b1 aaaae

#335
0aaaaa

#340
b110 aaaad

#345
1aaaaa
b0 aaaae

#350
0aaaaa

#355
b111 aaaad

#360
1aaaaa
b1 aaaae

#365
0aaaaa

#370
b1000 aaaad

#375
1aaaaa
b0 aaaae

#380
0aaaaa

#385
b1001 aaaad

#390
1aaaaa
b1 aaaae

#395
0aaaaa

#400
b1010 aaaad

#405
1aaaaa
b0 aaaae

#410
0aaaaa

#415
b1011 aaaad

#420
1aaaaa
b1 aaaae

#425
0aaaaa

#430
b1100 aaaad

#435
1aaaaa
b0 aaaae

#440
0aaaaa

#445
b1101 aaaad

#450
1aaaaa
b1 aaaae

#455
0aaaaa

#460
b1110 aaaad

#465
1aaaaa
b0 aaaae

#470
0aaaaa

#475
b1111 aaaad

#480
1aaaaa
b1 aaaae

#485
0aaaaa

#490
b10 aaaac
b0 aaaad

#495
1aaaaa
b0 aaaae

#500
0aaaaa

#505
b1 aaaad

#510
1aaaaa

#515
0aaaaa

#520
b10 aaaad

#525
1aaaaa
b10 aaaae

#530
0aaaaa

#535
b11 aaaad

#540
1aaaaa

#545
0aaaaa

#550
b100 aaaad

#555
1aaaaa
b0 aaaae

#560
0aaaaa

#565
b101 aaaad

#570
1aaaaa

#575
0aaaaa

#580
b110 aaaad

#585
1aaaaa
b10 aaaae

#590
0aaaaa

#595
b111 aaaad

#600
1aaaaa

#605
0aaaaa

#610
b1000 aaaad

#615
1aaaaa
b0 aaaae

#620
0aaaaa

#625
b1001 aaaad

#630
1aaaaa

#635
0aaaaa

#640
b1010 aaaad

#645
1aaaaa
b10 aaaae

#650
0aaaaa

#655
b1011 aaaad

#660
1aaaaa

#665
0aaaaa

#670
b1100 aaaad

#675
1aaaaa
b0 aaaae

#680
0aaaaa

#685
b1101 aaaad

#690
1aaaaa

#695
0aaaaa

#700
b1110 aaaad

#705
1aaaaa
b10 aaaae

#710
0aaaaa

#715
b1111 aaaad

#720
1aaaaa

#725
0aaaaa

#730
b11 aaaac
b0 aaaad

#735
1aaaaa
b0 aaaae

#740
0aaaaa

#745
b1 aaaad

#750
1aaaaa
b1 aaaae

#755
0aaaaa

#760
b10 aaaad

#765
1aaaaa
b10 aaaae

#770
0aaaaa

#775
b11 aaaad

#780
1aaaaa
b11 aaaae

#785
0aaaaa

#790
b100 aaaad

#795
1aaaaa
b0 aaaae

#800
0aaaaa

#805
b101 aaaad

#810
1aaaaa
b1 aaaae

#815
0aaaaa

#820
b110 aaaad

#825
1aaaaa
b10 aaaae

#830
0aaaaa

#835
b111 aaaad

#840
1aaaaa
b11 aaaae

#845
0aaaaa

#850
b1000 aaaad

#855
1aaaaa
b0 aaaae

#860
0aaaaa

#865
b1001 aaaad

#870
1aaaaa
b1 aaaae

#875
0aaaaa

#880
b1010 aaaad

#885
1aaaaa
b10 aaaae

#890
0aaaaa

#895
b1011 aaaad

#900
1aaaaa
b11 aaaae

#905
0aaaaa

#910
b1100 aaaad

#915
1aaaaa
b0 aaaae

#920
0aaaaa

#925
b1101 aaaad

#930
1aaaaa
b1 aaaae

#935
0aaaaa

#940
b1110 aaaad

#945
1aaaaa
b10 aaaae

#950
0aaaaa

#955
b1111 aaaad

#960
1aaaaa
b11 aaaae

#965
0aaaaa

#970
b100 aaaac
b0 aaaad

#975
1aaaaa
b0 aaaae

#980
0aaaaa

#985
b1 aaaad

#990
1aaaaa

#995
0aaaaa

#1000
b10 aaaad

#1005
1aaaaa

#1010
0aaaaa

#1015
b11 aaaad

#1020
1aaaaa

#1025
0aaaaa

#1030
b100 aaaad

#1035
1aaaaa
b100 aaaae

#1040
0aaaaa

#1045
b101 aaaad

#1050
1aaaaa

#1055
0aaaaa

#1060
b110 aaaad

#1065
1aaaaa

#1070
0aaaaa

#1075
b111 aaaad

#1080
1aaaaa

#1085
0aaaaa

#1090
b1000 aaaad

#1095
1aaaaa
b0 aaaae

#1100
0aaaaa

#1105
b1001 aaaad

#1110
1aaaaa

#1115
0aaaaa

#1120
b1010 aaaad

#1125
1aaaaa

#1130
0aaaaa

#1135
b1011 aaaad

#1140
1aaaaa

#1145
0aaaaa

#1150
b1100 aaaad

#1155
1aaaaa
b100 aaaae

#1160
0aaaaa

#1165
b1101 aaaad

#1170
1aaaaa

#1175
0aaaaa

#1180
b1110 aaaad

#1185
1aaaaa

#1190
0aaaaa

#1195
b1111 aaaad

#1200
1aaaaa

#1205
0aaaaa

#1210
b101 aaaac
b0 aaaad

#1215
1aaaaa
b0 aaaae

#1220
0aaaaa

#1225
b1 aaaad

#1230
1aaaaa
b1 aaaae

#1235
0aaaaa

#1240
b10 aaaad

#1245
1aaaaa
b0 aaaae

#1250
0aaaaa

#1255
b11 aaaad

#1260
1aaaaa
b1 aaaae

#1265
0aaaaa

#1270
b100 aaaad

#1275
1aaaaa
b100 aaaae

#1280
0aaaaa

#1285
b101 aaaad

#1290
1aaaaa
b101 aaaae

#1295
0aaaaa

#1300
b110 aaaad

#1305
1aaaaa
b100 aaaae

#1310
0aaaaa

#1315
b111 aaaad

#1320
1aaaaa
b101 aaaae

#1325
0aaaaa

#1330
b1000 aaaad

#1335
1aaaaa
b0 aaaae

#1340
0aaaaa

#1345
b1001 aaaad

#1350
1aaaaa
b1 aaaae

#1355
0aaaaa

#1360
b1010 aaaad

#1365
1aaaaa
b0 aaaae

#1370
0aaaaa

#1375
b1011 aaaad

#1380
1aaaaa
b1 aaaae

#1385
0aaaaa

#1390
b1100 aaaad

#1395
1aaaaa
b100 aaaae

#1400
0aaaaa

#1405
b1101 aaaad

#1410
1aaaaa
b101 aaaae

#1415
0aaaaa

#1420
b1110 aaaad

#1425
1aaaaa
b100 aaaae

#1430
0aaaaa

#1435
b1111 aaaad

#1440
1aaaaa
b101 aaaae

#1445
0aaaaa

#1450
b110 aaaac
b0 aaaad

#1455
1aaaaa
b0 aaaae

#1460
0aaaaa

#1465
b1 aaaad

#1470
1aaaaa

#1475
0aaaaa

#1480
b10 aaaad

#1485
1aaaaa
b10 aaaae

#1490
0aaaaa

#1495
b11 aaaad

#1500
1aaaaa

#1505
0aaaaa

#1510
b100 aaaad

#1515
1aaaaa
b100 aaaae

#1520
0aaaaa

#1525
b101 aaaad

#1530
1aaaaa

#1535
0aaaaa

#1540
b110 aaaad

#1545
1aaaaa
b110 aaaae

#1550
0aaaaa

#1555
b111 aaaad

#1560
1aaaaa

#1565
0aaaaa

#1570
b1000 aaaad

#1575
1aaaaa
b0 aaaae

#1580
0aaaaa

#1585
b1001 aaaad

#1590
1aaaaa

#1595
0aaaaa

#1600
b1010 aaaad

#1605
1aaaaa
b10 aaaae

#1610
0aaaaa

#1615
b1011 aaaad

#1620
1aaaaa

#1625
0aaaaa

#1630
b1100 aaaad

#1635
1aaaaa
b100 aaaae

#1640
0aaaaa

#1645
b1101 aaaad

#1650
1aaaaa

#1655
0aaaaa

#1660
b1110 aaaad

#1665
1aaaaa
b110 aaaae

#1670
0aaaaa

#1675
b1111 aaaad

#1680
1aaaaa

#1685
0aaaaa

#1690
b111 aaaac
b0 aaaad

#1695
1aaaaa
b0 aaaae

#1700
0aaaaa

#1705
b1 aaaad

#1710
1aaaaa
b1 aaaae

#1715
0aaaaa

#1720
b10 aaaad

#1725
1aaaaa
b10 aaaae

#1730
0aaaaa

#1735
b11 aaaad

#1740
1aaaaa
b11 aaaae

#1745
0aaaaa

#1750
b100 aaaad

#1755
1aaaaa
b100 aaaae

#1760
0aaaaa

#1765
b101 aaaad

#1770
1aaaaa
b101 aaaae

#1775
0aaaaa

#1780
b110 aaaad

#1785
1aaaaa
b110 aaaae

#1790
0aaaaa

#1795
b111 aaaad

#1800
1aaaaa
b111 aaaae

#1805
0aaaaa

#1810
b1000 aaaad

#1815
1aaaaa
b0 aaaae

#1820
0aaaaa

#1825
b1001 aaaad

#1830
1aaaaa
b1 aaaae

#1835
0aaaaa

#1840
b1010 aaaad

#1845
1aaaaa
b10 aaaae

#1850
0aaaaa

#1855
b1011 aaaad

#1860
1aaaaa
b11 aaaae

#1865
0aaaaa

#1870
b1100 aaaad

#1875
1aaaaa
b100 aaaae

#1880
0aaaaa

#1885
b1101 aaaad

#1890
1aaaaa
b101 aaaae

#1895
0aaaaa

#1900
b1110 aaaad

#1905
1aaaaa
b110 aaaae

#1910
0aaaaa

#1915
b1111 aaaad

#1920
1aaaaa
b111 aaaae

#1925
0aaaaa

#1930
b1000 aaaac
b0 aaaad

#1935
1aaaaa
b0 aaaae

#1940
0aaaaa

#1945
b1 aaaad

#1950
1aaaaa

#1955
0aaaaa

#1960
b10 aaaad

#1965
1aaaaa

#1970
0aaaaa

#1975
b11 aaaad

#1980
1aaaaa

#1985
0aaaaa

#1990
b100 aaaad

#1995
1aaaaa

#2000
0aaaaa

#2005
b101 aaaad

#2010
1aaaaa

#2015
0aaaaa

#2020
b110 aaaad

#2025
1aaaaa

#2030
0aaaaa

#2035
b111 aaaad

#2040
1aaaaa

#2045
0aaaaa

#2050
b1000 aaaad

#2055
1aaaaa
b1000 aaaae

#2060
0aaaaa

#2065
b1001 aaaad

#2070
1aaaaa

#2075
0aaaaa

#2080
b1010 aaaad

#2085
1aaaaa

#2090
0aaaaa

#2095
b1011 aaaad

#2100
1aaaaa

#2105
0aaaaa

#2110
b1100 aaaad

#2115
1aaaaa

#2120
0aaaaa

#2125
b1101 aaaad

#2130
1aaaaa

#2135
0aaaaa

#2140
b1110 aaaad

#2145
1aaaaa

#2150
0aaaaa

#2155
b1111 aaaad

#2160
1aaaaa

#2165
0aaaaa

#2170
b1001 aaaac
b0 aaaad

#2175
1aaaaa
b0 aaaae

#2180
0aaaaa

#2185
b1 aaaad

#2190
1aaaaa
b1 aaaae

#2195
0aaaaa

#2200
b10 aaaad

#2205
1aaaaa
b0 aaaae

#2210
0aaaaa

#2215
b11 aaaad

#2220
1aaaaa
b1 aaaae

#2225
0aaaaa

#2230
b100 aaaad

#2235
1aaaaa
b0 aaaae

#2240
0aaaaa

#2245
b101 aaaad

#2250
1aaaaa
b1 aaaae

#2255
0aaaaa

#2260
b110 aaaad

#2265
1aaaaa
b0 aaaae

#2270
0aaaaa

#2275
b111 aaaad

#2280
1aaaaa
b1 aaaae

#2285
0aaaaa

#2290
b1000 aaaad

#2295
1aaaaa
b1000 aaaae

#2300
0aaaaa

#2305
b1001 aaaad

#2310
1aaaaa
b1001 aaaae

#2315
0aaaaa

#2320
b1010 aaaad

#2325
1aaaaa
b1000 aaaae

#2330
0aaaaa

#2335
b1011 aaaad

#2340
1aaaaa
b1001 aaaae

#2345
0aaaaa

#2350
b1100 aaaad

#2355
1aaaaa
b1000 aaaae

#2360
0aaaaa

#2365
b1101 aaaad

#2370
1aaaaa
b1001 aaaae

#2375
0aaaaa

#2380
b1110 aaaad

#2385
1aaaaa
b1000 aaaae

#2390
0aaaaa

#2395
b1111 aaaad

#2400
1aaaaa
b1001 aaaae

#2405
0aaaaa

#2410
b1010 aaaac
b0 aaaad

#2415
1aaaaa
b0 aaaae

#2420
0aaaaa

#2425
b1 aaaad

#2430
1aaaaa

#2435
0aaaaa

#2440
b10 aaaad

#2445
1aaaaa
b10 aaaae

#2450
0aaaaa

#2455
b11 aaaad

#2460
1aaaaa

#2465
0aaaaa

#2470
b100 aaaad

#2475
1aaaaa
b0 aaaae

#2480
0aaaaa

#2485
b101 aaaad

#2490
1aaaaa

#2495
0aaaaa

#2500
b110 aaaad

#2505
1aaaaa
b10 aaaae

#2510
0aaaaa

#2515
b111 aaaad

#2520
1aaaaa

#2525
0aaaaa

#2530
1aaaab
b1000 aaaad
b0 aaaae

#2535
0aaaab

#2545
1aaaaa
b1000 aaaae

#2550
0aaaaa

#2555
b1001 aaaad

#2560
1aaaaa

#2565
0aaaaa

#2570
b1010 aaaad

#2575
1aaaaa
b1010 aaaae

#2580
0aaaaa

#2585
b1011 aaaad

#2590
1aaaaa

#2595
0aaaaa

#2600
b1100 aaaad

#2605
1aaaaa
b1000 aaaae

#2610
0aaaaa

#2615
b1101 aaaad

#2620
1aaaaa

#2625
0aaaaa

#2630
b1110 aaaad

#2635
1aaaaa
b1010 aaaae

#2640
0aaaaa

#2645
b1111 aaaad

#2650
1aaaaa

#2655
0aaaaa

#2660
b1011 aaaac
b0 aaaad

#2665
1aaaaa
b0 aaaae

#2670
0aaaaa

#2675
b1 aaaad

#2680
1aaaaa
b1 aaaae

#2685
0aaaaa

#2690
b10 aaaad

#2695
1aaaaa
b10 aaaae

#2700
0aaaaa

#2705
b11 aaaad

#2710
1aaaaa
b11 aaaae

#2715
0aaaaa

#2720
b100 aaaad

#2725
1aaaaa
b0 aaaae

#2730
0aaaaa

#2735
b101 aaaad

#2740
1aaaaa
b1 aaaae

#2745
0aaaaa

#2750
b110 aaaad

#2755
1aaaaa
b10 aaaae

#2760
0aaaaa

#2765
b111 aaaad

#2770
1aaaaa
b11 aaaae

#2775
0aaaaa

#2780
b1000 aaaad

#2785
1aaaaa
b1000 aaaae

#2790
0aaaaa

#2795
b1001 aaaad

#2800
1aaaaa
b1001 aaaae

#2805
0aaaaa

#2810
b1010 aaaad

#2815
1aaaaa
b1010 aaaae

#2820
0aaaaa

#2825
b1011 aaaad

#2830
1aaaaa
b1011 aaaae

#2835
0aaaaa

#2840
b1100 aaaad

#2845
1aaaaa
b1000 aaaae

#2850
0aaaaa

#2855
b1101 aaaad

#2860
1aaaaa
b1001 aaaae

#2865
0aaaaa

#2870
b1110 aaaad

#2875
1aaaaa
b1010 aaaae

#2880
0aaaaa

#2885
b1111 aaaad

#2890
1aaaaa
b1011 aaaae

#2895
0aaaaa

#2900
b1100 aaaac
b0 aaaad

#2905
1aaaaa
b0 aaaae

#2910
0aaaaa

#2915
b1 aaaad

#2920
1aaaaa

#2925
0aaaaa

#2930
b10 aaaad

#2935
1aaaaa

#2940
0aaaaa

#2945
b11 aaaad

#2950
1aaaaa

#2955
0aaaaa

#2960
b100 aaaad

#2965
1aaaaa
b100 aaaae

#2970
0aaaaa

#2975
b101 aaaad

#2980
1aaaaa

#2985
0aaaaa

#2990
b110 aaaad

#2995
1aaaaa

#3000
0aaaaa

#3005
b111 aaaad

#3010
1aaaaa

#3015
0aaaaa

#3020
b1000 aaaad

#3025
1aaaaa
b1000 aaaae

#3030
0aaaaa

#3035
b1001 aaaad

#3040
1aaaaa

#3045
0aaaaa

#3050
b1010 aaaad

#3055
1aaaaa

#3060
0aaaaa

#3065
b1011 aaaad

#3070
1aaaaa

#3075
0aaaaa

#3080
b1100 aaaad

#3085
1aaaaa
b1100 aaaae

#3090
0aaaaa

#3095
b1101 aaaad

#3100
1aaaaa

#3105
0aaaaa

#3110
b1110 aaaad

#3115
1aaaaa

#3120
0aaaaa

#3125
b1111 aaaad

#3130
1aaaaa

#3135
0aaaaa

#3140
b1101 aaaac
b0 aaaad

#3145
1aaaaa
b0 aaaae

#3150
0aaaaa

#3155
b1 aaaad

#3160
1aaaaa
b1 aaaae

#3165
0aaaaa

#3170
b10 aaaad

#3175
1aaaaa
b0 aaaae

#3180
0aaaaa

#3185
b11 aaaad

#3190
1aaaaa
b1 aaaae

#3195
0aaaaa

#3200
b100 aaaad

#3205
1aaaaa
b100 aaaae

#3210
0aaaaa

#3215
b101 aaaad

#3220
1aaaaa
b101 aaaae

#3225
0aaaaa

#3230
b110 aaaad

#3235
1aaaaa
b100 aaaae

#3240
0aaaaa

#3245
b111 aaaad

#3250
1aaaaa
b101 aaaae

#3255
0aaaaa

#3260
b1000 aaaad

#3265
1aaaaa
b1000 aaaae

#3270
0aaaaa

#3275
b1001 aaaad

#3280
1aaaaa
b1001 aaaae

#3285
0aaaaa

#3290
b1010 aaaad

#3295
1aaaaa
b1000 aaaae

#3300
0aaaaa

#3305
b1011 aaaad

#3310
1aaaaa
b1001 aaaae

#3315
0aaaaa

#3320
b1100 aaaad

#3325
1aaaaa
b1100 aaaae

#3330
0aaaaa

#3335
b1101 aaaad

#3340
1aaaaa
b1101 aaaae

#3345
0aaaaa

#3350
b1110 aaaad

#3355
1aaaaa
b1100 aaaae

#3360
0aaaaa

#3365
b1111 aaaad

#3370
1aaaaa
b1101 aaaae

#3375
0aaaaa

#3380
b1110 aaaac
b0 aaaad

#3385
1aaaaa
b0 aaaae

#3390
0aaaaa

#3395
b1 aaaad

#3400
1aaaaa

#3405
0aaaaa

#3410
b10 aaaad

#3415
1aaaaa
b10 aaaae

#3420
0aaaaa

#3425
b11 aaaad

#3430
1aaaaa

#3435
0aaaaa

#3440
b100 aaaad

#3445
1aaaaa
b100 aaaae

#3450
0aaaaa

#3455
b101 aaaad

#3460
1aaaaa

#3465
0aaaaa

#3470
b110 aaaad

#3475
1aaaaa
b110 aaaae

#3480
0aaaaa

#3485
b111 aaaad

#3490
1aaaaa

#3495
0aaaaa

#3500
b1000 aaaad

#3505
1aaaaa
b1000 aaaae

#3510
0aaaaa

#3515
b1001 aaaad

#3520
1aaaaa

#3525
0aaaaa

#3530
b1010 aaaad

#3535
1aaaaa
b1010 aaaae

#3540
0aaaaa

#3545
b1011 aaaad

#3550
1aaaaa

#3555
0aaaaa

#3560
b1100 aaaad

#3565
1aaaaa
b1100 aaaae

#3570
0aaaaa

#3575
b1101 aaaad

#3580
1aaaaa

#3585
0aaaaa

#3590
b1110 aaaad

#3595
1aaaaa
b1110 aaaae

#3600
0aaaaa

#3605
b1111 aaaad

#3610
1aaaaa

#3615
0aaaaa

#3620
b1111 aaaac
b0 aaaad

#3625
1aaaaa
b0 aaaae

#3630
0aaaaa

#3635
b1 aaaad

#3640
1aaaaa
b1 aaaae

#3645
0aaaaa

#3650
b10 aaaad

#3655
1aaaaa
b10 aaaae

#3660
0aaaaa

#3665
b11 aaaad

#3670
1aaaaa
b11 aaaae

#3675
0aaaaa

#3680
b100 aaaad

#3685
1aaaaa
b100 aaaae

#3690
0aaaaa

#3695
b101 aaaad

#3700
1aaaaa
b101 aaaae

#3705
0aaaaa

#3710
b110 aaaad

#3715
1aaaaa
b110 aaaae

#3720
0aaaaa

#3725
b111 aaaad

#3730
1aaaaa
b111 aaaae

#3735
0aaaaa

#3740
b1000 aaaad

#3745
1aaaaa
b1000 aaaae

#3750
0aaaaa

#3755
b1001 aaaad

#3760
1aaaaa
b1001 aaaae

#3765
0aaaaa

#3770
b1010 aaaad

#3775
1aaaaa
b1010 aaaae

#3780
0aaaaa

#3785
b1011 aaaad

#3790
1aaaaa
b1011 aaaae

#3795
0aaaaa

#3800
b1100 aaaad

#3805
1aaaaa
b1100 aaaae

#3810
0aaaaa

#3815
b1101 aaaad

#3820
1aaaaa
b1101 aaaae

#3825
0aaaaa

#3830
b1110 aaaad

#3835
1aaaaa
b1110 aaaae

#3840
0aaaaa

#3845
b1111 aaaad

#3850
1aaaaa
b1111 aaaae

#3855
0aaaaa

