FINAL/B_1.b/gcd_caculator/gcd_top/wavetrace_output.vcd
$date
     May 14, 2025       21:29:31
$end

$version
 SystemC 3.0.2-Accellera --- Apr 10 2025 16:54:46
$end

$timescale
     1 ns
$end

$scope module SystemC $end
$var wire    1  aaaaa  clk       $end
$var wire    4  aaaab  x_sig [3:0]  $end
$var wire    4  aaaac  y_sig [3:0]  $end
$var wire    1  aaaad  en_sig       $end
$var wire    1  aaaae  done_sig       $end
$var wire    4  aaaaf  out_sig [3:0]  $end
$var wire    1  aaaag  stop_sig       $end
$upscope $end
$enddefinitions  $end

$comment
All initial values are dumped below at time 0 sec = 0 timescale units.
$end

$dumpvars
1aaaaa
b1110 aaaab
b111 aaaac
1aaaad
0aaaae
b0 aaaaf
0aaaag
$end

#5
0aaaaa

#10
1aaaaa

#15
0aaaaa

#20
1aaaaa

#25
0aaaaa

#30
1aaaaa

#35
0aaaaa

#40
1aaaaa

#45
0aaaaa

#50
1aaaaa
1aaaae
b111 aaaaf

#55
0aaaaa

#60
1aaaaa
0aaaad
0aaaae

#65
0aaaaa

#70
1aaaaa

#75
0aaaaa

#80
1aaaaa
b1111 aaaab
b11 aaaac
1aaaad

#85
0aaaaa

#90
1aaaaa

#95
0aaaaa

#100
1aaaaa

#105
0aaaaa

#110
1aaaaa

#115
0aaaaa

#120
1aaaaa

#125
0aaaaa

#130
1aaaaa

#135
0aaaaa

#140
1aaaaa

#145
0aaaaa

#150
1aaaaa

#155
0aaaaa

#160
1aaaaa

#165
0aaaaa

#170
1aaaaa

#175
0aaaaa

#180
1aaaaa

#185
0aaaaa

#190
1aaaaa

#195
0aaaaa

#200
1aaaaa

#205
0aaaaa

#210
1aaaaa

#215
0aaaaa

#220
1aaaaa
1aaaae
b11 aaaaf

#225
0aaaaa

#230
1aaaaa
0aaaad
0aaaae

#235
0aaaaa

#240
1aaaaa

#245
0aaaaa

#250
1aaaaa
b11 aaaab
b111 aaaac
1aaaad

#255
0aaaaa

#260
1aaaaa

#265
0aaaaa

#270
1aaaaa

#275
0aaaaa

#280
1aaaaa

#285
0aaaaa

#290
1aaaaa

#295
0aaaaa

#300
1aaaaa

#305
0aaaaa

#310
1aaaaa

#315
0aaaaa

#320
1aaaaa

#325
0aaaaa

#330
1aaaaa

#335
0aaaaa

#340
1aaaaa

#345
0aaaaa

#350
1aaaaa

#355
0aaaaa

#360
1aaaaa

#365
0aaaaa

#370
1aaaaa

#375
0aaaaa

#380
1aaaaa

#385
0aaaaa

#390
1aaaaa
1aaaae
b1 aaaaf

#395
0aaaaa

#400
1aaaaa
0aaaad
0aaaae

